  0: monster     pri_monolith_respawn_1@oksana_spawn.script:damned_hospital:693                         (sim_monolith_regular )  @  -89.7410,   25.0450,  750.8800
  1: monster     tank_spawn_zasada5@oksana_spawn.script:damned_hospital:694                             (GENERATE_NAME_stalker)  @  -85.7880,   28.6900,  755.2600
  2: monster     pri_monolith_respawn_2@oksana_spawn.script:damned_hospital:696                         (sim_monolith_specnaz )  @  -84.7100,   31.9590,  735.2920
  3: monster     tank_spawn_zasada@oksana_spawn.script:damned_hospital:698                              (GENERATE_NAME_stalker)  @  -86.8880,   31.9590,  734.2310
  4: monster     pri_monolith_respawn_3@oksana_spawn.script:damned_hospital:700                         (sim_monolith_master  )  @  -75.8110,   32.1960,  683.5100
  5: monster     tank_spawn_zasada@oksana_spawn.script:damned_hospital:702                              (GENERATE_NAME_stalker)  @  -86.9650,   31.9270,  773.1400
  6: monster     tank_spawn_zasada6@oksana_spawn.script:damned_hospital_1:708                           (GENERATE_NAME_stalker)  @  -74.0870,   31.9580,  656.9890
  7: monster     tank_spawn_zasada@oksana_spawn.script:damned_hospital_1:709                            (GENERATE_NAME_stalker)  @  -76.8760,   31.9620,  662.4260
  8: monster     tank_spawn_zasada1@oksana_spawn.script:damned_hospital_1:710                           (GENERATE_NAME_stalker)  @  -85.8310,   31.9600,  678.0440
  9: monster     tank_spawn_zasada2@oksana_spawn.script:damned_hospital_1:711                           (GENERATE_NAME_stalker)  @  -93.6010,   31.9610,  677.9930
 10: monster     tank_spawn_zasada3@oksana_spawn.script:damned_hospital_1:712                           (GENERATE_NAME_stalker)  @  -97.9600,   31.9590,  657.5090
 11: monster     tank_spawn_zasada4@oksana_spawn.script:damned_hospital_1:713                           (GENERATE_NAME_stalker)  @  -96.7040,   31.9590,  643.8780
 12: monster     tank_spawn_zasada5@oksana_spawn.script:damned_hospital_1:714                           (GENERATE_NAME_stalker)  @  -76.4490,   31.9600,  632.9610
 13: monster     tank_spawn_zasada6@oksana_spawn.script:damned_hospital_1:715                           (GENERATE_NAME_stalker)  @  -78.6490,   31.9600,  632.9600
 14: monster     tank_spawn_zasada6@oksana_spawn.script:damned_hospital_2:718                           (GENERATE_NAME_stalker)  @  -84.9370,   26.7800,  750.9930
 15: monster     tank_spawn_zasada@oksana_spawn.script:damned_hospital_2:721                            (GENERATE_NAME_stalker)  @  -87.5010,   32.1250,  743.4120
 16: monster     tank_spawn_zasada5@oksana_spawn.script:damned_hospital_2:723                           (GENERATE_NAME_stalker)  @  -85.9890,   32.0010,  743.3390
 17: monster     tank_spawn_zasada3@oksana_spawn.script:damned_hospital_2:725                           (GENERATE_NAME_stalker)  @  -86.1280,   31.9590,  744.8560
 18: monster     tank_spawn_zasada4@oksana_spawn.script:damned_hospital_2:728                           (GENERATE_NAME_stalker)  @  -86.0910,   31.9580, 3052.0000
 19: monster     tank_spawn_zasada6@oksana_spawn.script:damned_hospital_2:729                           (GENERATE_NAME_stalker)  @  -86.9002,   31.9590,  744.4060
 20: monster     tank_spawn_zasada3@oksana_spawn.script:damned_hospital_2:733                           (GENERATE_NAME_stalker)  @  -94.0760,   31.9600,  648.4860
 21: monster     tank_spawn_zasada6@oksana_spawn.script:damned_hospital_2:737                           (GENERATE_NAME_stalker)  @  -75.8490,   31.9590,  678.2970
 22: monster     tank_spawn_zasada2@oksana_spawn.script:damned_hospital_2:738                           (GENERATE_NAME_stalker)  @  -76.7010,   31.9600,  675.5170
 23: monster     tank_spawn_zasada6@oksana_spawn.script:damned_hospital_2:740                           (GENERATE_NAME_stalker)  @  -79.5320,   32.2910,  736.0020
 24: monster     tank_spawn_zasada@oksana_spawn.script:damned_hospital_2:742                            (GENERATE_NAME_stalker)  @  -98.4950,   32.2160,  727.3420
 25: monster     tank_spawn_zasada1@oksana_spawn.script:damned_hospital_2:744                           (GENERATE_NAME_stalker)  @  -77.7430,   25.2220,  731.6880
 26: monster     tank_spawn_zasada2@oksana_spawn.script:damned_hospital_2:746                           (GENERATE_NAME_stalker)  @  -86.1950,   32.2170,  681.6330
 27: monster     tank_spawn_zasada3@oksana_spawn.script:damned_hospital_2:748                           (GENERATE_NAME_stalker)  @ -102.4180,   32.2170,  669.5300
 28: monster     tank_spawn_zasada5@oksana_spawn.script:damned_hospital_2:750                           (GENERATE_NAME_stalker)  @  -70.1550,   32.2160,  631.7260
