-243.87, -  0.00, - 40.28 -> -201.93, -  3.33, - 63.89
-183.15, -  0.00,  144.33 -> -167.61, -  0.00,   98.14
-212.72,    1.90,  109.44 -> -189.57, -  0.01,  133.46
-267.46, -  6.00,  104.18 -> -215.89,    1.89,   86.53
-195.91, - 12.24,  104.08 -> -243.01, -  6.00,   91.19
-269.66, -  3.90,   98.85 -> -280.92, -  6.00,  111.21
-196.93,    4.84,  105.65 -> -200.48,    0.99,  105.35
-207.14,    1.90,  112.55 -> -201.04,    0.82,  105.01
-206.91,    1.70,   99.07 -> -208.64,    1.89,  116.76
