 0: ros_surprise_box_001                                                  random @ -228.5720,    0.1655,  143.8949
 1: ros_surprise_box_001_0000                                             random @ -244.3378,    0.9087,  169.5582
 2: ros_surprise_box_001_0001                                             random @ -267.6104,    0.0003,  156.3102
 3: ros_surprise_box_001_0002                                             random @ -255.7705,   -5.8375,   87.4585
 4: ros_surprise_box_001_0003                                             random @ -259.2851,    0.2744,   94.0519
 5: ros_surprise_box_001_0004                                             random @ -220.3235,    1.4533,  118.0287
 6: ros_surprise_box_001_0005                                             random @ -217.7297,    1.4533,  122.4267
 7: ros_surprise_box_001_0007                                             random @ -253.5721,    1.4823,    8.8096
 8: ros_surprise_box_001_0008                                             random @ -254.6031,    1.4247,    9.3220
 9: ros_surprise_box_001_0009                                             random @  -89.7714,    4.0844,  135.6409
10: ros_surprise_box_001_0012                                             random @  -83.4863,    2.7555,  158.7719
11: ros_surprise_box_001_0013                                             random @ -144.3573,    7.4992,  161.3550
12: ros_surprise_box_001_0014                                             random @ -168.0928,    3.1865,  104.3058
13: ros_surprise_box_001_0015                                             random @ -210.8904,    1.8998,  109.1302
