 0: kuznec_mina@buusty_dialog.script:bar_james_add:4311                   kuznec_mina                   Усиленная противопехотная мина  @  -72.4600,    2.3000, -252.2400
 1: kuznec_mina@buusty_dialog.script:bar_james_add:4313                   kuznec_mina                   Усиленная противопехотная мина  @  -77.3800,    2.4300, -251.8700
 2: kuznec_mina@buusty_dialog.script:bar_james_add:4315                   kuznec_mina                   Усиленная противопехотная мина  @  -86.5600,    3.3700, -251.6200
 3: kuznec_mina@buusty_dialog.script:bar_james_add:4317                   kuznec_mina                   Усиленная противопехотная мина  @  -92.8400,    3.4300, -251.0400
 4: kuznec_mina@buusty_dialog.script:bar_james_add:4319                   kuznec_mina                   Усиленная противопехотная мина  @  -98.1500,    5.8200, -256.6900
 5: kuznec_mina@buusty_dialog.script:bar_james_add:4321                   kuznec_mina                   Усиленная противопехотная мина  @ -103.1900,    6.5300, -262.8300
 6: kuznec_mina@buusty_dialog.script:bar_james_add:4323                   kuznec_mina                   Усиленная противопехотная мина  @  -95.9300,    7.4700, -267.9300
 7: kuznec_mina@buusty_dialog.script:bar_james_add:4325                   kuznec_mina                   Усиленная противопехотная мина  @  -95.3300,    7.8600, -273.0100
 8: kuznec_mina@buusty_dialog.script:bar_james_add:4327                   kuznec_mina                   Усиленная противопехотная мина  @  -80.6200,    6.8600, -264.0700
 9: kuznec_mina@buusty_dialog.script:bar_james_add:4329                   kuznec_mina                   Усиленная противопехотная мина  @  -98.6200,    5.8000, -256.8400
10: kuznec_mina@buusty_dialog.script:bar_james_add:4331                   kuznec_mina                   Усиленная противопехотная мина  @  -87.8700,    4.9500, -256.0900
11: kuznec_mina@buusty_dialog.script:bar_james_add:4333                   kuznec_mina                   Усиленная противопехотная мина  @ -117.6600,    6.3600, -284.4800
12: kuznec_mina@buusty_dialog.script:bar_james_add:4335                   kuznec_mina                   Усиленная противопехотная мина  @ -110.3300,    7.2400, -276.2300
13: kuznec_mina@buusty_dialog.script:bar_james_add2:4370                  kuznec_mina                   Усиленная противопехотная мина  @  -79.4200,    5.2400, -257.5700
14: kuznec_mina@buusty_dialog.script:bar_james_add2:4372                  kuznec_mina                   Усиленная противопехотная мина  @  -88.8500,    6.6500, -260.5900
15: kuznec_mina@buusty_dialog.script:bar_james_add2:4374                  kuznec_mina                   Усиленная противопехотная мина  @  -89.1300,    7.1300, -264.8200
16: kuznec_mina@buusty_dialog.script:bar_james_add2:4376                  kuznec_mina                   Усиленная противопехотная мина  @  -83.0900,    7.2200, -267.6300
17: kuznec_mina@buusty_dialog.script:bar_james_add2:4378                  kuznec_mina                   Усиленная противопехотная мина  @  -87.7800,    3.9700, -253.3700
18: kuznec_mina@buusty_dialog.script:bar_james_add2:4380                  kuznec_mina                   Усиленная противопехотная мина  @ -110.7800,    5.5100, -264.6800
19: kuznec_mina@buusty_dialog.script:bar_james_add2:4382                  kuznec_mina                   Усиленная противопехотная мина  @  -89.4900,    7.4300, -268.6600
20: kuznec_mina@buusty_dialog.script:bar_james_add2:4384                  kuznec_mina                   Усиленная противопехотная мина  @  -80.4300,    6.8300, -263.8100
21: kuznec_mina@buusty_dialog.script:bar_james_bonus:4415                 kuznec_mina                   Усиленная противопехотная мина  @  -79.4200,    5.2400, -257.5700
22: kuznec_mina@buusty_dialog.script:bar_james_bonus:4417                 kuznec_mina                   Усиленная противопехотная мина  @  -88.8500,    6.6500, -260.5900
23: kuznec_mina@buusty_dialog.script:bar_james_bonus:4419                 kuznec_mina                   Усиленная противопехотная мина  @  -89.1300,    7.1300, -264.8200
24: kuznec_mina@buusty_dialog.script:bar_james_bonus:4421                 kuznec_mina                   Усиленная противопехотная мина  @  -83.0900,    7.2200, -267.6300
25: kuznec_mina@buusty_dialog.script:bar_james_bonus:4423                 kuznec_mina                   Усиленная противопехотная мина  @  -87.7800,    3.9700, -253.3700
26: kuznec_mina@buusty_dialog.script:bar_james_bonus:4425                 kuznec_mina                   Усиленная противопехотная мина  @ -110.7800,    5.5100, -264.6800
27: kuznec_mina@buusty_dialog.script:bar_james_bonus:4427                 kuznec_mina                   Усиленная противопехотная мина  @  -89.4900,    7.4300, -268.6600
28: kuznec_mina@buusty_dialog.script:bar_james_bonus:4429                 kuznec_mina                   Усиленная противопехотная мина  @  -80.4300,    6.8300, -263.8100
29: glus_1@docent_silence.script:docent_silence_start:7                   glus_1                        Прибор радиоподавления          @ -148.4720,   23.1986,   96.9792
30: glus_2@docent_silence.script:docent_silence_start:8                   glus_2                        Прибор радиоподавления          @ -291.6322,   24.9998,  121.0125
31: glus_3@docent_silence.script:docent_silence_start:9                   glus_3                        Прибор радиоподавления          @ -242.0294,   26.1541,   40.5096
