  0:                                               collector's stash 0_0 @  -80.9949,   -5.1328,  -71.0641
  1:                                               collector's stash 0_1 @ -106.8444,  -11.6223,  -18.2133
  2:                                               collector's stash 0_2 @  -73.2739,  -16.5114, -113.7441
  3:                                               collector's stash 0_3 @ -132.5072,   -3.9593, -139.2566
  4:                                               collector's stash 0_4 @ -112.3302,   -3.9678, -145.2352
  5:                                               collector's stash 0_5 @  -39.4500,   -3.9488,   48.1758
  6:                                               collector's stash 0_6 @  -62.3169,   -7.6285,   10.4584
  7:                    a_inventory_box15@arhara_dialog.script:spawn:712 @  -40.1622,   -4.5871,  -20.5182
  8:             taynik_picture@oksana_spawn.script:backpack_drawing:378 @  -73.6380,   -2.1050, -129.0150
  9:                  cache_subway@oksana_spawn.script:spawn_subway:2607 @  -47.4430,   -4.0130,  -29.6210
 10:             n_inventory_box_uagro1@snp.script:kotobegemot2_done:751 @  -80.0469,    0.3355,  -74.5135
 11:             n_inventory_box_uagro2@snp.script:kotobegemot2_done:752 @  -76.0569,    5.0370,  -71.1019
 12:      a_inventory_box49@dolgovazyi_toolkit.script:plichko_toolkit:29 @  -78.0374,  -12.3984, -108.9336
