  0: kat2_zone_buzz_0000.shape0                                           zone_buzz                     @  -66.2069,  -16.4317,  -39.2674
  1: kat2_zone_buzz_0003.shape0                                           zone_buzz                     @  -58.7216,  -16.4067,  -39.9278
  2: kat2_zone_buzz_0009.shape0                                           zone_buzz                     @  -98.8231,  -16.3785,  -41.3722
  3: kat2_zone_buzz_0014.shape0                                           zone_buzz                     @  -88.4708,  -16.2932,  -35.0335
  4: kat2_zone_buzz_0015.shape0                                           zone_buzz                     @  -45.5613,  -13.9490,  -43.1248
  5: kat2_zone_buzz_0016.shape0                                           zone_buzz                     @ -103.9829,  -16.4651,  -57.2516
  6: kat2_zone_buzz_0019.shape0                                           zone_buzz                     @ -108.4228,  -16.2962,  -84.9880
  7: kat2_zone_buzz_0023.shape0                                           zone_buzz                     @  -82.1078,  -22.4591,   13.7837
  8: kat2_zone_buzz_0026.shape0                                           zone_buzz                     @  -42.7183,   -8.7407,   12.9880
  9: kat2_zone_buzz_0027.shape0                                           zone_buzz                     @ -109.1392,  -16.3893,  -67.5995
 10: kat2_zone_buzz_0030.shape0                                           zone_buzz                     @ -117.1335,  -16.3964,  -55.3383
 11: kat2_zone_buzz_0032.shape0                                           zone_buzz                     @ -104.5366,  -16.4614,  -28.6354
 12: kat2_zone_buzz_0035.shape0                                           zone_buzz                     @ -118.8522,  -14.9972,  -37.4096
 13: kat2_zone_buzz_0036.shape0                                           zone_buzz                     @ -115.1771,  -16.3095,  -33.0109
 14: kat2_zone_buzz_0037.shape0                                           zone_buzz                     @ -102.7552,  -16.4614,  -11.8742
 15: kat2_zone_buzz_0040.shape0                                           zone_buzz                     @  -92.5915,  -16.4217,   -7.4798
 16: kat2_zone_buzz_0043.shape0                                           zone_buzz                     @  -42.0020,   -6.4864,   11.3493
 17: kat2_zone_buzz_0047.shape0                                           zone_buzz                     @  -77.0123,  -16.3406,   18.8380
 18: kat2_zone_buzz_0052.shape0                                           zone_buzz                     @  -82.9317,  -16.2641,   11.1654
 19: kat2_zone_buzz_0053.shape0                                           zone_buzz                     @  -78.9822,  -16.4651,    4.0212
 20: kat2_zone_buzz_0057.shape0                                           zone_buzz                     @  -84.1655,  -16.4508,   -0.5574
 21: kat2_zone_buzz_0060.shape0                                           zone_buzz                     @  -63.8405,  -14.3387,   12.7709
 22: kat_zone_radioactive_weak.shape0                                     zone_radioactive_weak         @  -74.1834,   -3.9012, -130.4844
 23: kat_zone_witches_galantine_strong.shape0                             zone_witches_galantine_strong @  -38.7433,   -3.6738,  -33.7594
 24: kat_zone_witches_galantine_strong_0000.shape0                        zone_witches_galantine_strong @  -38.7433,   -3.6738,  -27.9594
 25: kat_zone_witches_galantine_strong_0001.shape0                        zone_witches_galantine_strong @  -38.7433,   -3.5738,  -22.1594
 26: kat_zone_witches_galantine_strong_0002.shape0                        zone_witches_galantine_strong @  -38.7433,   -3.5738,  -16.3594
 27: kat_zone_witches_galantine_strong_0003.shape0                        zone_witches_galantine_strong @  -38.9433,   -3.6738,  -10.6594
 28: kat_zone_witches_galantine_strong_0004.shape0                        zone_witches_galantine_strong @  -38.9433,   -3.6738,   -4.9594
