  0: level_prefix_zone_zharka_static_average.shape0       zone_zharka_static_average @  328.1751,    9.6089,  654.2552
  1: level_prefix_zone_zharka_static_average_0000.shape0  zone_zharka_static_average @  322.7644,   11.7989,  630.9819
  2: level_prefix_zone_zharka_static_average_0001.shape0  zone_zharka_static_average @  316.8591,    7.5767,  645.7518
  3: level_prefix_zone_zharka_static_average_0002.shape0  zone_zharka_static_average @  316.8909,    9.7193,  665.1834
  4: level_prefix_zone_zharka_static_average_0003.shape0  zone_zharka_static_average @  322.8029,    8.6454,  651.5498
  5: level_prefix_zone_zharka_static_average_0004.shape0  zone_zharka_static_average @  330.5959,   14.3902,  671.8342
  6: level_prefix_zone_zharka_static_average_0005.shape0  zone_zharka_static_average @  405.2589,   15.1043,   82.7337
  7: level_prefix_zone_zharka_static_average_0006.shape0  zone_zharka_static_average @  408.0213,   15.6006,  107.2690
  8: level_prefix_zone_zharka_static_average_0007.shape0  zone_zharka_static_average @  420.5250,   16.4581,  110.9867
  9: level_prefix_zone_zharka_static_average_0008.shape0  zone_zharka_static_average @  435.3853,   14.4130,  133.1948
 10: level_prefix_zone_zharka_static_average_0009.shape0  zone_zharka_static_average @  446.9604,   11.6322,  154.2249
 11: level_prefix_zone_zharka_static_average_0105.shape0  zone_zharka_static_average @  405.2589,   15.1043,   82.7337
 12: level_prefix_zone_zharka_static_strong.shape0        zone_zharka_static_strong  @  328.3630,   10.0741,  649.0642
 13: level_prefix_zone_zharka_static_strong_0000.shape0   zone_zharka_static_strong  @  338.8987,   12.4625,  672.4315
 14: level_prefix_zone_zharka_static_strong_0001.shape0   zone_zharka_static_strong  @  337.8748,   11.2177,  656.7985
 15: level_prefix_zone_zharka_static_strong_0002.shape0   zone_zharka_static_strong  @  308.8700,    7.8347,  663.5167
 16: level_prefix_zone_zharka_static_strong_0003.shape0   zone_zharka_static_strong  @  325.8640,    9.6599,  660.2523
 17: level_prefix_zone_zharka_static_strong_0004.shape0   zone_zharka_static_strong  @  331.5129,   11.2020,  665.1790
 18: level_prefix_zone_zharka_static_strong_0005.shape0   zone_zharka_static_strong  @  350.2318,   14.6663,  660.5861
 19: level_prefix_zone_zharka_static_strong_0006.shape0   zone_zharka_static_strong  @  476.7296,  -11.3501,  -96.0300
 20: level_prefix_zone_zharka_static_strong_0007.shape0   zone_zharka_static_strong  @  463.1097,  -12.3730, -112.8525
 21: level_prefix_zone_zharka_static_strong_0008.shape0   zone_zharka_static_strong  @  474.2117,  -12.1638, -136.1533
 22: level_prefix_zone_zharka_static_strong_0009.shape0   zone_zharka_static_strong  @  490.5974,  -15.3966, -114.3129
 23: level_prefix_zone_zharka_static_strong_0010.shape0   zone_zharka_static_strong  @  504.8232,  -10.0126, -106.3595
 24: level_prefix_zone_zharka_static_strong_0011.shape0   zone_zharka_static_strong  @  473.9135,  -16.5979, -121.0609
 25: level_prefix_zone_zharka_static_strong_0012.shape0   zone_zharka_static_strong  @  491.2434,   -6.9361, -146.6581
 26: level_prefix_zone_zharka_static_strong_0013.shape0   zone_zharka_static_strong  @  456.9251,   -9.1114, -130.1117
 27: level_prefix_zone_zharka_static_strong_0014.shape0   zone_zharka_static_strong  @  471.2540,  -15.3526, -126.1772
 28: level_prefix_zone_zharka_static_weak.shape0          zone_zharka_static_weak    @  343.4727,   11.5605,  661.4542
 29: level_prefix_zone_zharka_static_weak_0000.shape0     zone_zharka_static_weak    @  334.4006,   13.5978,  641.3549
