 0: predbannik_physic_destroyable_object_0009 random @ -264.7253,   20.2512,  262.1494
 1: predbannik_physic_destroyable_object_0010 random @ -264.8557,   20.1146,  263.5666
 2: predbannik_physic_destroyable_object_0011 random @ -264.6417,   20.1756,  265.1226
 3: predbannik_physic_destroyable_object_0029 random @ -227.8895,   31.8138, -176.1773
 4: predbannik_physic_destroyable_object_0040 random @  -65.7692,    4.0625,  -16.8469
