 0: mr_physic_destroyable_object_0003       random @   172.9129,   -15.5750,   738.2351
 1: mr_physic_destroyable_object_0008       random @   144.7355,   -16.0033,   693.2279
 2: mr_physic_destroyable_object_0010       random @   145.4504,   -15.9264,   693.0580
 3: mr_physic_destroyable_object_0028       random @  -220.8177,    10.9992,  -105.4016
 4: mr_physic_destroyable_object_0029       random @  -220.4793,    11.0412,  -104.5859
 5: mr_physic_destroyable_object_0032       random @   174.5410,   -15.9638,    22.8884
 6: mr_physic_destroyable_object_0047       random @   244.5392,   -15.6395,    32.9854
 7: mr_physic_destroyable_object_0051       random @  -178.8947,     8.6899,  -121.4320
 8: mr_physic_destroyable_object_0052       random @  -188.4643,     8.7499,   -90.2755
 9: mr_physic_destroyable_object_0054       random @  -216.1376,    21.4051,  -103.4376
10: mr_physic_destroyable_object_0055       random @  -215.1034,    21.4051,  -102.8025
