  0: mr_zone_radioactive_killing_0065.shape0  zone_radioactive_average @    75.5283,    -6.7099,   790.9776
  1: mr_zone_radioactive_killing_0069.shape0  zone_radioactive_average @   -35.0404,    -4.5339,   240.7434
  2: mr_zone_radioactive_killing_0072.shape0  zone_radioactive_average @   263.8067,   -15.1839,    23.2940
  3: mr_zone_radioactive_killing_0073.shape0  zone_radioactive_average @   -43.3714,    -5.5839,  -405.4150
  4: mr_zone_radioactive_killing_0074.shape0  zone_radioactive_average @   116.1738,    -5.5839,  -628.1035
  5: mr_zone_radioactive_killing_0075.shape0  zone_radioactive_average @    41.8130,     4.4161,  -812.4937
  6: mr_zone_radioactive_killing_0078.shape0  zone_radioactive_average @  -216.5241,    -5.5839,  -497.6748
  7: mr_zone_radioactive_killing_0079.shape0  zone_radioactive_average @  -296.0442,    -5.5839,  -305.5918
  8: mr_zone_radioactive_killing_0081.shape0  zone_radioactive_average @  -313.9226,    -5.3839,    56.8762
  9: mr_zone_radioactive_killing_0082.shape0  zone_radioactive_average @  -135.7433,    -5.7339,   772.4500
 10: mr_zone_radioactive_killing_0084.shape0  zone_radioactive_average @  -400.8523,    -3.9819,  -109.3711
 11: mr_zone_radioactive_killing.shape0       zone_radioactive_killing @   160.3764,    14.0661,   903.9363
 12: mr_zone_radioactive_killing_0000.shape0  zone_radioactive_killing @   243.3168,    14.0661,   888.7244
 13: mr_zone_radioactive_killing_0001.shape0  zone_radioactive_killing @   336.0054,    14.0661,   885.0875
 14: mr_zone_radioactive_killing_0002.shape0  zone_radioactive_killing @   420.2170,    14.0661,   860.5497
 15: mr_zone_radioactive_killing_0003.shape0  zone_radioactive_killing @   432.1728,    14.0661,   770.3535
 16: mr_zone_radioactive_killing_0004.shape0  zone_radioactive_killing @   405.7941,    14.0661,   686.2245
 17: mr_zone_radioactive_killing_0005.shape0  zone_radioactive_killing @   340.4185,    14.0661,   613.8900
 18: mr_zone_radioactive_killing_0006.shape0  zone_radioactive_killing @   246.0792,    14.0661,   536.5263
 19: mr_zone_radioactive_killing_0007.shape0  zone_radioactive_killing @   200.4230,    14.0661,   447.3858
 20: mr_zone_radioactive_killing_0008.shape0  zone_radioactive_killing @   125.0353,    14.0661,   353.9620
 21: mr_zone_radioactive_killing_0009.shape0  zone_radioactive_killing @   196.5396,    14.0661,   308.6415
 22: mr_zone_radioactive_killing_0010.shape0  zone_radioactive_killing @   256.3889,    14.0661,   261.2511
 23: mr_zone_radioactive_killing_0011.shape0  zone_radioactive_killing @   338.3268,    14.0661,   229.6173
 24: mr_zone_radioactive_killing_0012.shape0  zone_radioactive_killing @   426.5258,    14.0661,   197.0889
 25: mr_zone_radioactive_killing_0013.shape0  zone_radioactive_killing @   485.0084,    14.0661,  -135.5354
 26: mr_zone_radioactive_killing_0014.shape0  zone_radioactive_killing @   432.4049,    14.0661,  -207.9336
 27: mr_zone_radioactive_killing_0015.shape0  zone_radioactive_killing @   344.6936,    14.0661,  -256.8643
 28: mr_zone_radioactive_killing_0016.shape0  zone_radioactive_killing @   265.5954,    14.0661,  -290.4626
 29: mr_zone_radioactive_killing_0017.shape0  zone_radioactive_killing @   197.0365,    14.0661,  -308.1949
 30: mr_zone_radioactive_killing_0018.shape0  zone_radioactive_killing @   223.2981,    14.0661,  -432.3554
 31: mr_zone_radioactive_killing_0019.shape0  zone_radioactive_killing @   296.3923,    14.0661,  -491.9529
 32: mr_zone_radioactive_killing_0020.shape0  zone_radioactive_killing @   374.3693,    14.0661,  -549.1373
 33: mr_zone_radioactive_killing_0021.shape0  zone_radioactive_killing @   417.6328,    14.0661,  -620.3688
 34: mr_zone_radioactive_killing_0022.shape0  zone_radioactive_killing @   435.2147,    14.0661,  -706.3412
 35: mr_zone_radioactive_killing_0023.shape0  zone_radioactive_killing @   432.8029,    14.0661,  -797.1729
 36: mr_zone_radioactive_killing_0024.shape0  zone_radioactive_killing @   422.6992,    14.0661,  -877.6636
 37: mr_zone_radioactive_killing_0025.shape0  zone_radioactive_killing @   353.4942,    14.0661,  -929.8603
 38: mr_zone_radioactive_killing_0026.shape0  zone_radioactive_killing @   287.6097,    14.0661,  -989.3018
 39: mr_zone_radioactive_killing_0027.shape0  zone_radioactive_killing @   203.6446,    14.0661,  -998.5153
 40: mr_zone_radioactive_killing_0028.shape0  zone_radioactive_killing @   123.0879,    14.0661, -1021.3050
 41: mr_zone_radioactive_killing_0029.shape0  zone_radioactive_killing @    52.7245,    14.0661, -1018.7971
 42: mr_zone_radioactive_killing_0030.shape0  zone_radioactive_killing @     4.1860,    14.0661, -1023.6649
 43: mr_zone_radioactive_killing_0031.shape0  zone_radioactive_killing @  -425.3362,    14.0661,  -978.1807
 44: mr_zone_radioactive_killing_0033.shape0  zone_radioactive_killing @  -330.9971,    14.0661,  -833.1826
 45: mr_zone_radioactive_killing_0034.shape0  zone_radioactive_killing @  -292.8715,    14.0661,  -761.9092
 46: mr_zone_radioactive_killing_0035.shape0  zone_radioactive_killing @  -233.9978,    14.0661,  -692.5326
 47: mr_zone_radioactive_killing_0036.shape0  zone_radioactive_killing @  -313.5977,    14.0661,  -678.2040
 48: mr_zone_radioactive_killing_0037.shape0  zone_radioactive_killing @  -403.6448,    14.0661,  -612.4520
 49: mr_zone_radioactive_killing_0038.shape0  zone_radioactive_killing @  -463.9371,    14.0661,  -538.5125
 50: mr_zone_radioactive_killing_0039.shape0  zone_radioactive_killing @  -481.5847,    14.0661,  -451.1541
 51: mr_zone_radioactive_killing_0040.shape0  zone_radioactive_killing @  -483.4708,    14.0661,  -351.5876
 52: mr_zone_radioactive_killing_0041.shape0  zone_radioactive_killing @  -481.5075,    14.0661,  -258.3682
 53: mr_zone_radioactive_killing_0042.shape0  zone_radioactive_killing @  -351.7445,     9.1661,   -65.8529
 54: mr_zone_radioactive_killing_0043.shape0  zone_radioactive_killing @  -479.8526,    14.0661,    -6.6457
 55: mr_zone_radioactive_killing_0044.shape0  zone_radioactive_killing @  -480.0057,    14.0661,   343.4832
 56: mr_zone_radioactive_killing_0045.shape0  zone_radioactive_killing @  -382.9415,    14.0661,   391.5959
 57: mr_zone_radioactive_killing_0046.shape0  zone_radioactive_killing @  -303.5388,    14.0661,   429.4463
 58: mr_zone_radioactive_killing_0047.shape0  zone_radioactive_killing @  -217.3046,    14.0661,   502.7313
 59: mr_zone_radioactive_killing_0048.shape0  zone_radioactive_killing @  -143.9291,    14.0661,   597.8965
 60: mr_zone_radioactive_killing_0049.shape0  zone_radioactive_killing @  -273.1448,    14.0661,   584.6501
 61: mr_zone_radioactive_killing_0050.shape0  zone_radioactive_killing @  -373.5061,    14.0661,   623.7866
 62: mr_zone_radioactive_killing_0051.shape0  zone_radioactive_killing @  -454.0542,    14.0661,   658.5213
 63: mr_zone_radioactive_killing_0052.shape0  zone_radioactive_killing @  -455.0669,    14.0661,   727.9511
 64: mr_zone_radioactive_killing_0053.shape0  zone_radioactive_killing @  -439.3162,    14.0661,   813.5041
 65: mr_zone_radioactive_killing_0054.shape0  zone_radioactive_killing @  -381.9958,    14.0661,   828.1497
 66: mr_zone_radioactive_killing_0055.shape0  zone_radioactive_killing @  -358.6950,    14.0661,   984.6010
 67: mr_zone_radioactive_killing_0058.shape0  zone_radioactive_killing @  -187.3933,    14.0661,   970.2601
 68: mr_zone_radioactive_killing_0059.shape0  zone_radioactive_killing @  -160.2824,    14.0661,   973.6422
 69: mr_zone_radioactive_killing_0060.shape0  zone_radioactive_killing @   -65.7702,     5.6661,  1012.3878
 70: mr_zone_radioactive_killing_0061.shape0  zone_radioactive_killing @  -116.8008,    14.0661,  1000.7716
 71: mr_zone_radioactive_killing_0062.shape0  zone_radioactive_killing @    65.5678,    14.0661,   994.3331
 72: mr_zone_radioactive_killing_0063.shape0  zone_radioactive_killing @    91.1029,    14.0661,   896.7225
 73: mr_zone_radioactive_killing_0064.shape0  zone_radioactive_killing @    48.7862,    14.0661,   914.4324
 74: mr_zone_radioactive_killing_0066.shape0  zone_radioactive_killing @  -325.0969,     3.8661,   852.7319
 75: mr_zone_radioactive_killing_0067.shape0  zone_radioactive_killing @    27.9753,    14.0661,   468.7660
 76: mr_zone_radioactive_killing_0071.shape0  zone_radioactive_killing @   153.4115,    10.2161,  -207.6462
 77: mr_zone_radioactive_killing_0068.shape0  zone_radioactive_strong  @  -190.2576,    -4.5339,   333.4461
 78: mr_zone_radioactive_killing_0070.shape0  zone_radioactive_strong  @   -53.1978,    10.2161,   -10.3210
 79: mr_zone_radioactive_killing_0076.shape0  zone_radioactive_weak    @   305.1109,     4.4161,  -768.2158
 80: mr_zone_radioactive_killing_0083.shape0  zone_radioactive_weak    @  -363.4270,    -3.9819,   -86.6971
