  0: LevelWarper level_changer                                                                                                             @   82.6171,   28.3515, -222.5468 1 x 1
  1: manual item wooden_box@oksana_spawn.script:spawn_hermit:2721                             wooden_box         (Небольшой рюкзак       ) @   41.2220,   11.3920,    0.0120
  2: manual item wooden_box@oksana_spawn.script:spawn_hermit:2722                             wooden_box         (Небольшой рюкзак       ) @   42.7680,   11.3090,    0.0020
  3: manual item wooden_box@oksana_spawn.script:spawn_hermit:2723                             wooden_box         (Небольшой рюкзак       ) @   49.7160,   11.3090,   -0.0560
  4: manual item volna_keis@volna_darkness.script:volna_darkness_spawn:7                      volna_keis         (Стальной кейс          ) @   30.8041,   16.5609,   -0.0107
  5: manual item volna_keis@volna_darkness.script:volna_darkness_spawn:8                      volna_keis         (Стальной кейс          ) @   35.8047,    1.2416,   15.1211
  6: manual item volna_keis@volna_darkness.script:volna_darkness_spawn:9                      volna_keis         (Стальной кейс          ) @  -58.3223,    5.2120,    2.3679
  7: manual item volna_keis@volna_darkness.script:volna_darkness_spawn:10                     volna_keis         (Стальной кейс          ) @  -13.8979,    3.1404,  -12.8698
