  0: monster     tank_spawn_zasada@buusty_dialog.script:chutok_mobov:900                                          (GENERATE_NAME_stalker   )  @  -49.4334,    3.2090,   -0.5133
  1: monster     tank_spawn_zasada7@buusty_dialog.script:chutok_mobov:901                                         (GENERATE_NAME_stalker   )  @  -49.4324,    3.2090,   -0.5133
  2: monster     tank_spawn_zasada5@buusty_dialog.script:chutok_mobov:902                                         (GENERATE_NAME_stalker   )  @  -49.4334,    3.2090,   -0.5133
  3: monster     tank_spawn_zasada3@buusty_dialog.script:chutok_mobov:903                                         (GENERATE_NAME_stalker   )  @   -4.4087,    0.0078,   68.7632
  4: monster     tank_spawn_zasada6@buusty_dialog.script:chutok_mobov:904                                         (GENERATE_NAME_stalker   )  @   -4.4087,    0.0078,   68.7633
  5: monster     tank_spawn_zasada7@buusty_dialog.script:chutok_mobov:905                                         (GENERATE_NAME_stalker   )  @   10.9441,    0.3750,   -6.7173
  6: monster     tank_spawn_zasada1@buusty_dialog.script:chutok_mobov:906                                         (GENERATE_NAME_stalker   )  @   10.9441,    0.3750,   -6.7173
  7: monster     tank_spawn_zasada4@buusty_dialog.script:chutok_mobov:907                                         (GENERATE_NAME_stalker   )  @   27.5047,   11.4741,   -0.0016
  8: monster     tank_spawn_zasada4@buusty_dialog.script:chutok_mobov:908                                         (GENERATE_NAME_stalker   )  @    0.0824,   11.3109,  -38.0158
  9: monster     tank_spawn_zasada4@buusty_dialog.script:chutok_mobov:909                                         (GENERATE_NAME_stalker   )  @    9.9520,   11.2416,  -42.3186
 10: monster     tank_spawn_zasada6@buusty_dialog.script:chutok_mobov:910                                         (GENERATE_NAME_stalker   )  @    0.0826,   11.3109,  -38.0158
 11: monster     tank_spawn_zasada2@buusty_dialog.script:chutok_mobov:911                                         (GENERATE_NAME_stalker   )  @    9.9518,   11.2416,  -42.3186
 12: monster     tank_spawn_zasada5@buusty_dialog.script:chutok_mobov:912                                         (GENERATE_NAME_stalker   )  @   39.2175,   11.2433,  -17.0178
 13: monster     tank_spawn_zasada7@buusty_dialog.script:chutok_mobov:913                                         (GENERATE_NAME_stalker   )  @   39.2175,   11.2433,  -17.0178
 14: car/turret  auto_turret_2@buusty_dialog.script:under_mobov:922                                               (                        )  @    8.7000,   11.0700,  412.5200
 15: car/turret  auto_turret_2@buusty_dialog.script:under_mobov:923                                               (                        )  @   15.7260,   11.5231,  204.5873
 16: car/turret  auto_turret_2@buusty_dialog.script:under_mobov:924                                               (                        )  @   27.2181,    4.1972,   90.2655
 17: car/turret  auto_turret_2@buusty_dialog.script:under_mobov:925                                               (                        )  @   28.1245,   15.4083,   -0.0557
 18: car/turret  auto_turret_2@buusty_dialog.script:under_mobov:926                                               (                        )  @  -32.0183,    9.5581,    1.2393
 19: car/turret  auto_turret_2@buusty_dialog.script:under_mobov:927                                               (                        )  @   -0.7712,   23.7583,  -11.7018
 20: car/turret  auto_turret_2@buusty_dialog.script:under_mobov:928                                               (                        )  @  -27.4450,   16.8715,   34.1391
 21: car/turret  auto_turret_2@buusty_dialog.script:under_mobov:929                                               (                        )  @   43.2113,   11.2419,   12.1232
 22: car/turret  auto_turret_2@buusty_dialog.script:under_mobov:930                                               (                        )  @    6.4740,    8.8014, -133.4771
 23: car/turret  auto_turret_2@buusty_dialog.script:under_mobov:931                                               (                        )  @   81.3167,    4.0370, -214.5747
 24: car/turret  auto_turret_2@buusty_dialog.script:under_mobov:932                                               (                        )  @   81.5398,    4.0361, -231.1983
 25: car/turret  auto_turret_2@buusty_dialog.script:under_mobov:933                                               (                        )  @   -4.8900,   10.7400,  418.1800
 26: monster     tarakan_strong@buusty_dialog.script:under_monstrov_again:1238                                    (Чёрный таракан          )  @    8.5521,   11.7529,  446.8006
 27: monster     tank_spawn_zasada r0@snp_spawn.script:n_inventory_box_pp1_chunk:284                              (GENERATE_NAME_stalker   )  @   12.7252,    0.3756,    3.8643
 28: monster     tank_spawn_zasada r1@snp_spawn.script:n_inventory_box_pp1_chunk:284                              (GENERATE_NAME_stalker   )  @   24.2965,   -0.0051,   16.7101
 29: monster     tank_spawn_zasada r2@snp_spawn.script:n_inventory_box_pp1_chunk:284                              (GENERATE_NAME_stalker   )  @   25.6483,    1.5919,   -8.6800
 30: monster     tank_spawn_zasada r3@snp_spawn.script:n_inventory_box_pp1_chunk:284                              (GENERATE_NAME_stalker   )  @   15.7366,    1.4348,  -16.2922
 31: monster     tank_spawn_zasada r4@snp_spawn.script:n_inventory_box_pp1_chunk:284                              (GENERATE_NAME_stalker   )  @   -7.6279,   -0.0004,  -31.4628
 32: monster     tank_spawn_zasada r5@snp_spawn.script:n_inventory_box_pp1_chunk:284                              (GENERATE_NAME_stalker   )  @  -34.7925,    3.1738,  -19.4475
 33: monster     tank_spawn_zasada r6@snp_spawn.script:n_inventory_box_pp1_chunk:284                              (GENERATE_NAME_stalker   )  @  -37.5538,    3.1835,   23.0215
 34: monster     tank_spawn_zasada r7@snp_spawn.script:n_inventory_box_pp1_chunk:284                              (GENERATE_NAME_stalker   )  @  -12.1422,   -0.0004,   43.1587
 35: monster     tank_spawn_zasada r8@snp_spawn.script:n_inventory_box_pp1_chunk:284                              (GENERATE_NAME_stalker   )  @   -3.8988,   -0.0012,   19.5915
 36: monster     tank_spawn_zasada r9@snp_spawn.script:n_inventory_box_pp1_chunk:284                              (GENERATE_NAME_stalker   )  @   12.0170,    0.1493,   38.2194
 37: monster     tank_spawn_zasada r10@snp_spawn.script:n_inventory_box_pp1_chunk:284                             (GENERATE_NAME_stalker   )  @   -3.3725,    0.0002,    2.6920
 38: monster     snp_tank_pp1@snp_spawn.script:n_inventory_box_pp1_chunk:286                                      (GENERATE_NAME_stalker   )  @  -41.8063,    4.0759,    5.2353
 39: monster     akill_venom@akill_ballon.script:akill_venom_spawn:65                                             (Веном                   )  @   -1.5200,    0.0080,   64.2570
 40: monster     monolith_x8_regular@fantoms_pda.script:kogot_provod_spawn:65                                     (sim_monolith_regular    )  @  -47.4919,    8.1117,  410.0074
 41: monster     monolith_x8_veteran@fantoms_pda.script:kogot_provod_spawn:66                                     (sim_monolith_specnaz    )  @  -17.0597,    9.4076,  416.8303
 42: monster     monolith_x8_regular@fantoms_pda.script:kogot_provod_spawn:67                                     (sim_monolith_regular    )  @  -23.5869,    8.0064,  400.0865
 43: monster     monolith_x8_master@fantoms_pda.script:kogot_provod_spawn:68                                      (sim_monolith_master     )  @    7.3657,    8.0671,  424.2330
 44: monster     monolith_x8_regular@fantoms_pda.script:kogot_provod_spawn:69                                     (sim_monolith_regular    )  @   16.7040,    9.4077,  395.1361
 45: monster     monolith_x8_veteran@fantoms_pda.script:kogot_provod_spawn:70                                     (sim_monolith_specnaz    )  @    2.3473,    8.0355,  358.9184
 46: monster     monolith_x8_regular@fantoms_pda.script:kogot_provod_spawn:71                                     (sim_monolith_regular    )  @   -2.5626,    9.4076,  302.2535
 47: monster     monolith_x8_veteran@fantoms_pda.script:kogot_provod_spawn:72                                     (sim_monolith_specnaz    )  @   18.1552,    9.4077,  299.0601
 48: monster     monolith_x8_veteran@fantoms_pda.script:kogot_provod_spawn:73                                     (sim_monolith_specnaz    )  @   11.3831,    8.0625,  268.3431
 49: monster     tank_spawn_zasada5@fantoms_pda.script:kogot_provod_spawn:74                                      (GENERATE_NAME_stalker   )  @   29.3086,    9.4076,  249.2336
 50: monster     monolith_x8_regular@fantoms_pda.script:kogot_provod_spawn:75                                     (sim_monolith_regular    )  @   -3.2525,    9.4067,  209.1551
 51: monster     tank_x003@fantoms_pda.script:kogot_provod_spawn:76                                               (GENERATE_NAME_stalker   )  @   15.7056,    9.4065,  199.0511
 52: monster     monolith_x8_veteran@fantoms_pda.script:kogot_provod_spawn:77                                     (sim_monolith_specnaz    )  @   57.6467,   -0.0006,  130.0247
 53: monster     monolith_x8_master@fantoms_pda.script:kogot_provod_spawn:78                                      (sim_monolith_master     )  @   50.8342,    1.8785,   97.5304
 54: monster     monolith_x8_veteran@fantoms_pda.script:kogot_provod_spawn:79                                     (sim_monolith_specnaz    )  @   25.9011,    1.0938,   84.9969
 55: monster     tank_spawn_zasada5@fantoms_pda.script:kogot_provod_spawn:80                                      (GENERATE_NAME_stalker   )  @   -2.3801,    0.0729,   61.1819
 56: monster     monolith_x8_veteran@fantoms_pda.script:kogot_provod_spawn:81                                     (sim_monolith_specnaz    )  @   39.9574,   -0.0016,   31.8921
 57: monster     tank_spawn_zasada2@fantoms_pda.script:kogot_provod_spawn:82                                      (GENERATE_NAME_stalker   )  @   16.1893,    1.4350,  -19.8939
 58: monster     monolith_x8_master@fantoms_pda.script:kogot_provod_spawn:83                                      (sim_monolith_master     )  @    3.7390,    1.6146,    3.3962
 59: monster     monolith_x8_veteran@fantoms_pda.script:kogot_provod_spawn:84                                     (sim_monolith_specnaz    )  @   46.2343,    1.5907,   10.7349
 60: monster     monolith_x8_regular@fantoms_pda.script:kogot_provod_spawn:85                                     (sim_monolith_regular    )  @   66.0932,    1.8950,   12.3608
 61: monster     tank_spawn_zasada7@fantoms_pda.script:kogot_provod_spawn:86                                      (GENERATE_NAME_stalker   )  @   65.5135,    3.0922,    2.8118
 62: monster     monolith_x8_veteran@fantoms_pda.script:kogot_provod_spawn:87                                     (sim_monolith_specnaz    )  @   58.1937,    9.5094,   -0.3723
 63: monster     monolith_x8_regular@fantoms_pda.script:kogot_provod_spawn:88                                     (sim_monolith_regular    )  @   27.7838,   11.4713,    0.0298
 64: monster     tank_spawn_zasada3@fantoms_pda.script:kogot_provod_spawn:89                                      (GENERATE_NAME_stalker   )  @   60.3780,    1.5932,  -15.6065
 65: monster     tank_spawn_zasada2@fantoms_pda.script:kogot_provod_spawn:90                                      (GENERATE_NAME_stalker   )  @   41.5732,   -0.0012,  -36.0117
 66: monster     monolith_x8_veteran@fantoms_pda.script:kogot_provod_spawn:91                                     (sim_monolith_specnaz    )  @  -24.4473,    1.5916,   26.7137
 67: human       kogot_friend_npc@fantoms_pda.script:kogot_provod_spawn:92                                        (GENERATE_NAME_stalker   )  @   82.9732,    4.0350, -216.7845
 68: human       kogot_friend_npc@fantoms_pda.script:kogot_provod_spawn:93                                        (GENERATE_NAME_stalker   )  @   76.1009,    4.2332, -222.3800
 69: human       kogot_friend_npc@fantoms_pda.script:kogot_provod_spawn:94                                        (GENERATE_NAME_stalker   )  @   62.0084,    4.6562, -234.9256
 70: human       kogot_friend_npc@fantoms_pda.script:kogot_provod_spawn:95                                        (GENERATE_NAME_stalker   )  @   72.1137,    4.2333, -211.6620
 71: monster     kogot_npc@fantoms_pda.script:kogot_provod_spawn:96                                               (Коготь                  )  @   84.6300,    4.8000, -237.4200
 72: monster     monolith_x8_regular@fantoms_pda.script:kogot_provod_spawn1:102                                   (sim_monolith_regular    )  @   40.2366,    4.7030,  182.6565
 73: monster     monolith_x8_master@fantoms_pda.script:kogot_provod_spawn1:103                                    (sim_monolith_master     )  @  -40.0709,    3.1813,   -4.2301
 74: monster     tank_spawn_zasada7@fantoms_pda.script:kogot_provod_spawn1:104                                    (GENERATE_NAME_stalker   )  @  -40.0709,    3.1813,   -4.2301
 75: monster     monolith_x8_veteran@fantoms_pda.script:kogot_provod_spawn1:105                                   (sim_monolith_specnaz    )  @  -17.4155,    1.5921,  -20.9352
 76: monster     tank_spawn_zasada5@fantoms_pda.script:kogot_provod_spawn1:106                                    (GENERATE_NAME_stalker   )  @   -8.4079,   -0.0003,  -83.3708
 77: monster     tank_spawn_zasada4@fantoms_pda.script:kogot_provod_spawn1:107                                    (GENERATE_NAME_stalker   )  @   17.0597,    4.7036, -132.6841
 78: monster     tank_x003@fantoms_pda.script:kogot_provod_spawn1:108                                             (GENERATE_NAME_stalker   )  @   17.0597,    4.7036, -132.6841
 79: monster     monolith_x8_regular@fantoms_pda.script:kogot_provod_spawn1:109                                   (sim_monolith_regular    )  @    4.3158,    8.8007, -134.5488
 80: monster     monolith_x8_master@fantoms_pda.script:kogot_provod_spawn1:110                                    (sim_monolith_master     )  @   37.6133,    7.1840, -135.8004
 81: monster     monolith_x8_veteran@fantoms_pda.script:kogot_provod_spawn1:111                                   (sim_monolith_specnaz    )  @   38.0694,    4.4929, -174.5831
 82: monster     tank_spawn_zasada4@fantoms_pda.script:kogot_provod_spawn1:112                                    (GENERATE_NAME_stalker   )  @   49.0996,    4.2319, -144.6774
 83: monster     monolith_x8_veteran@fantoms_pda.script:kogot_provod_spawn1:113                                   (sim_monolith_specnaz    )  @   45.6410,    4.7655, -184.1904
 84: monster     kontrik_labx16@volna_darkness.script:volna_darkness_zombi:27                                     (Матёрый контролёр       )  @   46.2509,    4.7944, -182.7148
 85: monster     controller_babka@volna_darkness.script:volna_darkness_zombi:28                                   (Бабка-контролёр         )  @   46.2509,    4.7944, -182.7148
 86: monster     m_poltergeist_normal_tele r0@volna_darkness.script:volna_darkness_zombi:32                       (Пси-полтергейст         )  @  -10.7839,    0.0772,   73.4321
 87: monster     m_poltergeist_normal_tele r1@volna_darkness.script:volna_darkness_zombi:32                       (Пси-полтергейст         )  @   56.9207,   -0.5000,   29.1269
 88: monster     m_poltergeist_normal_tele r2@volna_darkness.script:volna_darkness_zombi:32                       (Пси-полтергейст         )  @   62.0404,    1.5929,  -15.1857
 89: monster     m_poltergeist_normal_tele r3@volna_darkness.script:volna_darkness_zombi:32                       (Пси-полтергейст         )  @  -23.4314,    1.5901,  -30.0714
 90: monster     m_poltergeist_normal_tele r4@volna_darkness.script:volna_darkness_zombi:32                       (Пси-полтергейст         )  @  -53.4334,    3.2087,    0.7170
 91: monster     m_poltergeist_normal_tele r5@volna_darkness.script:volna_darkness_zombi:32                       (Пси-полтергейст         )  @    7.1541,    8.0655,  437.4732
 92: monster     m_poltergeist_tele_outdoor r0@volna_darkness.script:volna_darkness_zombi:33                      (Матёрый пси-полтергейст )  @  -10.7839,    0.0772,   73.4321
 93: monster     m_poltergeist_tele_outdoor r1@volna_darkness.script:volna_darkness_zombi:33                      (Матёрый пси-полтергейст )  @   56.9207,   -0.5000,   29.1269
 94: monster     m_poltergeist_tele_outdoor r2@volna_darkness.script:volna_darkness_zombi:33                      (Матёрый пси-полтергейст )  @   62.0404,    1.5929,  -15.1857
 95: monster     m_poltergeist_tele_outdoor r3@volna_darkness.script:volna_darkness_zombi:33                      (Матёрый пси-полтергейст )  @  -23.4314,    1.5901,  -30.0714
 96: monster     m_poltergeist_tele_outdoor r4@volna_darkness.script:volna_darkness_zombi:33                      (Матёрый пси-полтергейст )  @  -53.4334,    3.2087,    0.7170
 97: monster     m_poltergeist_tele_outdoor r5@volna_darkness.script:volna_darkness_zombi:33                      (Матёрый пси-полтергейст )  @    7.1541,    8.0655,  437.4732
 98: monster     m_poltergeist_normal_flame r0@volna_darkness.script:volna_darkness_zombi:34                      (Пиро-полтергейст        )  @  -10.7839,    0.0772,   73.4321
 99: monster     m_poltergeist_normal_flame r1@volna_darkness.script:volna_darkness_zombi:34                      (Пиро-полтергейст        )  @   56.9207,   -0.5000,   29.1269
100: monster     m_poltergeist_normal_flame r2@volna_darkness.script:volna_darkness_zombi:34                      (Пиро-полтергейст        )  @   62.0404,    1.5929,  -15.1857
101: monster     m_poltergeist_normal_flame r3@volna_darkness.script:volna_darkness_zombi:34                      (Пиро-полтергейст        )  @  -23.4314,    1.5901,  -30.0714
102: monster     m_poltergeist_normal_flame r4@volna_darkness.script:volna_darkness_zombi:34                      (Пиро-полтергейст        )  @  -53.4334,    3.2087,    0.7170
103: monster     m_poltergeist_normal_flame r5@volna_darkness.script:volna_darkness_zombi:34                      (Пиро-полтергейст        )  @    7.1541,    8.0655,  437.4732
104: monster     m_poltergeist_strong_flame r0@volna_darkness.script:volna_darkness_zombi:35                      (Матёрый пиро-полтергейст)  @  -10.7839,    0.0772,   73.4321
105: monster     m_poltergeist_strong_flame r1@volna_darkness.script:volna_darkness_zombi:35                      (Матёрый пиро-полтергейст)  @   56.9207,   -0.5000,   29.1269
106: monster     m_poltergeist_strong_flame r2@volna_darkness.script:volna_darkness_zombi:35                      (Матёрый пиро-полтергейст)  @   62.0404,    1.5929,  -15.1857
107: monster     m_poltergeist_strong_flame r3@volna_darkness.script:volna_darkness_zombi:35                      (Матёрый пиро-полтергейст)  @  -23.4314,    1.5901,  -30.0714
108: monster     m_poltergeist_strong_flame r4@volna_darkness.script:volna_darkness_zombi:35                      (Матёрый пиро-полтергейст)  @  -53.4334,    3.2087,    0.7170
109: monster     m_poltergeist_strong_flame r5@volna_darkness.script:volna_darkness_zombi:35                      (Матёрый пиро-полтергейст)  @    7.1541,    8.0655,  437.4732
110: monster     ghoul_strong r0@volna_darkness.script:volna_darkness_zombi:36                                    (Гуль                    )  @  -10.7839,    0.0772,   73.4321
111: monster     ghoul_strong r1@volna_darkness.script:volna_darkness_zombi:36                                    (Гуль                    )  @   56.9207,   -0.5000,   29.1269
112: monster     ghoul_strong r2@volna_darkness.script:volna_darkness_zombi:36                                    (Гуль                    )  @   62.0404,    1.5929,  -15.1857
113: monster     ghoul_strong r3@volna_darkness.script:volna_darkness_zombi:36                                    (Гуль                    )  @  -23.4314,    1.5901,  -30.0714
114: monster     ghoul_strong r4@volna_darkness.script:volna_darkness_zombi:36                                    (Гуль                    )  @  -53.4334,    3.2087,    0.7170
115: monster     ghoul_strong r5@volna_darkness.script:volna_darkness_zombi:36                                    (Гуль                    )  @    7.1541,    8.0655,  437.4732
116: monster     zombie_hell r0@volna_darkness.script:volna_darkness_zombi:37                                     (Адский зомби            )  @  -10.7839,    0.0772,   73.4321
117: monster     zombie_hell r1@volna_darkness.script:volna_darkness_zombi:37                                     (Адский зомби            )  @   56.9207,   -0.5000,   29.1269
118: monster     zombie_hell r2@volna_darkness.script:volna_darkness_zombi:37                                     (Адский зомби            )  @   62.0404,    1.5929,  -15.1857
119: monster     zombie_hell r3@volna_darkness.script:volna_darkness_zombi:37                                     (Адский зомби            )  @  -23.4314,    1.5901,  -30.0714
120: monster     zombie_hell r4@volna_darkness.script:volna_darkness_zombi:37                                     (Адский зомби            )  @  -53.4334,    3.2087,    0.7170
121: monster     zombie_hell r5@volna_darkness.script:volna_darkness_zombi:37                                     (Адский зомби            )  @    7.1541,    8.0655,  437.4732
