  0: LevelWarper level_changer                                                                                                                      @  452.2900,   -1.2800, -527.7000 1 x 1
  1: LevelWarper level_changer_0                                                                                                                    @ -397.1776,    1.3607,  638.2507 1 x 1
  2: LevelWarper level_changer_1                                                                                                                    @ -608.3020,   -2.3250, -392.6960 1 x 1
  3: manual item iskander_pda@arhara_dialog.script:voronin_termos_naity_done:507           iskander_pda         (КПК Искандера                    ) @ -217.3463,    8.3179, -336.9727
  4: manual item pda_info@arhara_dialog.script:spawn_new_dok:785                           pda_info             (Сломанный КПК                    ) @  494.2565,   20.6732, -413.8156
  5: manual item inventory_sakbox_01@sak_dialog.script:take_val_pula_ammo:1012             inventory_sakbox_01  (Ящик с патронами                 ) @  425.6406,   -1.4730, -356.7293
  6: manual item nauch_flash@dan_flash.script:dan_flash_start:4                            nauch_flash          (Флешка учёных                    ) @ -178.6470,   -0.0320,  514.4820
  7: manual item kuznec_koloda@dan_flash.script:dan_flash_start:13                         kuznec_koloda        (Игральная карта                  ) @ -163.2950,   -0.7310,  539.8970
  8: manual item kuznec_koloda@fanat_minomet.script:fanat_minomet_start:10                 kuznec_koloda        (Игральная карта                  ) @ -125.1420,   10.4850, -542.1910
  9: manual item darkscape_code_pda@fanat_minomet.script:fanat_minomet_start:36            darkscape_code_pda   (КПК командира блокпоста наёмников) @  428.8070,   -1.6430, -363.0910
 10: manual item kuznec_koloda@fanat_minomet.script:darkscape_pda_spawn:72                 kuznec_koloda        (Игральная карта                  ) @   28.3340,   -2.2470, -146.6890
 11: manual item flower_ameliya r0@grom_poison.script:kalmyk_poison:54                     flower_ameliya       (Цветок "Амелия"                  ) @ -222.6058,    6.9943, -342.7974
 12: manual item flower_ameliya r1@grom_poison.script:kalmyk_poison:54                     flower_ameliya       (Цветок "Амелия"                  ) @ -213.4761,    8.2576, -328.6120
 13: manual item flower_ameliya r2@grom_poison.script:kalmyk_poison:54                     flower_ameliya       (Цветок "Амелия"                  ) @ -221.5760,    7.8050, -325.7636
 14: manual item flower_ameliya r3@grom_poison.script:kalmyk_poison:54                     flower_ameliya       (Цветок "Амелия"                  ) @ -214.3769,    7.4530, -341.0530
 15: manual item kuznec_koloda@taynik_gila.script:taynik_gila_done:40                      kuznec_koloda        (Игральная карта                  ) @  254.1798,   -0.5205, -193.8618
 16: manual item rukzak_kopatel@taynik_gila.script:taynik_gila_done:47                     rukzak_kopatel       (Рюкзак "чёрного" копателя        ) @  194.9004,   -0.3700, -195.5565
