  0: dark_zone_ameba1_ostanovka.shape0                                       zone_ameba1              @   29.3227,    0.0511, -210.6900
  1: dark_zone_ameba1_zapravka.shape0                                        zone_ameba1              @   87.7610,   -0.0099,    3.2846
  2: val_zone_mincer_strong.shape0                                           zone_mincer_weak_noart   @ -151.3003,   10.8381, -155.6189
  3: val_zone_mincer_strong_0000.shape0                                      zone_mincer_weak_noart   @ -161.6529,   10.9384, -227.1895
  4: val_zone_mincer_strong_0001.shape0                                      zone_mincer_weak_noart   @ -151.8607,    9.0409, -231.9967
  5: val_zone_mincer_strong_0002.shape0                                      zone_mincer_weak_noart   @ -141.7143,    9.0254, -234.6741
  6: val_proval_propeller.shape0                                             zone_propeller           @   26.0868,   -5.6056, -397.6445
  7: val_zone_radioactive_average.shape0                                     zone_radioactive_average @   34.8131,    9.6648,  -31.5927
  8: val_zone_radioactive_average_0000.shape0                                zone_radioactive_average @   15.8493,   -3.5748, -330.8986
  9: val_zone_radioactive_average_0001.shape0                                zone_radioactive_average @  -58.2889,   -1.9206, -131.0320
 10: val_zone_radioactive_average_0002.shape0                                zone_radioactive_average @   41.3304,   -4.7457, -365.6859
 11: val_zone_radioactive_average_0003.shape0                                zone_radioactive_average @   -9.5368,   -4.1223, -284.3130
 12: val_zone_radioactive_average_0006.shape0                                zone_radioactive_average @   59.2166,   -7.8933, -325.4361
 13: val_zone_radioactive_average_0007.shape0                                zone_radioactive_average @  -27.5329,   -0.9130,  -74.0466
 14: val_zone_radioactive_average_0008.shape0                                zone_radioactive_average @  110.0959,   -0.7254,   20.8353
 15: val_zone_radioactive_average_0009.shape0                                zone_radioactive_average @  168.8638,    4.2614,  -16.2639
 16: val_zone_radioactive_average_0010.shape0                                zone_radioactive_average @  -40.7334,   -3.1290,    1.4388
 17: val_zone_radioactive_average_0011.shape0                                zone_radioactive_average @   10.8798,   -2.5313, -141.9304
 18: val_zone_radioactive_strong.shape0                                      zone_radioactive_strong  @ -152.4471,   10.3323, -231.4993
 19: val_zone_radioactive_strong_0000.shape0                                 zone_radioactive_strong  @  -95.2500,   -0.8095, -143.5451
 20: val_zone_radioactive_strong_0001.shape0                                 zone_radioactive_strong  @ -160.3170,    8.4010, -149.7948
 21: val_zone_radioactive_strong_0002.shape0                                 zone_radioactive_strong  @  -76.7570,   -6.1293,  -34.3174
 22: val_zone_radioactive_strong_0003.shape0                                 zone_radioactive_strong  @  -83.3269,   -6.8053,    5.2015
 23: val_zone_radioactive_strong_0004.shape0                                 zone_radioactive_strong  @  132.7499,    4.0903, -179.9481
 24: val_zone_radioactive_strong_0005.shape0                                 zone_radioactive_strong  @  161.1797,    6.5752, -434.2719
 25: val_zone_radioactive_strong_0006.shape0                                 zone_radioactive_strong  @  155.4079,   10.3125, -409.2328
 26: val_zone_radioactive_strong_0007.shape0                                 zone_radioactive_strong  @  147.1668,   14.3869, -384.5342
 27: val_zone_radioactive_strong_0008.shape0                                 zone_radioactive_strong  @  139.4253,   12.7738, -360.7951
