  0: monster     volkodav@arhara_dialog.script:voronin_pribor_zasada:583                                           (Крысоволк                     )  @   26.2243,    0.1250,  -44.1897
  1: monster     volkodav@arhara_dialog.script:voronin_pribor_zasada:584                                           (Крысоволк                     )  @   21.4186,    0.0891,  -55.7107
  2: monster     volkodav@arhara_dialog.script:voronin_pribor_zasada:585                                           (Крысоволк                     )  @    4.0549,    0.0791,  -58.9803
  3: monster     volkodav@arhara_dialog.script:voronin_pribor_zasada:586                                           (Крысоволк                     )  @    1.9368,    0.0809,  -87.6178
  4: monster     volkodav@arhara_dialog.script:voronin_pribor_zasada:587                                           (Крысоволк                     )  @   29.3990,    0.0623,  -95.9210
  5: monster     val_attackers_1@arhara_dialog.script:val_attackers:7021                                           (GENERATE_NAME_bandit          )  @   24.9100,   -3.4600, -279.5200
  6: monster     val_attackers_2@arhara_dialog.script:val_attackers:7022                                           (GENERATE_NAME_stalker         )  @  -17.7300,    0.4300, -217.1800
  7: monster     val_attackers_3@arhara_dialog.script:val_attackers:7023                                           (GENERATE_NAME_bandit          )  @   -4.0100,    1.5800, -173.0900
  8: monster     val_attackers_4@arhara_dialog.script:val_attackers:7024                                           (GENERATE_NAME_bandit          )  @   56.9300,    0.2000, -176.6500
  9: monster     val_attackers_5@arhara_dialog.script:val_attackers:7025                                           (GENERATE_NAME_stalker         )  @   37.8100,    0.0600, -208.3100
 10: monster     val_attackers_6@arhara_dialog.script:val_attackers:7026                                           (GENERATE_NAME_stalker         )  @   95.0900,   -3.1100, -214.1600
 11: monster     val_attackers_7@arhara_dialog.script:val_attackers:7027                                           (GENERATE_NAME_bandit          )  @  137.9500,    0.2100, -221.3700
 12: monster     val_attackers_8@arhara_dialog.script:val_attackers1:7032                                          (GENERATE_NAME_bandit          )  @  174.2200,    0.1500, -230.3300
 13: monster     val_attackers_9@arhara_dialog.script:val_attackers1:7033                                          (GENERATE_NAME_stalker         )  @   86.1200,   -3.1100, -248.4200
 14: monster     val_attackers_10@arhara_dialog.script:val_attackers1:7034                                         (GENERATE_NAME_naemnik         )  @   99.7500,    0.2800, -364.4600
 15: monster     val_attackers_11@arhara_dialog.script:val_attackers1:7035                                         (GENERATE_NAME_stalker         )  @  153.1700,    0.1800, -299.3300
 16: monster     val_attackers_12@arhara_dialog.script:val_attackers1:7036                                         (GENERATE_NAME_stalker         )  @  162.2100,    0.0500, -291.3700
 17: monster     val_attackers_1@arhara_dialog.script:val_attackers1:7037                                          (GENERATE_NAME_bandit          )  @  124.3900,    0.0500, -301.6900
 18: monster     val_attackers_2@arhara_dialog.script:val_attackers1:7038                                          (GENERATE_NAME_stalker         )  @   27.1000,   -3.9700, -323.2400
 19: monster     val_attackers_3@arhara_dialog.script:val_attackers1:7039                                          (GENERATE_NAME_bandit          )  @   95.0900,   -3.1100, -214.1600
 20: monster     gigant_red_strong@buusty_dialog.script:psevdo_staya_spawn:210                                     (Красный псевдогигант          )  @  139.4090,    7.4478, -421.0871
 21: monster     gigant_big_strong@buusty_dialog.script:psevdo_staya_spawn:211                                     (Огромный псевдогигант         )  @  139.4090,    7.4478, -421.0871
 22: monster     gigant_red_strong@buusty_dialog.script:psevdo_staya_spawn:212                                     (Красный псевдогигант          )  @  139.4090,    7.4478, -421.0871
 23: monster     gigant_jumper@buusty_dialog.script:psevdo_staya_spawn:213                                         (Прыгающий псевдогигант        )  @  139.4090,    7.4478, -421.0871
 24: monster     gigant_big_strong@buusty_dialog.script:psevdo_staya_spawn:214                                     (Огромный псевдогигант         )  @  139.4090,    7.4478, -421.0871
 25: monster     gigant_big_strong@buusty_dialog.script:psevdo_staya_spawn:215                                     (Огромный псевдогигант         )  @  139.4090,    7.4478, -421.0871
 26: monster     gigant_red_strong@buusty_dialog.script:psevdo_staya_spawn:216                                     (Красный псевдогигант          )  @  139.4090,    7.4478, -421.0871
 27: monster     gigant_jumper_strong@buusty_dialog.script:psevdo_staya_spawn:217                                  (Матёрый прыгающий псевдогигант)  @  139.4090,    7.4478, -421.0871
 28: monster     gigant_red_strong@buusty_dialog.script:psevdo_staya_spawn:218                                     (Красный псевдогигант          )  @  139.4090,    7.4478, -421.0871
 29: monster     gigant_virus_strong@buusty_dialog.script:psevdo_staya_spawn:219                                   (Мегапсевдогигант              )  @  139.4090,    7.4478, -421.0871
 30: monster     gigant_strong@buusty_dialog.script:psevdo_staya_spawn:220                                         (Матёрый псевдогигант          )  @  139.4090,    7.4478, -421.0871
 31: monster     gigant_red_strong@buusty_dialog.script:psevdo_staya_spawn:221                                     (Красный псевдогигант          )  @  139.4090,    7.4478, -421.0871
 32: monster     gigant_jumper_strong@buusty_dialog.script:psevdo_staya_spawn:222                                  (Матёрый прыгающий псевдогигант)  @  139.4090,    7.4478, -421.0871
 33: monster     gigant_big_strong@buusty_dialog.script:psevdo_staya_spawn:223                                     (Огромный псевдогигант         )  @  139.4090,    7.4478, -421.0871
 34: monster     gigant_jumper@buusty_dialog.script:psevdo_staya_spawn:224                                         (Прыгающий псевдогигант        )  @  139.4090,    7.4478, -421.0871
 35: monster     gigant_strong@buusty_dialog.script:psevdo_staya_spawn:225                                         (Матёрый псевдогигант          )  @  139.4090,    7.4478, -421.0871
 36: monster     gigant_jumper_strong@buusty_dialog.script:psevdo_staya_spawn:226                                  (Матёрый прыгающий псевдогигант)  @  139.4092,    7.4478, -421.0871
 37: monster     gigant_jumper_strong@buusty_dialog.script:psevdo_staya_spawn:227                                  (Матёрый прыгающий псевдогигант)  @  139.4094,    7.4478, -421.0871
 38: monster     gigant_jumper_strong@buusty_dialog.script:psevdo_staya_spawn:228                                  (Матёрый прыгающий псевдогигант)  @  139.4096,    7.4478, -421.0871
 39: monster     gigant_jumper_strong@buusty_dialog.script:psevdo_staya_spawn:229                                  (Матёрый прыгающий псевдогигант)  @  139.4098,    7.4478, -421.0871
 40: monster     gigant_big_strong@buusty_dialog.script:psevdo_staya_spawn:230                                     (Огромный псевдогигант         )  @  139.4090,    7.4478, -421.0871
 41: monster     gigant_strong@buusty_dialog.script:psevdo_staya_spawn:231                                         (Матёрый псевдогигант          )  @  139.4090,    7.4478, -421.0871
 42: monster     gigant_red_strong@buusty_dialog.script:psevdo_staya_spawn:232                                     (Красный псевдогигант          )  @  139.4090,    7.4478, -421.0871
 43: monster     gigant_jumper@buusty_dialog.script:psevdo_staya_spawn:233                                         (Прыгающий псевдогигант        )  @  139.4090,    7.4478, -421.0871
 44: monster     gigant_big_strong@buusty_dialog.script:psevdo_staya_spawn:234                                     (Огромный псевдогигант         )  @  139.4090,    7.4478, -421.0871
 45: monster     gigant_strong@buusty_dialog.script:psevdo_staya_spawn:235                                         (Матёрый псевдогигант          )  @  139.4090,    7.4478, -421.0871
 46: monster     gigant_strong@buusty_dialog.script:psevdo_staya_spawn:236                                         (Матёрый псевдогигант          )  @  139.4094,    7.4478, -421.0871
 47: monster     gigant_big_strong@buusty_dialog.script:psevdo_staya_spawn:237                                     (Огромный псевдогигант         )  @  139.4090,    7.4478, -421.0871
 48: monster     gigant_strong@buusty_dialog.script:psevdo_staya_spawn:238                                         (Матёрый псевдогигант          )  @  139.4090,    7.4478, -421.0871
 49: monster     gigant_big_strong@buusty_dialog.script:psevdo_staya_spawn:239                                     (Огромный псевдогигант         )  @  139.4090,    7.4478, -421.0871
 50: monster     gigant_big_strong@buusty_dialog.script:psevdo_staya_spawn:240                                     (Огромный псевдогигант         )  @  139.4092,    7.4478, -421.0871
 51: monster     gigant_normal@buusty_dialog.script:psevdo_staya_spawn:241                                         (Молодой псевдогигант          )  @  139.4192,    7.4478, -421.0871
 52: monster     gigant_virus_strong@buusty_dialog.script:psevdo_staya_spawn:242                                   (Мегапсевдогигант              )  @  139.4162,    7.4478, -421.0871
 53: monster     gigant_normal@buusty_dialog.script:psevdo_staya_spawn:243                                         (Молодой псевдогигант          )  @  139.4132,    7.4478, -421.0871
 54: monster     gigant_virus_strong@buusty_dialog.script:psevdo_staya_spawn:244                                   (Мегапсевдогигант              )  @  140.4132,    7.4478, -421.0871
 55: monster     gigant_virus_strong@buusty_dialog.script:psevdo_staya_spawn:245                                   (Мегапсевдогигант              )  @  140.4132,    7.4478, -421.0871
 56: monster     gigant_virus_strong@buusty_dialog.script:psevdo_staya_spawn:246                                   (Мегапсевдогигант              )  @  140.4132,    7.4478, -421.0871
 57: monster     gigant_jumper_strong@buusty_dialog.script:psevdo_staya_spawn:247                                  (Матёрый прыгающий псевдогигант)  @  140.4134,    7.4478, -421.0871
 58: monster     gigant_jumper_strong@buusty_dialog.script:psevdo_staya_spawn:248                                  (Матёрый прыгающий псевдогигант)  @   87.4172,   -1.9782, -399.6519
 59: monster     gigant_big_strong@buusty_dialog.script:psevdo_staya_spawn:249                                     (Огромный псевдогигант         )  @   87.4174,   -1.9782, -399.6519
 60: monster     gigant_jumper@buusty_dialog.script:psevdo_staya_spawn:250                                         (Прыгающий псевдогигант        )  @   87.4176,   -1.9782, -399.6519
 61: monster     gigant_normal@buusty_dialog.script:psevdo_staya_spawn:251                                         (Молодой псевдогигант          )  @   87.4178,   -1.9782, -399.6519
 62: monster     gigant_normal@buusty_dialog.script:psevdo_staya_spawn:252                                         (Молодой псевдогигант          )  @   87.4180,   -1.9782, -399.6519
 63: monster     gigant_jumper_strong@buusty_dialog.script:psevdo_staya_spawn:253                                  (Матёрый прыгающий псевдогигант)  @   87.4180,   -1.9782, -399.6519
 64: monster     gigant_red_strong@buusty_dialog.script:psevdo_staya_spawn:254                                     (Красный псевдогигант          )  @   87.4172,   -1.9782, -399.6519
 65: monster     gigant_jumper_strong@buusty_dialog.script:psevdo_staya_spawn:255                                  (Матёрый прыгающий псевдогигант)  @   87.4171,   -1.9782, -399.6519
 66: monster     gigant_virus_strong@buusty_dialog.script:psevdo_staya_spawn:256                                   (Мегапсевдогигант              )  @   87.4151,   -1.9782, -399.6519
 67: monster     gigant_virus_strong@buusty_dialog.script:psevdo_staya_spawn:257                                   (Мегапсевдогигант              )  @   87.4191,   -1.9782, -399.6519
 68: monster     gigant_strong@buusty_dialog.script:psevdo_staya_spawn:258                                         (Матёрый псевдогигант          )  @  104.2541,    2.5688, -383.6590
 69: monster     gigant_jumper@buusty_dialog.script:psevdo_staya_spawn:259                                         (Прыгающий псевдогигант        )  @  104.2543,    2.5688, -383.6590
 70: monster     gigant_jumper_strong@buusty_dialog.script:psevdo_staya_spawn:260                                  (Матёрый прыгающий псевдогигант)  @  104.2543,    2.5688, -383.6590
 71: monster     gigant_red_strong@buusty_dialog.script:psevdo_staya_spawn:261                                     (Красный псевдогигант          )  @  104.2545,    2.5688, -383.6590
 72: monster     gigant_jumper@buusty_dialog.script:psevdo_staya_spawn:262                                         (Прыгающий псевдогигант        )  @  104.2547,    2.5688, -383.6590
 73: monster     gigant_strong@buusty_dialog.script:psevdo_staya_spawn:263                                         (Матёрый псевдогигант          )  @  104.2549,    2.5688, -383.6590
 74: monster     gigant_jumper_strong@buusty_dialog.script:psevdo_staya_spawn:264                                  (Матёрый прыгающий псевдогигант)  @  104.2551,    2.5688, -383.6590
 75: monster     gigant_big_strong@buusty_dialog.script:psevdo_staya_spawn:265                                     (Огромный псевдогигант         )  @  104.2555,    2.5688, -383.6590
 76: monster     gigant_jumper_strong@buusty_dialog.script:psevdo_staya_spawn:266                                  (Матёрый прыгающий псевдогигант)  @  104.2553,    2.5688, -383.6590
 77: monster     gigant_virus_strong@buusty_dialog.script:psevdo_staya_spawn:267                                   (Мегапсевдогигант              )  @  104.2533,    2.5688, -383.6590
 78: monster     gigant_virus_strong@buusty_dialog.script:psevdo_staya_spawn:268                                   (Мегапсевдогигант              )  @  104.2513,    2.5688, -383.6590
 79: monster     gigant_virus_strong@buusty_dialog.script:psevdo_staya_spawn:269                                   (Мегапсевдогигант              )  @  104.2573,    2.5688, -383.6590
 80: monster     cat_ystinov r0@buusty_dialog.script:karlik_ystinov_start:3272                                     (Матёрый кот-баюн              )  @  160.8020,    5.7850, -274.4810
 81: monster     cat_ystinov r1@buusty_dialog.script:karlik_ystinov_start:3272                                     (Матёрый кот-баюн              )  @  187.3520,    0.1370, -286.6800
 82: monster     cat_ystinov r2@buusty_dialog.script:karlik_ystinov_start:3272                                     (Матёрый кот-баюн              )  @  112.1510,    0.1310, -289.3890
 83: monster     cat_ystinov r3@buusty_dialog.script:karlik_ystinov_start:3272                                     (Матёрый кот-баюн              )  @  137.1590,    0.2310, -246.3920
 84: monster     val_telek_bandit@new_spawn.script:telek_bandit_spawn:259                                          (sim_bandit_novice             )  @   -6.4800,    0.1200,  -53.3800
 85: monster     val_telek_bandit@new_spawn.script:telek_bandit_spawn1:264                                         (sim_bandit_novice             )  @   13.2600,    1.2100,  -75.6300
 86: monster     val_bandit_bodyguard_borov@new_spawn.script:bodyguard_borov_spawn:978                             (GENERATE_NAME_bandit          )  @   34.8900,    4.5400,  -82.8400
 87: monster     val_bandit_bodyguard_borov@new_spawn.script:bodyguard_borov_spawn1:983                            (GENERATE_NAME_bandit          )  @   13.2600,    1.2100,  -75.6300
 88: monster     scelet_strong@oksana_spawn.script:trupik_skeleton_1:2784                                          (Зомби-скелет                  )  @   50.3150,   -4.8540, -389.8730
 89: monster     snork_normal@oksana_spawn.script:trupik_skeleton_3:2851                                           (Взрослый снорк                )  @   76.8320,   -0.5670, -417.5080
 90: monster     snork_normal@oksana_spawn.script:trupik_skeleton_3:2852                                           (Взрослый снорк                )  @   99.9880,    1.7190, -415.7450
 91: monster     electro_chimera@oksana_spawn.script:trupik_skeleton_3:2853                                        (Электрохимера                 )  @  102.5990,    1.9930, -410.3110
 92: monster     electro_chimera@oksana_spawn.script:trupik_skeleton_3:2854                                        (Электрохимера                 )  @  106.0520,    2.6260, -401.9330
 93: monster     snork_normal@oksana_spawn.script:trupik_skeleton_3:2855                                           (Взрослый снорк                )  @  104.9430,    2.2130, -397.2530
 94: monster     snork_normal@oksana_spawn.script:trupik_skeleton_3:2856                                           (Взрослый снорк                )  @   96.5010,   -0.9340, -393.1620
 95: monster     bloodsucker_strong@oksana_spawn.script:trupik_skeleton_3:2857                                     (Матёрый кровосос              )  @  100.7040,    0.6400, -384.4850
 96: monster     bloodsucker_strong@oksana_spawn.script:trupik_skeleton_3:2858                                     (Матёрый кровосос              )  @   97.7050,   -0.4730, -364.2730
 97: human       ds_bandit_respawn_11@oksana_spawn.script:publicity_material_2:4708                                (sim_bandit_novice             )  @  123.4880,   -2.8760, -255.7850
 98: human       ds_bandit_respawn_77@oksana_spawn.script:collection_coin_4:4860                                   (sim_bandit_novice             )  @  -48.2180,   -1.8510,  -24.0120
 99: human       borov_bandit r0@sak.script:add_und_pda:282                                                        (sim_bandit_general            )  @    8.5274,    1.2389,  -13.3594
100: human       borov_bandit r1@sak.script:add_und_pda:282                                                        (sim_bandit_general            )  @   25.1257,    6.1940,  -18.9864
101: human       borov_bandit r2@sak.script:add_und_pda:282                                                        (sim_bandit_general            )  @   40.5801,    0.3789,  -78.4279
102: human       borov_bandit r3@sak.script:add_und_pda:282                                                        (sim_bandit_general            )  @   33.4214,    4.5415,  -79.8621
103: human       borov_bandit r4@sak.script:add_und_pda:282                                                        (sim_bandit_general            )  @    0.4094,    1.1748,  -12.5607
104: human       yan_ecolog_respawn_2@sak.script:add_two_corpses:332                                               (sim_ecolog                    )  @  187.8400,    5.1800, -360.6800
105: human       yan_ecolog_respawn_2@sak.script:add_two_corpses:335                                               (sim_ecolog                    )  @  187.6600,    5.0300, -375.9700
106: monster     gigant_strong@spawn_zombi.script:spawn_gigant:14                                                  (Матёрый псевдогигант          )  @  123.0079,   -2.8397, -265.2152
107: monster     zasada_blockpost_1@akim_kubik.script:akim_kubik_nayti_start:5                                     (GENERATE_NAME_lieutenant      )  @   96.3848,    0.0452,  -44.2094
108: monster     soldier_mines_veteran@akim_kubik.script:akim_kubik_nayti_start:7                                  (GENERATE_NAME_sergeant        )  @   90.4162,    0.7023,   -6.3213
109: monster     soldier_mines_veteran@akim_kubik.script:akim_kubik_nayti_start:8                                  (GENERATE_NAME_sergeant        )  @   95.5724,    0.0489,  -34.5177
110: monster     soldier_mines_veteran@akim_kubik.script:akim_kubik_nayti_start:9                                  (GENERATE_NAME_sergeant        )  @   71.2647,    0.0468,    0.2084
111: monster     soldier_mines_regular@akim_kubik.script:akim_kubik_nayti_start:10                                 (GENERATE_NAME_captain         )  @   71.2724,    0.0540,  -17.3863
112: monster     soldier_mines_regular@akim_kubik.script:akim_kubik_nayti_start:11                                 (GENERATE_NAME_captain         )  @   88.1798,   -0.2512,   13.2981
113: monster     soldier_mines_regular@akim_kubik.script:akim_kubik_nayti_start:12                                 (GENERATE_NAME_captain         )  @   79.4540,    0.0416,  -38.1354
114: monster     agro_elite_soldier@akim_kubik.script:akim_kubik_nayti_start:14                                    (GENERATE_NAME_lieutenant      )  @   92.6904,    0.1743,  -77.7608
115: monster     agro_elite_soldier@akim_kubik.script:akim_kubik_nayti_start:15                                    (GENERATE_NAME_lieutenant      )  @   65.8010,    0.0604,  -80.8847
116: monster     agro_elite_soldier@akim_kubik.script:akim_kubik_nayti_start:16                                    (GENERATE_NAME_lieutenant      )  @   63.6255,    0.0577, -101.9425
117: monster     agro_elite_rpg@akim_kubik.script:akim_kubik_nayti_start:17                                        (GENERATE_NAME_lieutenant      )  @  112.1627,    4.7238, -106.2527
118: monster     zasada_tonnel_agro_1@akim_kubik.script:akim_kubik_nayti_start:18                                  (GENERATE_NAME_lieutenant      )  @  107.7651,    5.0528, -135.7623
119: monster     zasada_tonnel_agro_2@akim_kubik.script:akim_kubik_nayti_start:19                                  (GENERATE_NAME_lieutenant      )  @   58.3911,   -0.0829, -116.9240
120: monster     zasada_tonnel_agro_3@akim_kubik.script:akim_kubik_nayti_start:20                                  (GENERATE_NAME_lieutenant      )  @   52.7445,    0.1130, -160.1485
121: monster     zasada_tonnel_agro_1@akim_kubik.script:akim_kubik_nayti_start:21                                  (GENERATE_NAME_lieutenant      )  @   74.1871,    1.8189, -173.8577
122: monster     zasada_tonnel_agro_2@akim_kubik.script:akim_kubik_nayti_start:22                                  (GENERATE_NAME_lieutenant      )  @   79.4145,    4.7680, -196.3041
123: monster     zasada_tonnel_agro_3@akim_kubik.script:akim_kubik_nayti_start:23                                  (GENERATE_NAME_lieutenant      )  @   43.5321,    0.1230, -196.0703
124: car/turret  vehicle_btr@akim_kubik.script:akim_kubik_nayti_start:24                                           (                              )  @   86.7993,    0.0506,  -30.8417
125: car/turret  vehicle_btr@akim_kubik.script:akim_kubik_nayti_start:25                                           (                              )  @   80.7662,    0.2129, -132.3710
126: car/turret  vehicle_btr@akim_kubik.script:akim_kubik_nayti_start:26                                           (                              )  @   50.8551,    0.2000, -191.9763
127: monster     ohota_arahnid@arahnid_egg.script:arahnid_egg_start:4                                              (Арахнид                       )  @  114.1540,    4.0720, -423.0510
128: monster     ohota_arahnid@arahnid_egg.script:arahnid_egg_start:5                                              (Арахнид                       )  @  113.5230,    4.0700, -419.2350
129: monster     ohota_arahnid@arahnid_egg.script:arahnid_egg_start:6                                              (Арахнид                       )  @  111.3220,    3.8100, -415.8670
130: monster     ohota_arahnid@arahnid_egg.script:arahnid_egg_start:7                                              (Арахнид                       )  @  116.9930,    4.8300, -415.9150
131: monster     ohota_arahnid@arahnid_egg.script:arahnid_egg_start:8                                              (Арахнид                       )  @  122.3140,    5.5000, -419.5810
132: monster     ohota_arahnid@arahnid_egg.script:arahnid_egg_spawn:14                                             (Арахнид                       )  @  125.5470,    6.9190, -411.7950
133: monster     ohota_arahnid@arahnid_egg.script:arahnid_egg_spawn:15                                             (Арахнид                       )  @  116.9510,    5.5040, -406.7050
134: monster     ohota_arahnid@arahnid_egg.script:arahnid_egg_spawn:16                                             (Арахнид                       )  @  114.1540,    4.0720, -423.0510
135: monster     ohota_arahnid@arahnid_egg.script:arahnid_egg_spawn:17                                             (Арахнид                       )  @  113.5230,    4.0700, -419.2350
136: monster     ohota_arahnid@arahnid_egg.script:arahnid_egg_spawn:18                                             (Арахнид                       )  @  111.3220,    3.8100, -415.8670
137: monster     ohota_arahnid@arahnid_egg.script:arahnid_egg_spawn:19                                             (Арахнид                       )  @  116.9930,    4.8300, -415.9150
138: monster     ohota_arahnid@arahnid_egg.script:arahnid_egg_spawn:20                                             (Арахнид                       )  @  122.3140,    5.5000, -419.5810
139: monster     ohota_arahnid@arahnid_egg.script:arahnid_egg_spawn:21                                             (Арахнид                       )  @  103.7980,    2.5660, -430.3060
140: monster     ohota_arahnid@arahnid_egg.script:arahnid_egg_spawn:22                                             (Арахнид                       )  @  114.3500,    3.5420, -436.9440
141: monster     ohota_arahnid@arahnid_egg.script:arahnid_egg_spawn:23                                             (Арахнид                       )  @  116.0850,    3.9230, -432.0930
142: monster     volkodav@borov_bottle.script:borov_bottle_start:3                                                 (Крысоволк                     )  @  105.2891,    0.0469,  -75.8679
143: monster     volkodav@borov_bottle.script:borov_bottle_start:4                                                 (Крысоволк                     )  @  130.4069,    0.1744,  -25.9829
144: monster     volkodav@borov_bottle.script:borov_bottle_start:5                                                 (Крысоволк                     )  @  121.7211,    0.1209,  -18.8938
145: monster     naemnik_regular@docent_silence.script:docent_silence_start:21                                     (sim_killer_general            )  @  117.8240,    0.1500, -283.8440
146: monster     naemnik_veteran@docent_silence.script:docent_silence_start:22                                     (sim_killer_veteran            )  @  109.2100,    0.1970, -268.2990
147: monster     naemnik_regular@docent_silence.script:docent_silence_start:23                                     (sim_killer_general            )  @  126.0610,    0.1540, -279.6270
148: monster     naemnik_veteran@docent_silence.script:docent_silence_start:24                                     (sim_killer_veteran            )  @  128.2010,    0.1560, -265.6350
149: monster     naemnik_regular@docent_silence.script:docent_silence_start:25                                     (sim_killer_general            )  @  118.0240,    0.2010, -259.7350
150: monster     naemnik_veteran@docent_silence.script:docent_silence_start:26                                     (sim_killer_veteran            )  @  105.5580,    0.1530, -257.4410
151: monster     naemnik_regular@docent_silence.script:docent_silence_start:27                                     (sim_killer_general            )  @   96.8760,    0.0940, -280.0040
152: monster     voen_zombied1@find_case.script:kontrik_zasada_soldier:20                                          (pri_zombied_suicide           )  @   50.5968,    0.0455, -284.4540
153: monster     voen_zombied2@find_case.script:kontrik_zasada_soldier:21                                          (pri_zombied_veteran           )  @   41.2755,   -0.0106, -279.3741
154: monster     voen_zombied2@find_case.script:kontrik_zasada_soldier:22                                          (pri_zombied_veteran           )  @   48.9881,    0.0945, -232.6160
155: monster     voen_zombied1@find_case.script:kontrik_zasada_soldier:23                                          (pri_zombied_suicide           )  @   57.5233,    0.0456, -231.8532
156: monster     voen_zombied2@find_case.script:kontrik_zasada_soldier:24                                          (pri_zombied_veteran           )  @   93.3712,    0.1170, -252.4844
157: monster     voen_zombied1@find_case.script:kontrik_zasada_soldier:25                                          (pri_zombied_suicide           )  @   95.0338,    0.1507, -263.1971
158: monster     voen_zombied1@find_case.script:kontrik_zasada_zombied:29                                          (pri_zombied_suicide           )  @   89.7322,   -1.0000, -275.4039
159: monster     voen_zombied2@find_case.script:kontrik_zasada_zombied:30                                          (pri_zombied_veteran           )  @   28.3439,   -1.5117, -270.4135
160: monster     voen_zombied2@find_case.script:kontrik_zasada_zombied:31                                          (pri_zombied_veteran           )  @   26.0169,   -0.9340, -254.4459
161: monster     voen_zombied1@find_case.script:kontrik_zasada_zombied:32                                          (pri_zombied_suicide           )  @   82.8795,    2.8075, -229.3810
162: monster     voen_zombied2@find_case.script:kontrik_zasada_zombied:33                                          (pri_zombied_veteran           )  @   98.1693,    0.0895, -233.5473
163: monster     voen_zombied1@find_case.script:kontrik_zasada_zombied:34                                          (pri_zombied_suicide           )  @   72.7421,   -1.5112, -289.5855
164: monster     m_controller_normal_fat@find_case.script:kontrik_zasada_zombied:35                                (Контролёр-толстяк             )  @  117.4094,    0.1310, -253.1780
165: monster     controller_senator@find_case.script:kontrik_zasada_zombied:36                                     (Контролёр-охотник             )  @   43.2437,    0.0536, -215.4696
166: monster     controller_babka@find_case.script:kontrik_zasada_zombied:37                                       (Бабка-контролёр               )  @   26.7959,    1.7273, -315.1064
167: monster     boar_quest@messer_kaban.script:messer_kaban_start:3                                               (Молодой кабан                 )  @   49.0923,    0.1592, -463.8329
168: monster     molerat@messer_kaban.script:messer_kaban_start:4                                                  (Кротокрыс                     )  @   14.8962,    3.2641, -482.3664
169: monster     molerat@messer_kaban.script:messer_kaban_start:5                                                  (Кротокрыс                     )  @   17.6762,    0.7931, -515.9270
170: monster     molerat@messer_kaban.script:messer_kaban_start:6                                                  (Кротокрыс                     )  @   48.7621,    0.2564, -498.0624
171: monster     molerat@messer_kaban.script:messer_kaban_start:7                                                  (Кротокрыс                     )  @   85.0279,    0.9786, -453.0668
172: monster     flesh_swamp@messer_kaban.script:messer_kaban_start:8                                              (Болотная плоть                )  @   76.5473,   -2.2007, -405.7132
173: monster     flesh_swamp@messer_kaban.script:messer_kaban_start:9                                              (Болотная плоть                )  @   49.2753,   -4.7719, -386.6075
174: monster     molerat@messer_kaban.script:messer_kaban_start:10                                                 (Кротокрыс                     )  @   -4.0614,   -0.5275, -429.4267
175: monster     winger@messer_kaban.script:messer_kaban_start:11                                                  (Крылан                        )  @  -21.5227,   -4.0848, -273.0341
176: monster     winger@messer_kaban.script:messer_kaban_start:12                                                  (Крылан                        )  @  -14.8133,   -4.7589, -264.1913
177: monster     winger@messer_kaban.script:messer_kaban_start:13                                                  (Крылан                        )  @   -4.3074,   -4.3559, -283.1306
178: monster     winger@messer_kaban.script:messer_kaban_start:14                                                  (Крылан                        )  @   -6.1569,   -4.6316, -295.1492
179: monster     winger@messer_kaban.script:messer_kaban_start:15                                                  (Крылан                        )  @  -11.8759,   -3.9785, -307.9514
180: monster     winger@messer_kaban.script:messer_kaban_start:16                                                  (Крылан                        )  @  -10.2813,   -4.2807, -291.6923
181: monster     bw_killers1@mina_partizan.script:partizan_mercenary:31                                            (Наёмник из Блэквотер          )  @  126.8164,   -2.8387, -276.3418
182: monster     bw_killers1@mina_partizan.script:partizan_mercenary:32                                            (Наёмник из Блэквотер          )  @  133.1251,    0.2333, -272.8878
183: monster     bw_killers2@mina_partizan.script:partizan_mercenary:33                                            (Наёмник из Блэквотер          )  @  141.4621,    0.1646, -273.4377
184: monster     bw_killers1@mina_partizan.script:partizan_mercenary:34                                            (Наёмник из Блэквотер          )  @  118.8095,    0.1985, -258.6388
185: monster     bw_killers1@mina_partizan.script:partizan_mercenary:35                                            (Наёмник из Блэквотер          )  @  128.1806,    0.1564, -262.4211
186: monster     bw_killers2@mina_partizan.script:partizan_mercenary:36                                            (Наёмник из Блэквотер          )  @  108.3968,    0.2131, -266.2587
187: human       borov_bandit@night_watch.script:night_watch_start:10                                              (sim_bandit_general            )  @  117.4610,    0.2023, -260.5587
188: human       borov_bandit@night_watch.script:night_watch_start:11                                              (sim_bandit_general            )  @  115.9281,    0.2332, -237.3148
189: human       borov_bandit@night_watch.script:night_watch_start:12                                              (sim_bandit_general            )  @  142.2309,    0.2324, -235.9433
190: human       borov_bandit@night_watch.script:night_watch_start:13                                              (sim_bandit_general            )  @  134.1647,    0.2346, -272.0117
191: human       borov_bandit@night_watch.script:night_watch_start:14                                              (sim_bandit_general            )  @  147.6275,    0.1698, -248.3132
192: human       borov_bandit@night_watch.script:night_watch_start:15                                              (sim_bandit_general            )  @  161.9752,    5.7832, -261.4781
193: human       borov_bandit@night_watch.script:night_watch_start:16                                              (sim_bandit_general            )  @  153.0473,    5.7708, -272.4749
194: human       borov_bandit@night_watch.script:night_watch_start:17                                              (sim_bandit_general            )  @  142.2532,    5.8321, -242.4851
195: human       borov_bandit@night_watch.script:night_watch_start:18                                              (sim_bandit_general            )  @  150.8596,    5.8323, -246.9396
196: human       val_bandit_respawn_1@night_watch.script:night_watch_komplex_bandit:24                             (sim_bandit_novice             )  @  141.2737,    0.1647, -273.7788
197: human       val_bandit_respawn_2@night_watch.script:night_watch_komplex_bandit:25                             (sim_bandit_general            )  @  149.4076,    0.2320, -230.8114
198: human       val_bandit_respawn_3@night_watch.script:night_watch_komplex_bandit:26                             (sim_bandit_veteran            )  @  128.7373,    0.1532, -243.5596
199: human       val_bandit_respawn_4@night_watch.script:night_watch_komplex_bandit:27                             (sim_bandit_master             )  @  127.3436,    0.1480, -279.8702
200: human       val_bandit_respawn_1@night_watch.script:night_watch_komplex_bandit:28                             (sim_bandit_novice             )  @  155.4772,    0.2117, -286.8893
201: human       val_bandit_respawn_2@night_watch.script:night_watch_komplex_bandit:29                             (sim_bandit_general            )  @  157.2318,    0.2331, -248.4559
202: human       val_bandit_respawn_3@night_watch.script:night_watch_komplex_bandit:30                             (sim_bandit_veteran            )  @  173.6119,    0.1509, -243.7238
203: human       val_bandit_respawn_4@night_watch.script:night_watch_komplex_bandit:31                             (sim_bandit_master             )  @  169.6332,    0.0693, -266.6938
204: human       val_bandit_respawn_1@night_watch.script:night_watch_komplex_bandit:32                             (sim_bandit_novice             )  @  128.2434,    0.1542, -267.3521
205: monster     m_poltergeist_dd@night_watch.script:night_watch_komplex_polter:36                                 (Ползучий пиро-полтергейст     )  @  137.6762,    0.2330, -263.8945
206: monster     electro_polter@night_watch.script:night_watch_komplex_polter:37                                   (Электрополтергейст            )  @  137.6237,    0.1912, -255.0133
207: monster     poltergeist_build@night_watch.script:night_watch_komplex_polter:38                                (Ползучий полтергейст          )  @  137.7476,    0.2320, -228.6209
208: monster     polter_xray@night_watch.script:night_watch_komplex_polter:39                                      (Призрачный полтергейст        )  @  124.6441,   -1.3681, -230.4223
209: monster     m_poltergeist_dd@night_watch.script:night_watch_komplex_polter:40                                 (Ползучий пиро-полтергейст     )  @  104.8022,    0.1505, -255.9084
210: monster     poltergeist_build@night_watch.script:night_watch_komplex_polter:41                                (Ползучий полтергейст          )  @  109.8010,    0.1110, -281.4765
211: monster     electro_polter@night_watch.script:night_watch_komplex_polter:42                                   (Электрополтергейст            )  @  146.6199,    0.1629, -286.5074
212: monster     polter_xray@night_watch.script:night_watch_komplex_polter:43                                      (Призрачный полтергейст        )  @  183.4463,    0.1222, -268.8459
213: monster     electro_polter@night_watch.script:night_watch_komplex_polter:44                                   (Электрополтергейст            )  @  109.0049,    0.1442, -244.1566
214: monster     borov_polter1@night_watch.script:night_watch_borov_polter1:47                                     (Призрачный полтергейст        )  @  178.9752,    0.0750, -281.5560
215: human       borov_bandit@night_watch.script:night_watch_zapravka_bandit:62                                    (sim_bandit_general            )  @  100.7796,    0.7019,   -2.6939
216: human       borov_bandit@night_watch.script:night_watch_zapravka_bandit:63                                    (sim_bandit_general            )  @  105.5938,    4.2219,  -15.0303
217: human       borov_bandit@night_watch.script:night_watch_zapravka_bandit:64                                    (sim_bandit_general            )  @   90.2155,    0.6999,   -2.9139
218: human       borov_bandit@night_watch.script:night_watch_zapravka_bandit:65                                    (sim_bandit_general            )  @  111.1936,    0.7235,   -8.0449
219: human       borov_bandit@night_watch.script:night_watch_zapravka_bandit:66                                    (sim_bandit_general            )  @   92.5105,    0.0465,  -39.0495
220: human       borov_bandit@night_watch.script:night_watch_zapravka_bandit:67                                    (sim_bandit_general            )  @   92.0680,    0.1738,  -76.8720
221: human       borov_bandit@night_watch.script:night_watch_zapravka_bandit:68                                    (sim_bandit_general            )  @  128.8498,    0.0635,  -38.4110
222: human       borov_bandit@night_watch.script:night_watch_zapravka_bandit:69                                    (sim_bandit_general            )  @  113.7186,    0.1245,  -85.7573
223: monster     m_poltergeist_dd@night_watch.script:night_watch_zapravka_polter:73                                (Ползучий пиро-полтергейст     )  @  130.5797,    0.0756,  -86.0000
224: monster     electro_polter@night_watch.script:night_watch_zapravka_polter:74                                  (Электрополтергейст            )  @  131.3368,    0.0428,  -56.5050
225: monster     poltergeist_build@night_watch.script:night_watch_zapravka_polter:75                               (Ползучий полтергейст          )  @  131.4189,    0.1978,  -25.8793
226: monster     polter_xray@night_watch.script:night_watch_zapravka_polter:76                                     (Призрачный полтергейст        )  @  103.3571,   -0.6450,   21.6515
227: monster     m_poltergeist_dd@night_watch.script:night_watch_zapravka_polter:77                                (Ползучий пиро-полтергейст     )  @   79.3162,   -0.0671,   20.6568
228: monster     poltergeist_build@night_watch.script:night_watch_zapravka_polter:78                               (Ползучий полтергейст          )  @   65.2358,    0.1378,  -38.1666
229: monster     electro_polter@night_watch.script:night_watch_zapravka_polter:79                                  (Электрополтергейст            )  @   61.9232,    0.0624,  -55.0823
230: monster     polter_xray@night_watch.script:night_watch_zapravka_polter:80                                     (Призрачный полтергейст        )  @   91.3486,    0.6698,  -97.4326
231: monster     m_poltergeist_dd@night_watch.script:night_watch_zapravka_polter:81                                (Ползучий пиро-полтергейст     )  @   83.5982,    0.1029,  -74.5809
232: monster     borov_polter2@night_watch.script:night_watch_borov_polter2:85                                     (Электрополтергейст            )  @  126.8775,    6.9690, -106.6363
233: human       borov_bandit@night_watch.script:night_watch_baza_bandit:100                                       (sim_bandit_general            )  @   47.6174,   11.2198,    6.6469
234: human       borov_bandit@night_watch.script:night_watch_baza_bandit:101                                       (sim_bandit_general            )  @   52.0686,   11.2199,    2.0408
235: human       borov_bandit@night_watch.script:night_watch_baza_bandit:102                                       (sim_bandit_general            )  @   20.3542,    5.1213,   26.0923
236: human       borov_bandit@night_watch.script:night_watch_baza_bandit:103                                       (sim_bandit_general            )  @   13.4126,    5.1238,   26.3277
237: human       borov_bandit@night_watch.script:night_watch_baza_bandit:104                                       (sim_bandit_general            )  @   13.2650,    0.0860,   24.6731
238: human       borov_bandit@night_watch.script:night_watch_baza_bandit:105                                       (sim_bandit_general            )  @  -16.8212,    0.0833,   24.5145
239: human       borov_bandit@night_watch.script:night_watch_baza_bandit:106                                       (sim_bandit_general            )  @   26.5082,    0.3343,    4.6789
240: human       borov_bandit@night_watch.script:night_watch_baza_bandit:107                                       (sim_bandit_general            )  @   21.3728,    1.9577,  -13.0758
241: human       borov_bandit@night_watch.script:night_watch_baza_bandit:108                                       (sim_bandit_general            )  @   -0.9303,    1.2383,  -12.8954
242: human       borov_bandit@night_watch.script:night_watch_baza_bandit:109                                       (sim_bandit_general            )  @    8.5964,    1.2376,  -13.6073
243: human       borov_bandit@night_watch.script:night_watch_baza_bandit:110                                       (sim_bandit_general            )  @   20.7526,    6.1964,  -17.6562
244: human       val_bandit_respawn_1@night_watch.script:night_watch_baza_support:114                              (sim_bandit_novice             )  @   18.5336,    1.9590,  -39.5523
245: human       val_bandit_respawn_2@night_watch.script:night_watch_baza_support:115                              (sim_bandit_general            )  @  -13.9243,    0.0339,  -28.6898
246: human       val_bandit_respawn_3@night_watch.script:night_watch_baza_support:116                              (sim_bandit_veteran            )  @   -2.0645,    0.0794,   39.5311
247: human       val_bandit_respawn_4@night_watch.script:night_watch_baza_support:117                              (sim_bandit_master             )  @   24.4567,    5.1225,   33.8917
248: human       val_bandit_respawn_1@night_watch.script:night_watch_baza_support:118                              (sim_bandit_novice             )  @   29.2964,   -2.9205,    1.2797
249: human       val_bandit_respawn_2@night_watch.script:night_watch_baza_support:119                              (sim_bandit_general            )  @   -2.6595,    1.2375,  -38.5391
250: human       val_bandit_respawn_3@night_watch.script:night_watch_baza_support:120                              (sim_bandit_veteran            )  @   10.9630,    1.2143,  -63.9321
251: human       val_bandit_respawn_4@night_watch.script:night_watch_baza_support:121                              (sim_bandit_master             )  @   26.1351,    1.0479,  -84.1434
252: human       val_bandit_respawn_1@night_watch.script:night_watch_baza_support:122                              (sim_bandit_novice             )  @   -6.6120,    0.1180,  -70.2031
253: monster     m_poltergeist_dd@night_watch.script:night_watch_baza_polter:126                                   (Ползучий пиро-полтергейст     )  @   44.0480,    0.0360,   42.1950
254: monster     electro_polter@night_watch.script:night_watch_baza_polter:127                                     (Электрополтергейст            )  @   14.5222,    0.0855,   42.0050
255: monster     poltergeist_build@night_watch.script:night_watch_baza_polter:128                                  (Ползучий полтергейст          )  @  -11.5178,    0.0949,   37.5447
256: monster     polter_xray@night_watch.script:night_watch_baza_polter:129                                        (Призрачный полтергейст        )  @  -22.9348,    0.3744,   25.2807
257: monster     m_poltergeist_dd@night_watch.script:night_watch_baza_polter:130                                   (Ползучий пиро-полтергейст     )  @   69.5826,    0.0468,    3.9572
258: monster     poltergeist_build@night_watch.script:night_watch_baza_polter:131                                  (Ползучий полтергейст          )  @   32.0151,    0.0916,  -16.1916
259: monster     electro_polter@night_watch.script:night_watch_baza_polter:132                                     (Электрополтергейст            )  @   31.1484,   -2.9190,   -8.5996
260: monster     polter_xray@night_watch.script:night_watch_baza_polter:133                                        (Призрачный полтергейст        )  @   -0.7338,   -2.7704,  -13.9176
261: monster     electro_polter@night_watch.script:night_watch_baza_polter:134                                     (Электрополтергейст            )  @  -20.4169,    0.0428,    2.9983
262: monster     m_poltergeist_dd@night_watch.script:night_watch_baza_polter:135                                   (Ползучий пиро-полтергейст     )  @    3.8118,   -0.5214,   10.7263
263: monster     electro_polter@night_watch.script:night_watch_baza_polter:136                                     (Электрополтергейст            )  @   -5.6014,    0.1145,  -62.9360
264: monster     poltergeist_build@night_watch.script:night_watch_baza_polter:137                                  (Ползучий полтергейст          )  @    8.4852,    0.0327,  -99.7048
265: monster     polter_xray@night_watch.script:night_watch_baza_polter:138                                        (Призрачный полтергейст        )  @   16.8942,    0.3821,  -63.3972
266: monster     polter_blood@night_watch.script:night_watch_borov_polter3:141                                     (Ползучий пиро-полтергейст     )  @  -22.6380,    0.1725,   26.5555
267: car/turret  ratcatcher_zaz@ratcatcher_gta.script:ratcatcher_gta_start:3                                       (                              )  @  130.8240,    0.0360,  -68.6840
268: monster     agro_elite_soldier@ratcatcher_gta.script:ratcatcher_gta_start:5                                   (GENERATE_NAME_lieutenant      )  @  143.2680,    5.8330, -242.7110
269: monster     agro_elite_soldier@ratcatcher_gta.script:ratcatcher_gta_start:7                                   (GENERATE_NAME_lieutenant      )  @  140.5040,    5.8330, -265.6670
270: monster     soldier_mines_veteran@ratcatcher_gta.script:ratcatcher_gta_start:8                                (GENERATE_NAME_sergeant        )  @  153.2780,    5.8330, -274.4040
271: monster     soldier_mines_regular@ratcatcher_gta.script:ratcatcher_gta_start:9                                (GENERATE_NAME_captain         )  @  154.8210,    0.2220, -255.1240
272: monster     zasada_tonnel_agro_1@ratcatcher_gta.script:ratcatcher_gta_start:10                                (GENERATE_NAME_lieutenant      )  @  149.6080,    0.2320, -251.4120
273: monster     zasada_tonnel_agro_2@ratcatcher_gta.script:ratcatcher_gta_start:11                                (GENERATE_NAME_lieutenant      )  @  130.8150,    0.2400, -253.8370
274: monster     zasada_tonnel_agro_3@ratcatcher_gta.script:ratcatcher_gta_start:12                                (GENERATE_NAME_lieutenant      )  @  137.6820,   -0.5550, -267.7680
275: monster     agro_elite_rpg@ratcatcher_gta.script:ratcatcher_gta_start:13                                      (GENERATE_NAME_lieutenant      )  @  150.8900,    0.2320, -230.2290
276: monster     agro_elite_soldier@ratcatcher_gta.script:ratcatcher_gta_start:14                                  (GENERATE_NAME_lieutenant      )  @  126.8380,   -1.3710, -228.1300
277: monster     soldier_mines_veteran@ratcatcher_gta.script:ratcatcher_gta_start:15                               (GENERATE_NAME_sergeant        )  @  111.9260,    0.2320, -240.0670
278: monster     soldier_mines_regular@ratcatcher_gta.script:ratcatcher_gta_start:16                               (GENERATE_NAME_captain         )  @  137.2800,    0.2330, -248.8430
279: monster     zasada_tonnel_agro_2@ratcatcher_gta.script:ratcatcher_gta_start:17                                (GENERATE_NAME_lieutenant      )  @  117.6110,    0.1260, -289.6290
280: monster     zasada_tonnel_agro_3@ratcatcher_gta.script:ratcatcher_gta_start:18                                (GENERATE_NAME_lieutenant      )  @  155.4440,    0.1770, -288.7190
281: human       trofim_npc@trofim_joke.script:trofim_npc_spawn:3                                                  (Трофим                        )  @   96.7329,    2.3462, -506.6448
282: monster     molerat@trofim_joke.script:trofim_joke_start:12                                                   (Кротокрыс                     )  @  100.9488,    2.0636, -469.8349
283: monster     boar_strong@trofim_joke.script:trofim_joke_start:13                                               (Матёрый кабан                 )  @  103.7796,    2.5324, -435.1050
284: monster     molerat@trofim_joke.script:trofim_joke_start:14                                                   (Кротокрыс                     )  @   93.6833,   -2.6219, -381.4681
285: monster     boar_strong@trofim_joke.script:trofim_joke_start:15                                               (Матёрый кабан                 )  @   64.0294,   -3.1288, -310.6395
286: monster     molerat@trofim_joke.script:trofim_joke_start:16                                                   (Кротокрыс                     )  @   53.4154,    0.0451, -240.0710
287: monster     bear@trofim_joke.script:trofim_bear:33                                                            (Медведь-мутант                )  @   26.4906,   -0.6596, -251.5005
288: monster     kikimora@trofim_joke.script:trofim_song2:52                                                       (Кикимора                      )  @   87.6661,    5.9943, -178.7030
289: monster     kikimora@trofim_joke.script:trofim_song2:53                                                       (Кикимора                      )  @   95.8754,    1.2734, -124.0876
290: monster     kikimora@trofim_joke.script:trofim_song2:54                                                       (Кикимора                      )  @   91.4678,    0.0727,  -86.4075
291: monster     kikimora@trofim_joke.script:trofim_song2:55                                                       (Кикимора                      )  @   54.3223,    0.0694,  -66.4430
292: monster     kikimora@trofim_joke.script:trofim_song2:56                                                       (Кикимора                      )  @   39.1449,   -0.8531, -117.0333
293: monster     kikimora@trofim_joke.script:trofim_song2:57                                                       (Кикимора                      )  @   50.2707,    0.0291, -156.0404
294: monster     kikimora@trofim_joke.script:trofim_song2:58                                                       (Кикимора                      )  @   65.1218,    0.1410,  -38.1861
295: monster     kikimora@trofim_joke.script:trofim_song2:59                                                       (Кикимора                      )  @   96.9393,    0.0347,  -45.4050
296: monster     volkodav@trofim_joke.script:trofim_song2:60                                                       (Крысоволк                     )  @  112.3261,    0.0394,  -35.4887
297: monster     volkodav@trofim_joke.script:trofim_song2:61                                                       (Крысоволк                     )  @   90.5960,    0.1237,  -10.4879
298: monster     volkodav@trofim_joke.script:trofim_song2:62                                                       (Крысоволк                     )  @  100.7127,   -3.3305,   57.9110
299: monster     controller_senator@trofim_joke.script:trofim_sms2:67                                              (Контролёр-охотник             )  @  115.8963,    0.0330,   -5.6989
300: monster     zombie_trup@trofim_joke.script:trofim_sms2:68                                                     (Зомби-труп                    )  @  104.5416,    0.7024,   -5.7822
301: monster     zombie_trup2@trofim_joke.script:trofim_sms2:69                                                    (Полуразложившийся зомби       )  @  112.1510,   -0.5002,   20.6480
302: monster     zombie_strong@trofim_joke.script:trofim_sms2:70                                                   (Матёрый зомби                 )  @   83.8735,   -2.7878,   51.1986
303: monster     kontrik_dolina@zahar_ohota.script:ohota_dolina_spawn:84                                           (Молодой контролёр             )  @  142.6070,    0.1774, -281.4084
304: monster     kontrik_yantar2@zahar_ohota.script:ohota_dolina_spawn:85                                          (Контролёр-толстяк             )  @  106.2429,    0.0457,  -72.5744
305: monster     zombie_immortal r0@zahar_ohota.script:ohota_dolina_spawn:96                                       (Ведьма                        )  @  142.6070,    0.1774, -281.4084
306: monster     zombie_immortal r1@zahar_ohota.script:ohota_dolina_spawn:96                                       (Ведьма                        )  @  106.2429,    0.0457,  -72.5744
307: monster     zombie_hell1 r0@zahar_ohota.script:ohota_dolina_spawn:97                                          (Зомби-странник                )  @  142.6070,    0.1774, -281.4084
308: monster     zombie_hell1 r1@zahar_ohota.script:ohota_dolina_spawn:97                                          (Зомби-странник                )  @  106.2429,    0.0457,  -72.5744
309: monster     zombie_hell4 r0@zahar_ohota.script:ohota_dolina_spawn:98                                          (Зомби-подопытный              )  @  142.6070,    0.1774, -281.4084
310: monster     zombie_hell4 r1@zahar_ohota.script:ohota_dolina_spawn:98                                          (Зомби-подопытный              )  @  106.2429,    0.0457,  -72.5744
311: monster     zombie_hell5 r0@zahar_ohota.script:ohota_dolina_spawn:99                                          (Зомби-рабочий                 )  @  142.6070,    0.1774, -281.4084
312: monster     zombie_hell5 r1@zahar_ohota.script:ohota_dolina_spawn:99                                          (Зомби-рабочий                 )  @  106.2429,    0.0457,  -72.5744
313: monster     zombie_hell6 r0@zahar_ohota.script:ohota_dolina_spawn:100                                         (Жареный зомби                 )  @  142.6070,    0.1774, -281.4084
314: monster     zombie_hell6 r1@zahar_ohota.script:ohota_dolina_spawn:100                                         (Жареный зомби                 )  @  106.2429,    0.0457,  -72.5744
315: monster     voen_zombied1 r0@zahar_ohota.script:ohota_dolina_spawn:101                                        (pri_zombied_suicide           )  @  142.6070,    0.1774, -281.4084
316: monster     voen_zombied1 r1@zahar_ohota.script:ohota_dolina_spawn:101                                        (pri_zombied_suicide           )  @  106.2429,    0.0457,  -72.5744
