  0: dolina_zone_radioactive_average.shape0       zone_radioactive_average @  362.7230,    1.6513,   22.8669
  1: dolina_zone_radioactive_average_0000.shape0  zone_radioactive_average @  322.4420,   -9.3849, -381.4505
  2: zone_radioactive_0003.shape0                 zone_radioactive_average @  278.2678,    0.5841,  -39.1515
  3: zone_radioactive.shape0                      zone_radioactive_strong  @  266.5110,   -3.7496, -217.5452
  4: zone_radioactive_0000.shape0                 zone_radioactive_strong  @  272.3951,   -3.7496, -217.6830
  5: zone_radioactive_0001.shape0                 zone_radioactive_strong  @  272.9339,   -3.7496, -219.3998
  6: zone_radioactive_0002.shape0                 zone_radioactive_strong  @  267.9615,   -3.7496, -219.8852
  7: dolina_zone_radioactive_weak.shape0          zone_radioactive_weak    @  -82.4846,   -6.8733,    3.9309
  8: dolina_zone_radioactive_weak_0000.shape0     zone_radioactive_weak    @  -76.9649,   -6.8733,  -34.7722
  9: dolina_zone_radioactive_weak_0001.shape0     zone_radioactive_weak    @   33.8799,    0.0535, -228.7137
 10: dolina_zone_radioactive_weak_0002.shape0     zone_radioactive_weak    @  376.0505,   -2.2550,   47.5699
 11: dolina_zone_radioactive_weak_0003.shape0     zone_radioactive_weak    @  323.4559,   -9.3842, -389.1518
