  23.81, -  3.86,    2.82 -> - 20.90,   69.64, - 28.19
  24.67,   56.19, -  5.06 ->   23.74,   69.72,   51.21
  23.80,   70.39,   45.32 ->   22.98,   82.82,    0.33
   3.87,   83.60,    6.29 ->  100.77,   65.48,   54.35
  47.26,   83.60,    6.33 ->  100.77,   65.48,   54.35
 100.76,   65.48,   10.90 ->   25.49,   81.75, - 26.17
   5.69,   66.71,   37.23 ->   23.77,   84.63,   51.37
