 0: sar_physic_destroyable_object_0110                                 random @  47.6756,  12.2977, -19.0536
 1: sar_physic_destroyable_object_0116                                 random @   7.6716,  12.2052,  20.1577
 2: sar_surprise_box_0000                                              random @  35.5204,  13.4657, -21.0907
 3: sar_surprise_box_0001                                              random @   1.7069,  12.7028,  17.6825
 4: sar_surprise_box_0002                                              random @  29.9762,  11.8468,  30.0648
 5: sar_surprise_box_0003                                              random @  34.9834,  18.2383,  26.6400
 6: sar_surprise_box_0004                                              random @  50.8748,  17.9710,  27.1453
 7: sar_surprise_box_0005                                              random @  28.1583,   1.0888,  42.1003
 8: sar_surprise_box_0006                                              random @ -31.8774,   0.2328,  41.4412
 9: sar_surprise_box_0007                                              random @  10.9208,  -0.4320,   7.3169
10: sar_surprise_box_0008                                              random @  11.0161,  -4.4943,  12.2032
