  0: garbage_zone_ameba1_les.shape0                                           zone_ameba1              @  205.1146,   -1.3331, -166.1545
  1: gar_zone_radioactive_average.shape0                                      zone_radioactive_average @  -52.4966,   12.1178, -108.7391
  2: gar_zone_radioactive_average_0000.shape0                                 zone_radioactive_average @  -61.1600,   12.1178,  109.6393
  3: gar_zone_radioactive_average_0001.shape0                                 zone_radioactive_average @   97.0642,   12.6077,   39.2665
  4: gar_zone_radioactive_strong.shape0                                       zone_radioactive_strong  @  -53.2100,   16.2389, -110.2084
  5: gar_zone_radioactive_strong_0000.shape0                                  zone_radioactive_strong  @  -61.8733,   16.2389,  108.1700
  6: gar_zone_radioactive_strong_0001.shape0                                  zone_radioactive_strong  @   97.6400,   15.2157,   35.8195
  7: gar_zone_radioactive_average_0002.shape0                                 zone_radioactive_weak    @ -116.2014,    8.2345, -119.8305
  8: gar_zone_radioactive_average_0003.shape0                                 zone_radioactive_weak    @   52.6609,    4.0878,  -11.0596
  9: gar_zone_radioactive_average_0004.shape0                                 zone_radioactive_weak    @ -155.5396,   13.8078, -114.0343
 10: gar_zone_radioactive_average_0005.shape0                                 zone_radioactive_weak    @ -184.1114,    4.4956, -119.7813
 11: gar_zone_radioactive_average_0006.shape0                                 zone_radioactive_weak    @ -203.7750,    3.3088, -186.2691
 12: gar_zone_radioactive_average_0007.shape0                                 zone_radioactive_weak    @ -226.7678,    9.5549, -109.3114
 13: gar_zone_radioactive_average_0008.shape0                                 zone_radioactive_weak    @ -264.0622,    5.0099, -118.5522
 14: gar_zone_radioactive_average_0009.shape0                                 zone_radioactive_weak    @ -267.5271,    0.4086, -149.2080
 15: gar_zone_radioactive_average_0010.shape0                                 zone_radioactive_weak    @ -173.1263,    0.8631, -205.5221
 16: gar_zone_radioactive_average_0011.shape0                                 zone_radioactive_weak    @ -173.5594,    0.1786, -255.0634
 17: gar_zone_radioactive_average_0012.shape0                                 zone_radioactive_weak    @ -132.5836,    0.3032, -283.7937
 18: gar_zone_radioactive_average_0013.shape0                                 zone_radioactive_weak    @  -67.3584,    0.1312, -265.3604
 19: gar_zone_radioactive_average_0014.shape0                                 zone_radioactive_weak    @  107.3540,   -2.0811, -263.5510
 20: gar_zone_radioactive_average_0015.shape0                                 zone_radioactive_weak    @   98.3352,    3.5556, -223.4657
 21: gar_zone_radioactive_average_0016.shape0                                 zone_radioactive_weak    @  135.3249,    3.0613, -197.4008
 22: gar_zone_radioactive_average_0017.shape0                                 zone_radioactive_weak    @  291.6434,    3.6036, -121.2368
 23: gar_zone_radioactive_average_0018.shape0                                 zone_radioactive_weak    @  292.0894,    8.5248, -156.3482
 24: gar_zone_radioactive_average_0019.shape0                                 zone_radioactive_weak    @  266.5559,    8.6124, -177.1950
 25: gar_zone_radioactive_average_0021.shape0                                 zone_radioactive_weak    @  244.7604,   15.3421,  -82.6864
 26: gar_zone_radioactive_average_0022.shape0                                 zone_radioactive_weak    @  221.4314,   17.6323, -101.0204
 27: gar_zone_radioactive_average_0023.shape0                                 zone_radioactive_weak    @  234.3044,    8.8309, -220.3913
 28: gar_zone_radioactive_average_0024.shape0                                 zone_radioactive_weak    @  133.6265,    5.8111,  -72.5508
 29: gar_zone_radioactive_average_0025.shape0                                 zone_radioactive_weak    @  175.7729,   10.1117,  -74.6235
 30: gar_zone_radioactive_average_0026.shape0                                 zone_radioactive_weak    @  261.5038,    8.6809,  -24.4767
 31: gar_zone_radioactive_average_0027.shape0                                 zone_radioactive_weak    @  255.0597,    0.4000,   16.7240
 32: gar_zone_radioactive_average_0028.shape0                                 zone_radioactive_weak    @  211.4533,   14.5132,  -58.6351
 33: gar_zone_radioactive_average_0044.shape0                                 zone_radioactive_weak    @ -255.1133,   11.2608,  -37.7439
 34: gar_zone_radioactive_average_0045.shape0                                 zone_radioactive_weak    @ -289.5653,   10.3767,   12.2190
 35: gar_zone_radioactive_average_0046.shape0                                 zone_radioactive_weak    @ -159.4241,   11.8556,  -89.3626
 36: gar_zone_radioactive_average_0047.shape0                                 zone_radioactive_weak    @ -215.0731,    7.1665,   33.4215
 37: gar_zone_radioactive_average_0048.shape0                                 zone_radioactive_weak    @ -209.4271,   10.5691,  224.3807
 38: gar_zone_radioactive_average_0049.shape0                                 zone_radioactive_weak    @ -121.7641,   10.9707,  226.1569
 39: gar_zone_radioactive_average_0050.shape0                                 zone_radioactive_weak    @  123.6257,    8.9383,  274.6314
 40: gar_zone_radioactive_average_0051.shape0                                 zone_radioactive_weak    @  243.5766,    4.9340,  165.9327
 41: gar_zone_radioactive_average_0053.shape0                                 zone_radioactive_weak    @  242.6789,    6.6423,  -45.8170
 42: gar_zone_radioactive_average_0056.shape0                                 zone_radioactive_weak    @ -220.8659,    6.4105,    4.8900
 43: gar_zone_radioactive_average_0058.shape0                                 zone_radioactive_weak    @ -276.5152,    0.7216,    0.3660
 44: gar_zone_radioactive_average_0059.shape0                                 zone_radioactive_weak    @ -232.7548,    4.1759,    5.6377
 45: gar_zone_radioactive_average_0060.shape0                                 zone_radioactive_weak    @ -241.6683,    5.8590,   10.4601
 46: gar_zone_radioactive_average_0061.shape0                                 zone_radioactive_weak    @ -257.1051,    6.1128,   14.2756
 47: gar_zone_radioactive_average_0062.shape0                                 zone_radioactive_weak    @ -269.0990,    7.0594,   15.7461
 48: gar_zone_radioactive_average_0063.shape0                                 zone_radioactive_weak    @ -221.1226,   13.5768,  -60.8050
 49: gar_zone_radioactive_average_0064.shape0                                 zone_radioactive_weak    @ -184.0832,   15.1112,  -85.3425
 50: gar_zone_radioactive_average_0065.shape0                                 zone_radioactive_weak    @ -229.7542,   16.1718,   61.9058
 51: gar_zone_radioactive_average_0066.shape0                                 zone_radioactive_weak    @ -235.2312,   16.1438,  122.2665
 52: gar_zone_radioactive_average_0067.shape0                                 zone_radioactive_weak    @ -198.5000,   17.1427,  184.5602
 53: gar_zone_radioactive_average_0068.shape0                                 zone_radioactive_weak    @ -247.6946,    8.6625,  179.2447
 54: gar_zone_radioactive_weak.shape0                                         zone_radioactive_weak    @  212.5654,    5.9320,  181.7887
 55: gar_zone_radioactive_weak_0000.shape0                                    zone_radioactive_weak    @  -47.8561,    6.0618, -110.1009
 56: gar_zone_radioactive_weak_0001.shape0                                    zone_radioactive_weak    @  -56.5195,    6.0618,  108.2775
 57: gar_zone_radioactive_weak_0002.shape0                                    zone_radioactive_weak    @  102.6352,    5.6967,   35.0354
