  0:                                             collector's stash 0_0 @ 123.4923,  14.1012, -23.9000
  1:                                             collector's stash 0_1 @  91.5217,   6.6173, -41.4169
  2:                                             collector's stash 0_2 @ -21.8996,   1.7863,  -0.8195
  3:                                             collector's stash 0_3 @  72.0620,  11.8750,  71.7290
  4:                                             collector's stash 0_4 @  18.4496,  11.6059,  26.5183
  5:                                             collector's stash 0_5 @  72.4134,   5.1826, -96.6870
  6:                                             Chessmaster's stash 9 @  83.5652,   7.9745, -45.1596
  7:       t_inventory_box7@kostya_dialog.script:t_inventory_box7:1495 @  94.3087,  14.2547,  50.4914
  8:                   n_inventory_box_sd2@snp.script:fenrir5_done:781 @ -68.0835,  16.5921,  16.2356
  9:                                        lost_village_inventory_box @  91.7429,   8.0683, -36.7537 ammo_9x39_ap = 1, antirad = 1, medkit = 1, medkit_scientic = 1, bandage = 2
