 0: vgaz66_1@lukash_ugroza.script:lukash_ugroza_start:10                      vgaz66_1                 УРАЛ                                    @  -98.3528,    2.6842,  102.6826
 1: vgaz66_2@lukash_ugroza.script:lukash_ugroza_start:11                      vgaz66_2                 УРАЛ                                    @  -90.1354,    3.0055,   38.7742
 2: vgaz66_3@lukash_ugroza.script:lukash_ugroza_start:12                      vgaz66_3                 УРАЛ                                    @  -84.5861,    3.1874,  -60.1320
 3: vgaz66_4@lukash_ugroza.script:lukash_ugroza_start:13                      vgaz66_4                 УРАЛ                                    @  -87.6553,    3.0605, -156.4434
 4: vgaz66_5@lukash_ugroza.script:lukash_ugroza_start:14                      vgaz66_5                 УРАЛ                                    @ -134.3282,    3.2213, -209.0838
 5: vgaz66_6@lukash_ugroza.script:lukash_ugroza_start:15                      vgaz66_6                 УРАЛ                                    @  205.1543,    4.4893, -229.8915
