  0: village_anom_ameba1.shape0                                         zone_ameba               @  -2.8738,   6.3149, -81.8188
  1: village_zone_ameba1_pole.shape0                                    zone_ameba1              @ -34.8588,   9.2887, -70.5940
  2: village_zone_ameba1_yma.shape0                                     zone_ameba1              @  38.7163,  -1.0691,  -2.6753
  3: lost_village_zone_radioactive_average.shape0                       zone_radioactive_average @ -32.4201,   2.1112,  16.2130
  4: lost_village_zone_radioactive_average_0000.shape0                  zone_radioactive_average @ -18.6189,   2.1112,  13.2237
  5: lost_village_zone_radioactive_average_0001.shape0                  zone_radioactive_average @ -33.6773,   2.1112, -18.5548
