  0: puzir_zone_ameba1_krest.shape0                                           zone_ameba1              @  -54.3170,   -0.5884, -109.2067
  1: puzir_zone_ameba1_u_vxoda.shape0                                         zone_ameba1              @ -152.1849,  -11.4194,  193.1615
  2: puzir_zone_ameba1_vert_zent.shape0                                       zone_ameba1              @   -3.3249,   -0.0005,  106.9031
  3: puzir_zone_ameba1_zenter.shape0                                          zone_ameba1              @ -152.9416,   -8.6378,    5.4936
  4: puzir_zone_radioactive_average.shape0                                    zone_radioactive_average @  -11.4920,    2.5885,  -81.6224
