  0:                                             collector's stash 0_0 @  105.8238,    0.9774,   11.7894
  1:                                             collector's stash 0_1 @  116.8508,   -0.0812,  -32.7059
  2:                                             collector's stash 0_2 @  135.0649,    7.1622,  -17.6476
  3:                                             collector's stash 0_3 @   87.0953,   -5.8578,  -14.5477
  4:                                             collector's stash 0_4 @  210.9403,   -6.9770,   19.2926
  5:                                            Chessmaster's stash 15 @  135.9439,    7.0122,   -1.4559
  6:   pda_flash r1@sak_dialog.script:take_mil_Svoboda_trader_ammo:965 @  178.9890,   -6.3180,  -13.8150
  7:  a_inventory_box69@kalinin_dog.script:kalinin_dog_spawn_taynik:17 @  -12.8211,   -2.0568, -370.3835
  8:         taynik_palenka@ohota_tushkan.script:ohota_tushkan_done:36 @   66.5600,   -7.2040,  -94.1800 Заменить хорошую водку на палёную
