  0: LevelWarper level_changer                                                                                                           @ -226.6100,    2.9470,  323.8430 1 x 1
  1: item        Criminal note 25                                                   note_zone_25         ("ЧН - Фонтан"                ) @  323.5375,   -5.9572, -294.2859
  2: lost page   document page 0_0                                                  zonedocs_1           (Часть документов             ) @ -177.6825,   -5.7589,  -22.0925
  3: lost page   document page 0_1                                                  zonedocs_2           (Часть документов             ) @  -32.3083,  -12.6710, -232.3980
  4: lost page   document page 0_2                                                  zonedocs_3           (Часть документов             ) @  110.9357,   -9.4067, -303.1836
  5: lost page   document page 0_3                                                  zonedocs_4           (Часть документов             ) @  269.0226,   -8.3557,  -61.5289
  6: lost page   document page 0_4                                                  zonedocs_5           (Часть документов             ) @  191.1480,   -6.5941,  -12.4119
  7: lost page   document page 0_5                                                  zonedocs_6           (Часть документов             ) @   63.5061,   -6.7868, -100.9562
  8: lost page   document page 0_6                                                  zonedocs_7           (Часть документов             ) @  128.8949,   -7.1611,   32.4346
  9: lost page   document page 0_7                                                  zonedocs_8           (Часть документов             ) @  358.8159,   -3.7479,  203.0318
 10: lost page   document page 0_8                                                  zonedocs_9           (Часть документов             ) @  194.0717,   -4.0197,   20.1573
 11: lost page   document page 0_9                                                  zonedocs_10          (Часть документов             ) @  176.2197,   -3.4673,    1.3220
 12: lost page   document page 0_10                                                 zonedocs_11          (Часть документов             ) @   96.4005,   -2.4278,  -25.6187
 13: lost page   document page 0_11                                                 zonedocs_12          (Часть документов             ) @  145.6529,   -0.4556,  -74.1174
 14: lost page   document page 0_12                                                 zonedocs_13          (Часть документов             ) @  135.1171,    0.4040,  -16.7598
 15: lost page   document page 0_13                                                 zonedocs_14          (Часть документов             ) @  138.0811,   -5.5152,  -62.0389
 16: lost page   document page 0_14                                                 zonedocs_15          (Часть документов             ) @  112.7834,   -2.3039,    3.1192
 17: manual item termos_small@arhara_dialog.script:garik_vopros_done:481            termos_small         (Маленький термос             ) @  108.1543,   -5.9028,  -24.7120
 18: manual item kuvalda@arhara_dialog.script:remkomplekt_spawn:512                 kuvalda              (Кувалда                      ) @  138.3050,   -6.0210,   13.8060
 19: manual item kuvalda@arhara_dialog.script:remkomplekt_spawn:513                 kuvalda              (Кувалда                      ) @  160.7556,   -5.8303,  -54.9429
 20: manual item otvertka@arhara_dialog.script:remkomplekt_spawn:516                otvertka             (Отвёртка                     ) @  113.3990,   -1.3980,    3.5500
 21: manual item otvertka@arhara_dialog.script:remkomplekt_spawn:517                otvertka             (Отвёртка                     ) @  113.1730,   -1.3980,    3.5390
 22: manual item af_ameba_slime@arhara_dialog.script:remkomplekt_spawn:518          af_ameba_slime       ("Слизь"                      ) @ -143.9670,   -2.8000,  -11.2770
 23: manual item kuznec_koloda@arhara_dialog.script:btr_ataka_start:925             kuznec_koloda        (Игральная карта              ) @ -120.3636,   -3.1845,  153.7421
 24: manual item playboy12@sak.script:add_new_lcitem:236                            playboy12            ("Плейбой" за ноябрь 2007 года) @  139.8982,   -6.5692,  -72.4781
 25: manual item amk_kanistra@dolg_btr.script:dolg_btr_done:31                      amk_kanistra         (Канистра с бензином          ) @  136.6880,   -7.0620,   20.3610
 26: manual item amk_kanistra@dolg_btr.script:dolg_btr_done:32                      amk_kanistra         (Канистра с бензином          ) @  139.3490,   -7.0600,   14.6100
 27: manual item amk_kanistra@dolg_btr.script:dolg_btr_done:33                      amk_kanistra         (Канистра с бензином          ) @  202.9140,   -7.3910,   19.0890
 28: manual item amk_kanistra@dolg_btr.script:dolg_btr_done:34                      amk_kanistra         (Канистра с бензином          ) @  129.9560,   -7.5100,   -9.4770
 29: manual item kuznec_koloda@kalinin_box.script:kalinin_box_start:14              kuznec_koloda        (Игральная карта              ) @  333.3390,   -5.6390,   85.5320
 30: item        atp_arhara_art3                                                    af_dummy_glassbeads  ("Мамины бусы"                ) @  314.0976,   -6.1191,   31.5926
 31: item        atp_arhara_art7                                                    af_dummy_glassbeads  ("Мамины бусы"                ) @  -49.9267,   -4.5979,  131.0307
 32: item        atp_arhara_art2                                                    af_electra_flash     ("Вспышка"                    ) @   23.6406,   -2.8225, -164.3107
 33: item        atp_arhara_art4                                                    af_electra_flash     ("Вспышка"                    ) @  401.4732,   -6.0505, -160.0087
 34: item        atp_arhara_art6                                                    af_electra_flash     ("Вспышка"                    ) @  326.1285,   -5.1791, -375.7134
 35: item        atp_arhara_art1                                                    af_electra_moonlight ("Лунный свет"                ) @  255.2948,   -4.9489,   87.0267
 36: item        atp_arhara_art5                                                    af_electra_moonlight ("Лунный свет"                ) @  167.5708,   -5.3146, -242.7771
 37: item        atp_bread1                                                         bread                (Bread                        ) @  111.9465,   -1.4235,  -24.5091
 38: LevelWarper atp_to_dead_city_shape_0                                                                                                @ -240.7639,    4.1588,   -5.4844 2 x 2
 39: LevelWarper level_changer_na_kordon_shape_0                                                                                         @  -84.9748,    3.2702, -348.9720 0.235999494791031 x 0.235999494791031
 40: LevelWarper level_changer_na_svalku_shape_0                                                                                         @  432.3290,    1.1480, -325.9190 2 x 2
 41: LevelWarper level_changer_to_military_shape_0                                                                                       @  448.4700,   -4.8600,  -25.4600 2 x 2
