  0: monster     zombie_babka_weak@arhara_dialog.script:remkomplekt_spawn:519                             (Свежая зомби-бабка      )  @  -78.5850,   -5.7210,  -96.3890
  1: monster     zombie_babka_normal@arhara_dialog.script:remkomplekt_spawn:520                           (Опытная зомби-бабка     )  @  -80.7830,   -6.1140,  -68.7250
  2: monster     zombie_babka_strong@arhara_dialog.script:remkomplekt_spawn:521                           (Матёрая зомби-бабка     )  @ -100.3770,   -6.1100,  -43.5430
  3: monster     zombie_immortal@arhara_dialog.script:remkomplekt_spawn:522                               (Ведьма                  )  @  -93.4830,   -6.4700,    6.1150
  4: monster     zombie_strong@arhara_dialog.script:remkomplekt_spawn:523                                 (Матёрый зомби           )  @ -149.5060,   -3.8460,    6.0740
  5: monster     kikimora@arhara_dialog.script:zombari_spawn:865                                          (Кикимора                )  @  -28.7170,   -1.5799,  221.7684
  6: monster     kikimora@arhara_dialog.script:zombari_spawn:866                                          (Кикимора                )  @  -19.7715,   -1.7654,  230.5233
  7: monster     kikimora@arhara_dialog.script:zombari_spawn:867                                          (Кикимора                )  @    7.8899,   -2.5584,  209.3255
  8: monster     stinger@arhara_dialog.script:zombari_spawn:868                                           (Скорпионница            )  @  379.7278,   -0.2274,  132.1515
  9: monster     stinger@arhara_dialog.script:zombari_spawn:869                                           (Скорпионница            )  @  379.7278,   -0.2274,  132.1515
 10: monster     stinger@arhara_dialog.script:zombari_spawn:870                                           (Скорпионница            )  @  379.7278,   -0.2274,  132.1515
 11: monster     stinger@arhara_dialog.script:zombari_spawn:871                                           (Скорпионница            )  @  325.4559,   -1.8444,  199.1524
 12: monster     stinger@arhara_dialog.script:zombari_spawn:872                                           (Скорпионница            )  @  325.4559,   -1.8444,  199.1524
 13: monster     stinger@arhara_dialog.script:zombari_spawn:873                                           (Скорпионница            )  @  325.4559,   -1.8444,  199.1524
 14: monster     stinger@arhara_dialog.script:zombari_spawn:874                                           (Скорпионница            )  @  325.4559,   -1.8444,  199.1524
 15: monster     molerat@arhara_dialog.script:zombari_spawn:875                                           (Кротокрыс               )  @  211.3733,   -1.4891,  184.0215
 16: monster     molerat@arhara_dialog.script:zombari_spawn:876                                           (Кротокрыс               )  @  211.3733,   -1.4891,  184.0215
 17: monster     stinger@arhara_dialog.script:zombari_spawn:877                                           (Скорпионница            )  @   64.8488,   -5.1278,  214.5241
 18: monster     stinger@arhara_dialog.script:zombari_spawn:878                                           (Скорпионница            )  @   64.8488,   -5.1278,  214.5241
 19: monster     stinger@arhara_dialog.script:zombari_spawn:879                                           (Скорпионница            )  @   64.8488,   -5.1278,  214.5241
 20: monster     stinger@arhara_dialog.script:zombari_spawn:880                                           (Скорпионница            )  @   64.8488,   -5.1278,  214.5241
 21: monster     stinger@arhara_dialog.script:zombari_spawn:881                                           (Скорпионница            )  @   64.8488,   -5.1278,  214.5241
 22: monster     atp_voyka_attack_1@arhara_dialog.script:btr_ataka_start:918                              (GENERATE_NAME_sergeant  )  @  -57.6254,   -2.3044,  210.9177
 23: monster     atp_voyka_attack_2@arhara_dialog.script:btr_ataka_start:919                              (agr_soldier_specnaz     )  @ -240.8400,    6.6900,  274.2600
 24: monster     soldier_mines_veteran@arhara_dialog.script:btr_ataka_start:920                           (GENERATE_NAME_sergeant  )  @ -109.7826,    0.8088,  185.1948
 25: monster     soldier_mines_regular@arhara_dialog.script:btr_ataka_start:921                           (GENERATE_NAME_captain   )  @ -131.7490,    0.9540,  183.9289
 26: monster     soldier_mines_veteran@arhara_dialog.script:btr_ataka_start:922                           (GENERATE_NAME_sergeant  )  @ -155.6992,    0.9002,  181.7598
 27: monster     soldier_mines_regular@arhara_dialog.script:btr_ataka_start:923                           (GENERATE_NAME_captain   )  @ -186.4016,   -1.7786,  134.4417
 28: monster     soldier_mines_veteran@arhara_dialog.script:btr_ataka_start:924                           (GENERATE_NAME_sergeant  )  @ -120.3636,   -3.1845,  153.7421
 29: monster     soldier_mines_regular@arhara_dialog.script:btr_ataka_start:926                           (GENERATE_NAME_captain   )  @  -55.2196,   -3.4230,  180.2556
 30: monster     atp_voyka_attack_1@arhara_dialog.script:btr_ataka_start1:940                             (GENERATE_NAME_sergeant  )  @ -198.4400,    0.9500,  339.7900
 31: monster     atp_voyka_attack_2@arhara_dialog.script:btr_ataka_start1:941                             (agr_soldier_specnaz     )  @ -240.8400,    6.6900,  274.2600
 32: monster     atp_voyka_attack_3@arhara_dialog.script:btr_ataka_start1:942                             (GENERATE_NAME_sergeant  )  @  -56.8100,    5.4500,  330.6000
 33: monster     atp_voyka_attack_4@arhara_dialog.script:btr_ataka_start1:943                             (GENERATE_NAME_lieutenant)  @  -17.3900,   -2.1200,  223.6000
 34: monster     atp_voyka_attack_5@arhara_dialog.script:btr_ataka_start1:944                             (GENERATE_NAME_sergeant  )  @  -52.4500,   -3.4500,  181.4300
 35: monster     atp_voyka_attack_1@arhara_dialog.script:btr_ataka_start1:945                             (GENERATE_NAME_sergeant  )  @  -76.7800,   -3.5000,  162.1900
 36: monster     atp_voyka_attack_2@arhara_dialog.script:btr_ataka_start1:946                             (agr_soldier_specnaz     )  @ -103.5900,   -4.4300,  110.1700
 37: monster     atp_voyka_attack_2@arhara_dialog.script:btr_ataka_start2:951                             (agr_soldier_specnaz     )  @ -240.8400,    6.6900,  274.2600
 38: monster     atp_voyka_attack_3@arhara_dialog.script:btr_ataka_start2:952                             (GENERATE_NAME_sergeant  )  @  -56.8100,    5.4500,  330.6000
 39: monster     atp_voyka_attack_5@arhara_dialog.script:btr_ataka_start2:953                             (GENERATE_NAME_sergeant  )  @  -52.4500,   -3.4500,  181.4300
 40: monster     atp_voyka_attack_1@arhara_dialog.script:btr_ataka_start2:954                             (GENERATE_NAME_sergeant  )  @  -76.7800,   -3.5000,  162.1900
 41: monster     atp_voyka_attack_2@arhara_dialog.script:btr_ataka_start2:955                             (agr_soldier_specnaz     )  @ -103.5900,   -4.4300,  110.1700
 42: monster     atp_voyka_attack_1@arhara_dialog.script:btr_ataka_start3:960                             (GENERATE_NAME_sergeant  )  @ -198.4400,    0.9500,  339.7900
 43: monster     atp_voyka_attack_3@arhara_dialog.script:btr_ataka_start3:961                             (GENERATE_NAME_sergeant  )  @  -56.8100,    5.4500,  330.6000
 44: monster     atp_voyka_attack_4@arhara_dialog.script:btr_ataka_start3:962                             (GENERATE_NAME_lieutenant)  @  -17.3900,   -2.1200,  223.6000
 45: monster     atp_voyka_attack_5@arhara_dialog.script:btr_ataka_start3:963                             (GENERATE_NAME_sergeant  )  @  -52.4500,   -3.4500,  181.4300
 46: monster     atp_voyka_attack_2@arhara_dialog.script:btr_ataka_start3:964                             (agr_soldier_specnaz     )  @ -103.5900,   -4.4300,  110.1700
 47: monster     atp_voyka_attack_1@arhara_dialog.script:btr_ataka_start4:969                             (GENERATE_NAME_sergeant  )  @ -198.4400,    0.9500,  339.7900
 48: monster     atp_voyka_attack_2@arhara_dialog.script:btr_ataka_start4:970                             (agr_soldier_specnaz     )  @ -240.8400,    6.6900,  274.2600
 49: monster     atp_voyka_attack_4@arhara_dialog.script:btr_ataka_start4:971                             (GENERATE_NAME_lieutenant)  @  -17.3900,   -2.1200,  223.6000
 50: monster     atp_voyka_attack_5@arhara_dialog.script:btr_ataka_start4:972                             (GENERATE_NAME_sergeant  )  @  -52.4500,   -3.4500,  181.4300
 51: monster     atp_voyka_attack_1@arhara_dialog.script:btr_ataka_start4:973                             (GENERATE_NAME_sergeant  )  @  -76.7800,   -3.5000,  162.1900
 52: monster     atp_voyka_attack_2@arhara_dialog.script:btr_ataka_start5:978                             (agr_soldier_specnaz     )  @ -240.8400,    6.6900,  274.2600
 53: monster     atp_voyka_attack_3@arhara_dialog.script:btr_ataka_start5:979                             (GENERATE_NAME_sergeant  )  @  -56.8100,    5.4500,  330.6000
 54: monster     atp_voyka_attack_4@arhara_dialog.script:btr_ataka_start5:980                             (GENERATE_NAME_lieutenant)  @  -17.3900,   -2.1200,  223.6000
 55: car/turret  vehicle_btr@arhara_dialog.script:btr_ataka_start5:981                                    (                        )  @  -57.0300,   -0.3751,  238.0137
 56: car/turret  vehicle_btr@arhara_dialog.script:btr_ataka_start5:982                                    (                        )  @  -98.6665,   -3.6858,  138.8168
 57: car/turret  vehicle_btr@arhara_dialog.script:btr_ataka_start5:983                                    (                        )  @ -163.1643,   -1.9265,  100.4944
 58: monster     upi_sdelka_sniper2 r0@arhara_dialog.script:btr_ataka_start6:1000                         (GENERATE_NAME_lieutenant)  @ -189.5400,    2.0900,  290.5800
 59: monster     upi_sdelka_sniper2 r1@arhara_dialog.script:btr_ataka_start6:1000                         (GENERATE_NAME_lieutenant)  @ -118.9900,   -0.1900,  288.2900
 60: monster     upi_sdelka_sniper2 r2@arhara_dialog.script:btr_ataka_start6:1000                         (GENERATE_NAME_lieutenant)  @  -82.5900,   -0.0600,  273.6900
 61: monster     upi_sdelka_sniper2 r3@arhara_dialog.script:btr_ataka_start6:1000                         (GENERATE_NAME_lieutenant)  @  -62.1300,   -2.5900,  212.2200
 62: monster     upi_sdelka_sniper2 r4@arhara_dialog.script:btr_ataka_start6:1000                         (GENERATE_NAME_lieutenant)  @  -91.8600,    0.4500,  189.6900
 63: monster     upi_sdelka_sniper2 r5@arhara_dialog.script:btr_ataka_start6:1000                         (GENERATE_NAME_lieutenant)  @ -120.8800,   -3.1600,  154.2800
 64: monster     upi_sdelka_sniper2 r6@arhara_dialog.script:btr_ataka_start6:1000                         (GENERATE_NAME_lieutenant)  @ -222.1600,    5.3100,  117.2900
 65: monster     atp_bandit_disk_1@buusty_dialog.script:bandit_disk_spawn:4551                            (specnaz_bandit_veteran  )  @  296.0500,   -1.6600, -368.7000
 66: monster     atp_bandit_disk_3@buusty_dialog.script:bandit_disk_spawn:4552                            (specnaz_bandit_veteran  )  @  246.0200,   -4.0800, -324.2100
 67: monster     atp_bandit_disk_5@buusty_dialog.script:bandit_disk_spawn:4553                            (specnaz_bandit_veteran  )  @  257.2200,   -5.3100, -240.4100
 68: monster     atp_bandit_disk_7@buusty_dialog.script:bandit_disk_spawn:4554                            (GENERATE_NAME_bandit    )  @  326.2700,   -4.3800, -213.7900
 69: monster     atp_bandit_disk_9@buusty_dialog.script:bandit_disk_spawn:4555                            (GENERATE_NAME_bandit    )  @  384.4200,   -4.8800, -221.6500
 70: monster     atp_bandit_disk_8@buusty_dialog.script:bandit_disk_spawn:4556                            (GENERATE_NAME_bandit    )  @  423.1600,   -0.1100, -284.5900
 71: monster     atp_bandit_disk_6@buusty_dialog.script:bandit_disk_spawn:4557                            (specnaz_bandit_veteran  )  @  394.5100,    0.3100, -344.4400
 72: monster     atp_bandit_disk_5@buusty_dialog.script:bandit_disk_spawn:4558                            (specnaz_bandit_veteran  )  @  352.8000,   -3.4500, -368.1400
 73: monster     atp_bandit_disk_4@buusty_dialog.script:bandit_disk_spawn:4559                            (specnaz_bandit_veteran  )  @  427.0600,    2.4100, -346.9400
 74: monster     atp_bandit_disk_2@buusty_dialog.script:bandit_disk_spawn:4560                            (specnaz_bandit_veteran  )  @  323.7000,   -5.5400, -170.1400
 75: monster     atp_bandit_disk_4@buusty_dialog.script:bandit_disk_spawn:4561                            (specnaz_bandit_veteran  )  @  286.3900,   -5.2900, -178.9600
 76: monster     atp_bandit_disk_2@buusty_dialog.script:bandit_disk_spawn1:4566                           (specnaz_bandit_veteran  )  @  262.0300,   -1.7300, -352.1800
 77: monster     atp_bandit_disk_4@buusty_dialog.script:bandit_disk_spawn1:4567                           (specnaz_bandit_veteran  )  @  236.9900,   -5.3900, -262.8900
 78: monster     atp_bandit_disk_6@buusty_dialog.script:bandit_disk_spawn1:4568                           (specnaz_bandit_veteran  )  @  289.8400,   -5.3400, -230.5600
 79: monster     atp_bandit_disk_8@buusty_dialog.script:bandit_disk_spawn1:4569                           (GENERATE_NAME_bandit    )  @  362.8000,   -4.5300, -203.0300
 80: monster     atp_bandit_disk_7@buusty_dialog.script:bandit_disk_spawn1:4570                           (GENERATE_NAME_bandit    )  @  432.2900,   -3.5600, -248.0200
 81: monster     atp_bandit_disk_9@buusty_dialog.script:bandit_disk_spawn1:4571                           (GENERATE_NAME_bandit    )  @  410.8900,   -0.5800, -301.4400
 82: monster     atp_bandit_disk_3@buusty_dialog.script:bandit_disk_spawn1:4572                           (specnaz_bandit_veteran  )  @  323.7000,   -5.5400, -170.1400
 83: monster     atp_bandit_disk_5@buusty_dialog.script:bandit_disk_spawn1:4573                           (specnaz_bandit_veteran  )  @  286.3900,   -5.2900, -178.9600
 84: monster     atp_bandit_disk_1@buusty_dialog.script:bandit_disk_spawn2:4577                           (specnaz_bandit_veteran  )  @  296.0500,   -1.6600, -368.7000
 85: monster     atp_bandit_disk_4@buusty_dialog.script:bandit_disk_spawn2:4578                           (specnaz_bandit_veteran  )  @  236.9900,   -5.3900, -262.8900
 86: monster     atp_bandit_disk_6@buusty_dialog.script:bandit_disk_spawn3:4583                           (specnaz_bandit_veteran  )  @  289.8400,   -5.3400, -230.5600
 87: monster     atp_bandit_disk_8@buusty_dialog.script:bandit_disk_spawn3:4584                           (GENERATE_NAME_bandit    )  @  362.8000,   -4.5300, -203.0300
 88: monster     atp_bandit_disk_7@buusty_dialog.script:bandit_disk_spawn4:4589                           (GENERATE_NAME_bandit    )  @  432.2900,   -3.5600, -248.0200
 89: monster     atp_bandit_disk_9@buusty_dialog.script:bandit_disk_spawn4:4590                           (GENERATE_NAME_bandit    )  @  410.8900,   -0.5800, -301.4400
 90: monster     atp_bandit_disk_2@buusty_dialog.script:bandit_disk_spawn5:4595                           (specnaz_bandit_veteran  )  @  262.0300,   -1.7300, -352.1800
 91: monster     atp_bandit_add_1@buusty_dialog.script:bandit_shnura_zasada:4600                          (GENERATE_NAME_bandit    )  @  167.6900,   -7.1000,    1.5300
 92: monster     atp_bandit_add_2@buusty_dialog.script:bandit_shnura_zasada:4601                          (specnaz_bandit_veteran  )  @  150.9300,   -7.1600,   -8.4000
 93: monster     atp_bandit_add_3@buusty_dialog.script:bandit_shnura_zasada:4602                          (specnaz_bandit_veteran  )  @  189.6100,   -7.2200,    2.1900
 94: monster     atp_bandit_add_4@buusty_dialog.script:bandit_shnura_zasada:4603                          (specnaz_bandit_veteran  )  @  178.6400,   -6.6600,    7.2200
 95: monster     atp_bandit_add_5@buusty_dialog.script:bandit_shnura_zasada:4604                          (specnaz_bandit_veteran  )  @  154.3600,   -7.1600,   15.5000
 96: monster     atp_bandit_add_8@buusty_dialog.script:bandit_shnura_zasada:4605                          (GENERATE_NAME_bandit    )  @  188.6800,   -7.2200,  -24.1600
 97: monster     atp_bandit_add_6@buusty_dialog.script:bandit_shnura_zasada1:4612                         (GENERATE_NAME_bandit    )  @  252.6100,   -2.3700,   22.9100
 98: monster     atp_bandit_add_7@buusty_dialog.script:bandit_shnura_zasada1:4613                         (GENERATE_NAME_bandit    )  @  212.1500,   -7.2700,   51.1000
 99: monster     atp_bandit_add_8@buusty_dialog.script:bandit_shnura_zasada1:4614                         (GENERATE_NAME_bandit    )  @  239.8200,   -4.5400,  -80.3800
100: monster     atp_bandit_add_1@buusty_dialog.script:bandit_shnura_zasada1:4615                         (GENERATE_NAME_bandit    )  @   62.9700,   -7.3300,  -49.0300
101: monster     atp_bandit_add_2@buusty_dialog.script:bandit_shnura_zasada1:4616                         (specnaz_bandit_veteran  )  @   36.8500,   -7.5400,   -1.7400
102: monster     atp_bandit_add_6@buusty_dialog.script:bandit_shnura_zasada1:4617                         (GENERATE_NAME_bandit    )  @   64.1800,   -7.2600,   16.1300
103: monster     atp_bandit_add_3@buusty_dialog.script:bandit_shnura_zasada1:4618                         (specnaz_bandit_veteran  )  @  212.1500,   -7.2700,   51.1000
104: monster     atp_bandit_add_4@buusty_dialog.script:bandit_shnura_zasada2:4625                         (specnaz_bandit_veteran  )  @  252.6100,   -2.3700,   22.9100
105: monster     atp_bandit_add_5@buusty_dialog.script:bandit_shnura_zasada2:4626                         (specnaz_bandit_veteran  )  @  212.1500,   -7.2700,   51.1000
106: monster     atp_bandit_add_2@buusty_dialog.script:bandit_shnura_zasada2:4627                         (specnaz_bandit_veteran  )  @  239.8200,   -4.5400,  -80.3800
107: monster     atp_bandit_add_3@buusty_dialog.script:bandit_shnura_zasada2:4628                         (specnaz_bandit_veteran  )  @   62.9700,   -7.3300,  -49.0300
108: monster     atp_bandit_add_7@buusty_dialog.script:bandit_shnura_zasada2:4629                         (GENERATE_NAME_bandit    )  @   36.8500,   -7.5400,   -1.7400
109: monster     atp_bandit_add_1@buusty_dialog.script:bandit_shnura_zasada2:4630                         (GENERATE_NAME_bandit    )  @   64.1800,   -7.2600,   16.1300
110: monster     atp_bandit_add_8@buusty_dialog.script:bandit_shnura_zasada2:4631                         (GENERATE_NAME_bandit    )  @  212.1500,   -7.2700,   51.1000
111: monster     atp_bandit_add_6@buusty_dialog.script:bandit_shnura_zasada3:4638                         (GENERATE_NAME_bandit    )  @  252.6100,   -2.3700,   22.9100
112: monster     atp_bandit_add_4@buusty_dialog.script:bandit_shnura_zasada3:4639                         (specnaz_bandit_veteran  )  @  212.1500,   -7.2700,   51.1000
113: monster     atp_bandit_add_8@buusty_dialog.script:bandit_shnura_zasada3:4640                         (GENERATE_NAME_bandit    )  @  239.8200,   -4.5400,  -80.3800
114: monster     atp_bandit_add_5@buusty_dialog.script:bandit_shnura_zasada3:4641                         (specnaz_bandit_veteran  )  @   62.9700,   -7.3300,  -49.0300
115: monster     atp_bandit_add_3@buusty_dialog.script:bandit_shnura_zasada3:4642                         (specnaz_bandit_veteran  )  @   36.8500,   -7.5400,   -1.7400
116: monster     atp_bandit_add_7@buusty_dialog.script:bandit_shnura_zasada3:4643                         (GENERATE_NAME_bandit    )  @   64.1800,   -7.2600,   16.1300
117: monster     atp_bandit_add_2@buusty_dialog.script:bandit_shnura_zasada3:4644                         (specnaz_bandit_veteran  )  @  212.1500,   -7.2700,   51.1000
118: monster     atp_bandit_add_sedoy@buusty_dialog.script:bandit_sedoy_spawn:4650                        (GENERATE_NAME_bandit    )  @   33.9900,   -6.8900,  -20.4400
119: monster     atp_presled_last_1@new_spawn.script:atp_presled_last:302                                 (sim_lastday_master      )  @  -92.4700,   -2.9000, -345.5700
120: monster     atp_presled_last_2@new_spawn.script:atp_presled_last:303                                 (sim_lastday_veteran     )  @  -90.4500,   -4.3700, -298.0900
121: monster     atp_presled_last_3@new_spawn.script:atp_presled_last:304                                 (sim_lastday_master      )  @  -86.7900,   -8.0500, -262.4400
122: monster     atp_presled_last_7@new_spawn.script:atp_presled_last:305                                 (GENERATE_NAME_stalker   )  @   77.3800,   -5.5800, -221.4100
123: monster     atp_presled_last_4@new_spawn.script:atp_presled_last1:311                                (sim_lastday_veteran     )  @  -63.8700,   -9.3900, -214.1900
124: monster     atp_presled_last_1@new_spawn.script:atp_presled_last1:312                                (sim_lastday_master      )  @   66.1900,   -5.4200, -198.2700
125: monster     atp_presled_last_5@new_spawn.script:atp_presled_last1:313                                (GENERATE_NAME_stalker   )  @  139.2600,   -5.7300, -251.7400
126: monster     atp_presled_last_6@new_spawn.script:atp_presled_last1:314                                (GENERATE_NAME_stalker   )  @  -92.4700,   -2.9000, -345.5700
127: human       ds_bandit_respawn_144@oksana_spawn.script:collection_coin_10:4904                        (sim_bandit_novice       )  @   98.8250,   -7.0560,  -71.1690
128: car/turret  vehicle_kamaz@kalinin_box.script:kalinin_box_start:3                                     (                        )  @  318.8360,   -5.4660,  109.9680
129: car/turret  vehicle_kamaz@kalinin_box.script:kalinin_box_start:5                                     (                        )  @  286.6140,   -5.5410,  123.8100
130: monster     pri_arhara_naemnik1@kalinin_box.script:kalinin_box_start:8                               (sim_killer_master       )  @  301.5980,   -5.5400,  108.3390
131: monster     pri_arhara_naemnik2@kalinin_box.script:kalinin_box_start:9                               (GENERATE_NAME_stalker   )  @  256.0910,   -5.5390,  128.7510
132: monster     naemnik_regular@kalinin_box.script:kalinin_box_start:10                                  (sim_killer_general      )  @  272.9860,   -3.6120,  155.3690
133: monster     naemnik_veteran@kalinin_box.script:kalinin_box_start:11                                  (sim_killer_veteran      )  @  309.2370,   -5.9050,   94.6130
134: monster     naemnik_regular@kalinin_box.script:kalinin_box_start:12                                  (sim_killer_general      )  @  337.2270,   -4.8360,  107.9280
135: monster     naemnik_veteran@kalinin_box.script:kalinin_box_start:13                                  (sim_killer_veteran      )  @  333.3390,   -5.6390,   85.5320
136: monster     leshyi_bandit5@kalinin_box.script:kalinin_box_start:15                                   (specnaz_bandit_veteran  )  @  253.8710,   -2.8990,   39.2780
137: monster     leshyi_bandit3@kalinin_box.script:kalinin_box_start:16                                   (sim_atp_bandit_master   )  @  251.8560,   -2.4680,   20.4320
138: monster     leshyi_bandit4@kalinin_box.script:kalinin_box_start:17                                   (sim_bandit_veteran      )  @  293.9850,   -6.7460,   28.9860
139: monster     leshyi_bandit1@kalinin_box.script:kalinin_box_start:18                                   (specnaz_bandit_veteran  )  @  239.0460,   -5.2680,   49.7560
140: monster     leshyi_bandit2@kalinin_box.script:kalinin_box_start:19                                   (specnaz_bandit_veteran  )  @  233.5140,   -4.4330,   88.5470
141: monster     leshyi_bandit3@kalinin_box.script:kalinin_box_start:20                                   (sim_atp_bandit_master   )  @  213.1000,   -5.1370,   91.2930
142: monster     leshyi_bandit4@kalinin_box.script:kalinin_box_start:21                                   (sim_bandit_veteran      )  @  210.2140,   -5.2020,  113.8050
143: monster     leshyi_bandit5@kalinin_box.script:kalinin_box_start:22                                   (specnaz_bandit_veteran  )  @  244.2720,   -4.4790,   82.6710
144: monster     leshyi_bandit1@kalinin_box.script:kalinin_box_start:23                                   (specnaz_bandit_veteran  )  @  292.0190,   -6.1160,   59.0630
145: monster     leshyi_bandit2@kalinin_box.script:kalinin_box_start:24                                   (specnaz_bandit_veteran  )  @  213.8350,   -7.9360,   18.0360
146: monster     leshyi_bandit3@kalinin_box.script:kalinin_box_start:25                                   (sim_atp_bandit_master   )  @  182.5850,   -7.1570,   27.4790
147: monster     leshyi_bandit4@kalinin_box.script:kalinin_box_start:26                                   (sim_bandit_veteran      )  @  176.5360,   -2.7580,   17.9180
148: monster     pri_arhara_naemnik1@kalinin_box.script:kalinin_box_sms:35                                (sim_killer_master       )  @  389.3370,   -5.7460,   27.1660
149: monster     pri_arhara_naemnik2@kalinin_box.script:kalinin_box_sms:36                                (GENERATE_NAME_stalker   )  @  404.8380,   -3.2180,   47.3490
150: monster     naemnik_regular@kalinin_box.script:kalinin_box_sms:37                                    (sim_killer_general      )  @  388.8540,   -1.2920,   80.0320
151: monster     naemnik_veteran@kalinin_box.script:kalinin_box_sms:38                                    (sim_killer_veteran      )  @  396.4800,    0.1560,  112.6280
152: monster     naemnik_regular@kalinin_box.script:kalinin_box_sms:39                                    (sim_killer_general      )  @  389.3650,    0.0320,  133.2200
153: monster     naemnik_veteran@kalinin_box.script:kalinin_box_sms:40                                    (sim_killer_veteran      )  @  378.2790,   -7.3270,    9.7250
154: monster     naemnik_regular@kalinin_box.script:kalinin_box_sms:41                                    (sim_killer_general      )  @  354.2260,   -6.9260,    8.3960
155: monster     naemnik_veteran@kalinin_box.script:kalinin_box_sms:42                                    (sim_killer_veteran      )  @  342.6250,   -7.3220,   19.1740
156: human       atp_brigada_respawn_1@kalinin_box.script:kalinin_box_done:51                             (sim_atp_brigada_master  )  @ -214.9620,    6.6380,  232.2370
157: human       atp_brigada_respawn_2@kalinin_box.script:kalinin_box_done:52                             (sim_atp_brigada_veteran )  @ -212.8550,    6.6130,  236.6050
158: human       atp_brigada_respawn_3@kalinin_box.script:kalinin_box_done:53                             (sim_atp_brigada_regular )  @ -214.4290,    6.6800,  246.1380
159: human       atp_brigada_respawn_4@kalinin_box.script:kalinin_box_done:54                             (GENERATE_NAME_stalker   )  @ -215.3990,    7.2940,  258.1330
160: human       atp_brigada_respawn_4@kalinin_box.script:kalinin_box_done:55                             (GENERATE_NAME_stalker   )  @ -228.6710,    6.6710,  244.0350
161: monster     leshyi_bandit5@kalinin_box.script:kalinin_box_done:56                                    (specnaz_bandit_veteran  )  @  -90.5650,    0.2010,  188.9820
162: monster     leshyi_bandit3@kalinin_box.script:kalinin_box_done:57                                    (sim_atp_bandit_master   )  @  -75.5690,   -2.3410,  224.3360
163: monster     leshyi_bandit4@kalinin_box.script:kalinin_box_done:58                                    (sim_bandit_veteran      )  @  -63.2640,   -2.8440,  211.2280
164: monster     leshyi_bandit1@kalinin_box.script:kalinin_box_done:59                                    (specnaz_bandit_veteran  )  @  -37.9780,   -0.4040,  238.4380
165: monster     leshyi_bandit2@kalinin_box.script:kalinin_box_done:60                                    (specnaz_bandit_veteran  )  @  -57.7930,    0.0660,  282.8800
166: monster     leshyi_bandit3@kalinin_box.script:kalinin_box_done:61                                    (sim_atp_bandit_master   )  @  -44.5210,   -1.4820,  206.1690
167: monster     leshyi_bandit4@kalinin_box.script:kalinin_box_done:62                                    (sim_bandit_veteran      )  @  -52.4600,   -3.2920,  185.8890
168: monster     leshyi_bandit5@kalinin_box.script:kalinin_box_done:63                                    (specnaz_bandit_veteran  )  @  -22.4980,   -2.0500,  220.2100
169: monster     dog_quest@kalinin_dog.script:kalinin_dog_start:7                                         (Светло-коричневая собака)  @  358.5777,   -4.4058, -203.8987
170: monster     dog_normal@kalinin_dog.script:kalinin_dog_start:8                                        (Тёмно-коричневая собака )  @  367.4535,   -4.4235, -206.3768
171: monster     dog_strong@kalinin_dog.script:kalinin_dog_start:9                                        (Белая собака            )  @  354.8998,   -5.0419, -242.8940
172: monster     dog_habaruch@kalinin_dog.script:kalinin_dog_start:10                                     (Чёрный пёс              )  @  363.3662,   -3.9174, -268.6125
173: monster     stinger@kalinin_dog.script:kalinin_dog_start:11                                          (Скорпионница            )  @  341.4375,   -4.9119, -266.5742
174: monster     stinger@kalinin_dog.script:kalinin_dog_start:12                                          (Скорпионница            )  @  317.7283,   -5.2592, -245.1139
175: monster     stinger@kalinin_dog.script:kalinin_dog_start:13                                          (Скорпионница            )  @  341.4375,   -4.9119, -266.5742
176: monster     stinger@kalinin_dog.script:kalinin_dog_start:14                                          (Скорпионница            )  @  317.7283,   -5.2592, -245.1139
177: monster     molerat@kalinin_dog.script:kalinin_dog_spawn_taynik:18                                   (Кротокрыс               )  @  -23.6353,   -2.4124, -334.6738
178: monster     molerat@kalinin_dog.script:kalinin_dog_spawn_taynik:19                                   (Кротокрыс               )  @  -37.6613,   -3.0998, -357.7384
179: monster     molerat@kalinin_dog.script:kalinin_dog_spawn_taynik:20                                   (Кротокрыс               )  @   -8.3163,   -6.2824, -313.4943
180: monster     molerat@kalinin_dog.script:kalinin_dog_spawn_taynik:21                                   (Кротокрыс               )  @   23.5971,   -6.4949, -281.2715
181: monster     molerat@kalinin_dog.script:kalinin_dog_spawn_taynik:22                                   (Кротокрыс               )  @   23.2345,   -6.1147, -307.1948
182: monster     molerat@kalinin_dog.script:kalinin_dog_spawn_taynik:23                                   (Кротокрыс               )  @    0.3824,   -8.4544, -276.8665
183: monster     stinger@kalinin_dog.script:kalinin_dog_spawn_taynik:24                                   (Скорпионница            )  @   50.5746,   -4.4595, -336.1629
184: monster     stinger@kalinin_dog.script:kalinin_dog_spawn_taynik:25                                   (Скорпионница            )  @   43.1190,   -1.9605, -363.6301
185: monster     stinger@kalinin_dog.script:kalinin_dog_spawn_taynik:26                                   (Скорпионница            )  @   75.2826,   -2.6914, -354.9762
186: monster     stinger@kalinin_dog.script:kalinin_dog_spawn_taynik:27                                   (Скорпионница            )  @   65.9932,   -6.1169, -311.6433
187: monster     cat_normal@kalinin_dog.script:kalinin_dog_done:46                                        (Взрослый кот-баюн       )  @ -183.3550,    4.7230,  203.8150
188: monster     kontrik_mozg_atp@lukash_mozg.script:anarh_mozg_start:25                                  (Контролёр               )  @  322.2642,   -2.5769, -295.9840
189: monster     kontrik_mozg_atp@lukash_mozg.script:anarh_mozg_start:26                                  (Контролёр               )  @  326.2642,   -2.5769, -295.9840
190: monster     kalinin_gigant@ohota_gigant.script:ohota_gigant_start:17                                 (Красный псевдогигант    )  @  103.7280,   -6.7520, -325.2260
