 193.45,    3.66, -247.08 ->   16.17,   29.45,   19.61
- 39.16,    0.77,   39.89 -> - 39.48, -  4.33,   44.08
-128.33,   15.63, -205.18 -> -176.07, -  0.00, -190.01
  23.22,   20.71,   24.91 ->  127.34,   14.14,   66.56
- 36.64, -  3.89,   37.49 -> -106.76,    0.36, -143.66
