  0: LevelWarper level_changer                                                                                                                                     @  142.1100,   -4.8600,  385.5300 1 x 1
  1: item        Criminal note 13                                                                note_zone_13                    ("НС - Отмычка"                 ) @  -26.6655,   -5.4901,  -18.6301
  2: lost page   document page 0_0                                                               zonedocs_1                      (Часть документов               ) @ -169.7943,  -15.1319,  396.9323
  3: lost page   document page 0_1                                                               zonedocs_2                      (Часть документов               ) @ -257.9703,  -17.0715,  -16.8038
  4: lost page   document page 0_2                                                               zonedocs_3                      (Часть документов               ) @ -189.6707,  -12.6549,   61.0575
  5: lost page   document page 0_3                                                               zonedocs_4                      (Часть документов               ) @ -119.4110,  -22.6625,  136.2030
  6: lost page   document page 0_4                                                               zonedocs_5                      (Часть документов               ) @ -128.8973,   -8.4083,  205.7949
  7: lost page   document page 0_5                                                               zonedocs_6                      (Часть документов               ) @  112.0607,  -11.6283,  203.9691
  8: lost page   document page 0_6                                                               zonedocs_7                      (Часть документов               ) @   62.2581,   -8.8822,  411.3625
  9: lost page   document page 0_7                                                               zonedocs_8                      (Часть документов               ) @ -271.7034,  -18.1210,  296.4182
 10: lost page   document page 0_8                                                               zonedocs_9                      (Часть документов               ) @ -338.2436,  -23.6226,  252.7062
 11: lost page   document page 0_9                                                               zonedocs_10                     (Часть документов               ) @ -318.7979,  -22.3865,  213.4752
 12: lost page   document page 0_10                                                              zonedocs_11                     (Часть документов               ) @ -201.8817,    5.7967,  456.0239
 13: lost page   document page 0_11                                                              zonedocs_12                     (Часть документов               ) @ -255.3019,  -22.2438,  295.6490
 14: lost page   document page 0_12                                                              zonedocs_13                     (Часть документов               ) @ -346.7714,  -20.6912,  189.9752
 15: lost page   document page 0_13                                                              zonedocs_14                     (Часть документов               ) @  -50.5143,   -4.6212,  -11.2683
 16: lost page   document page 0_14                                                              zonedocs_15                     (Часть документов               ) @ -138.9822,   -0.9214,  -59.1458
 17: lost page   document page 0_15                                                              zonedocs_16                     (Часть документов               ) @ -287.5474,  -24.5634,   77.2184
 18: lost page   document page 0_16                                                              zonedocs_17                     (Часть документов               ) @ -256.7323,  -22.3554,  247.9489
 19: lost page   document page 0_17                                                              zonedocs_18                     (Часть документов               ) @  -81.1235,  -11.2092,   59.8220
 20: lost page   document page 0_18                                                              zonedocs_19                     (Часть документов               ) @  -37.6593,  -13.0818,   47.6742
 21: lost page   document page 0_19                                                              zonedocs_20                     (Часть документов               ) @  -69.2153,   -9.3687,   29.3164
 22: lost page   document page 0_20                                                              zonedocs_21                     (Часть документов               ) @   80.1947,  -12.5952,   61.8732
 23: lost page   document page 0_21                                                              zonedocs_22                     (Часть документов               ) @   70.5924,   -4.6270,   13.2407
 24: lost page   document page 0_22                                                              zonedocs_23                     (Часть документов               ) @   23.8816,   -8.8819,  -55.1710
 25: lost page   document page 0_23                                                              zonedocs_24                     (Часть документов               ) @  -78.8529,   -6.9669,  -11.2720
 26: manual item termos_big@arhara_dialog.script:termos_big_spawn:489                            termos_big                      (Большой термос                 ) @  -93.8592,  -20.0379,  222.6757
 27: manual item termos_big@arhara_dialog.script:termos_big_spawn:490                            termos_big                      (Большой термос                 ) @  101.6558,    0.1566,  302.8699
 28: manual item kluch@arhara_dialog.script:remkomplekt_spawn:514                                kluch                           (Гаечный ключ                   ) @  -55.4430,   -6.4370,  -21.4720
 29: manual item kluch@arhara_dialog.script:remkomplekt_spawn:515                                kluch                           (Гаечный ключ                   ) @  -55.4710,   -6.4360,  -21.1430
 30: manual item 3d_raziy@arhara_dialog.script:spawn_stol:603                                    3d_raziy                        (Видеорация                     ) @ -297.2630,  -18.0340,  292.2750
 31: manual item bomba_mina_n@arhara_dialog.script:zaschita_minka:6413                           bomba_mina_n                    (Противопехотная мина           ) @  -45.0930,   -7.0570,   32.5300
 32: manual item bars1_pda@buusty_dialog.script:crazy_surgery_barmen:3043                        bars1_pda                       (КПК командира отряда «Атлас»   ) @ -297.0402,   -9.2096,  119.1236
 33: manual item bars2_pda@buusty_dialog.script:crazy_surgery_kep:3057                           bars2_pda                       (КПК командира отряда «Сириус»  ) @  131.4309,   -1.7571,  451.6288
 34: manual item ammo_5.56x45_ss190@buusty_dialog.script:oruzheyka_ammo_spawn:4244               ammo_5.56x45_ss190              (Патроны 5.56x45мм SS109        ) @  -24.9300,   -6.5100,  -21.4800
 35: manual item ammo_5.56x45_ss190@buusty_dialog.script:oruzheyka_ammo_spawn:4245               ammo_5.56x45_ss190              (Патроны 5.56x45мм SS109        ) @  -24.9300,   -6.5100,  -21.4800
 36: manual item ammo_5.56x45_ss190@buusty_dialog.script:oruzheyka_ammo_spawn:4246               ammo_5.56x45_ss190              (Патроны 5.56x45мм SS109        ) @  -24.9300,   -6.5100,  -21.4800
 37: manual item ammo_5.56x45_ss190@buusty_dialog.script:oruzheyka_ammo_spawn:4247               ammo_5.56x45_ss190              (Патроны 5.56x45мм SS109        ) @  -24.9300,   -6.5100,  -21.4800
 38: manual item ammo_5.56x45_ap@buusty_dialog.script:oruzheyka_ammo_spawn:4248                  ammo_5.56x45_ap                 (Патроны 5.56x45мм AP           ) @  -24.5900,   -6.5100,  -21.4800
 39: manual item ammo_5.56x45_ap@buusty_dialog.script:oruzheyka_ammo_spawn:4249                  ammo_5.56x45_ap                 (Патроны 5.56x45мм AP           ) @  -24.5900,   -6.5100,  -21.4800
 40: manual item ammo_5.56x45_ap@buusty_dialog.script:oruzheyka_ammo_spawn:4250                  ammo_5.56x45_ap                 (Патроны 5.56x45мм AP           ) @  -24.5900,   -6.5100,  -21.4800
 41: manual item ammo_5.56x45_ap@buusty_dialog.script:oruzheyka_ammo_spawn:4251                  ammo_5.56x45_ap                 (Патроны 5.56x45мм AP           ) @  -24.5900,   -6.5100,  -21.4800
 42: manual item ammo_5.7x28_ss190@buusty_dialog.script:oruzheyka_ammo_spawn:4252                ammo_5.7x28_ss190               (Патроны 5.7x28мм SS195LF       ) @  -24.0700,   -6.5100,  -21.4800
 43: manual item ammo_5.7x28_ss190@buusty_dialog.script:oruzheyka_ammo_spawn:4253                ammo_5.7x28_ss190               (Патроны 5.7x28мм SS195LF       ) @  -24.0700,   -6.5100,  -21.4800
 44: manual item ammo_5.7x28_ss190@buusty_dialog.script:oruzheyka_ammo_spawn:4254                ammo_5.7x28_ss190               (Патроны 5.7x28мм SS195LF       ) @  -24.0700,   -6.5100,  -21.4800
 45: manual item ammo_5.7x28_ss190@buusty_dialog.script:oruzheyka_ammo_spawn:4255                ammo_5.7x28_ss190               (Патроны 5.7x28мм SS195LF       ) @  -24.0700,   -6.5100,  -21.4800
 46: manual item ammo_7.62x51_fmj@buusty_dialog.script:oruzheyka_ammo_spawn:4256                 ammo_7.62x51_fmj                (Патроны 7.62x51мм НАТО         ) @  -25.2000,   -6.5100,  -21.4800
 47: manual item ammo_7.62x51_fmj@buusty_dialog.script:oruzheyka_ammo_spawn:4257                 ammo_7.62x51_fmj                (Патроны 7.62x51мм НАТО         ) @  -25.2000,   -6.5100,  -21.4800
 48: manual item ammo_7.62x51_fmj@buusty_dialog.script:oruzheyka_ammo_spawn:4258                 ammo_7.62x51_fmj                (Патроны 7.62x51мм НАТО         ) @  -25.2000,   -6.5100,  -21.4800
 49: manual item ammo_7.62x51_ap@buusty_dialog.script:oruzheyka_ammo_spawn:4260                  ammo_7.62x51_ap                 (Патроны 7.62x51мм НАТО AP      ) @  -25.3600,   -6.5100,  -21.4000
 50: manual item ammo_7.62x51_ap@buusty_dialog.script:oruzheyka_ammo_spawn:4261                  ammo_7.62x51_ap                 (Патроны 7.62x51мм НАТО AP      ) @  -25.3600,   -6.5100,  -21.4000
 51: manual item ammo_7.62x51_ap@buusty_dialog.script:oruzheyka_ammo_spawn:4262                  ammo_7.62x51_ap                 (Патроны 7.62x51мм НАТО AP      ) @  -25.3600,   -6.5100,  -21.4000
 52: manual item ammo_7.92x57_fmj@buusty_dialog.script:oruzheyka_ammo_spawn:4264                 ammo_7.92x57_fmj                (Патроны 7.92x57мм              ) @  -26.3100,   -6.3300,  -21.3700
 53: manual item ammo_7.92x57_fmj@buusty_dialog.script:oruzheyka_ammo_spawn:4265                 ammo_7.92x57_fmj                (Патроны 7.92x57мм              ) @  -26.3100,   -6.3300,  -21.3700
 54: manual item ammo_7.92x57_fmj@buusty_dialog.script:oruzheyka_ammo_spawn:4266                 ammo_7.92x57_fmj                (Патроны 7.92x57мм              ) @  -26.3100,   -6.3300,  -21.3700
 55: manual item ammo_7.92x57_fmj@buusty_dialog.script:oruzheyka_ammo_spawn:4267                 ammo_7.92x57_fmj                (Патроны 7.92x57мм              ) @  -26.3100,   -6.3300,  -21.3700
 56: manual item ammo_7.92x57_ap@buusty_dialog.script:oruzheyka_ammo_spawn:4268                  ammo_7.92x57_ap                 (Патроны 7.92x57мм AP           ) @  -26.2500,   -6.3300,  -20.9900
 57: manual item ammo_7.92x57_ap@buusty_dialog.script:oruzheyka_ammo_spawn:4269                  ammo_7.92x57_ap                 (Патроны 7.92x57мм AP           ) @  -26.2500,   -6.3300,  -20.9900
 58: manual item ammo_7.92x57_ap@buusty_dialog.script:oruzheyka_ammo_spawn:4270                  ammo_7.92x57_ap                 (Патроны 7.92x57мм AP           ) @  -26.2500,   -6.3300,  -20.9900
 59: manual item ammo_7.92x57_ap@buusty_dialog.script:oruzheyka_ammo_spawn:4271                  ammo_7.92x57_ap                 (Патроны 7.92x57мм AP           ) @  -26.2500,   -6.3300,  -20.9900
 60: manual item wpn_m4_a3@buusty_dialog.script:oruzheyka_ammo_spawn:4272                        wpn_m4_a3                       (Colt M4A3                      ) @  -26.0000,   -6.3300,  -20.8500
 61: manual item wpn_addon_grenade_launcher_m203@buusty_dialog.script:oruzheyka_ammo_spawn:4273  wpn_addon_grenade_launcher_m203 (ПГ M203                        ) @  -26.1500,   -6.3300,  -20.8500
 62: manual item ammo_12.7x108@buusty_dialog.script:oruzheyka_ammo_spawn:4274                    ammo_12.7x108                   (Патроны 12.7x108мм БС          ) @  -26.6900,   -5.7500,  -19.3000
 63: manual item ammo_12.7x108@buusty_dialog.script:oruzheyka_ammo_spawn:4275                    ammo_12.7x108                   (Патроны 12.7x108мм БС          ) @  -26.6900,   -5.7500,  -19.2200
 64: manual item ammo_8.6x70_jsp@buusty_dialog.script:oruzheyka_ammo_spawn:4276                  ammo_8.6x70_jsp                 (Патроны .338 LM FMJ            ) @  -26.6800,   -5.7500,  -18.8400
 65: manual item wpn_addon_scope_nightforce@buusty_dialog.script:oruzheyka_ammo_spawn:4277       wpn_addon_scope_nightforce      (Прицел NightForce NXS 5,5-22X56) @  -26.6300,   -5.8500,  -18.3400
 66: manual item ammo_12x70_kart@buusty_dialog.script:oruzheyka_ammo_spawn:4278                  ammo_12x70_kart                 (Патроны 12x70 Картечь          ) @  -26.6800,   -5.9500,  -18.0400
 67: manual item ammo_12x70_kart@buusty_dialog.script:oruzheyka_ammo_spawn:4279                  ammo_12x70_kart                 (Патроны 12x70 Картечь          ) @  -26.6800,   -5.9500,  -17.9600
 68: manual item ammo_12x70_kart@buusty_dialog.script:oruzheyka_ammo_spawn:4280                  ammo_12x70_kart                 (Патроны 12x70 Картечь          ) @  -26.6800,   -5.9500,  -17.9000
 69: manual item ammo_12x70_kart@buusty_dialog.script:oruzheyka_ammo_spawn:4281                  ammo_12x70_kart                 (Патроны 12x70 Картечь          ) @  -26.6800,   -5.9500,  -17.7200
 70: manual item ammo_7.62x51_box@buusty_dialog.script:oruzheyka_ammo_spawn:4282                 ammo_7.62x51_box                (Короб с патронами 7.62x51мм    ) @  -26.6800,   -5.9500,  -17.3000
 71: manual item ammo_7.62x51_box@buusty_dialog.script:oruzheyka_ammo_spawn:4283                 ammo_7.62x51_box                (Короб с патронами 7.62x51мм    ) @  -26.6800,   -5.9500,  -17.2400
 72: manual item ammo_m209@buusty_dialog.script:oruzheyka_ammo_spawn:4284                        ammo_m209                       (Заряд M209                     ) @  -26.6800,   -5.9500,  -16.8400
 73: manual item ammo_m209@buusty_dialog.script:oruzheyka_ammo_spawn:4285                        ammo_m209                       (Заряд M209                     ) @  -26.6800,   -5.9500,  -16.8000
 74: manual item ammo_m209@buusty_dialog.script:oruzheyka_ammo_spawn:4286                        ammo_m209                       (Заряд M209                     ) @  -26.6800,   -5.9500,  -16.7800
 75: manual item ammo_m209@buusty_dialog.script:oruzheyka_ammo_spawn:4287                        ammo_m209                       (Заряд M209                     ) @  -26.6800,   -5.9500,  -16.7400
 76: manual item ammo_m209@buusty_dialog.script:oruzheyka_ammo_spawn:4288                        ammo_m209                       (Заряд M209                     ) @  -26.6800,   -5.9500,  -16.7000
 77: manual item note_inbottle@oksana_spawn.script:attack_dog:2245                               note_inbottle                   (Записка Шрама в бутылке        ) @ -251.5930,   -6.4050,  296.2850
 78: manual item receiver_horizon@oksana_spawn.script:demand_entertainments:4531                 receiver_horizon                (Радиоприёмник "Горизонт"       ) @  -54.2750,   -5.8800,  -19.0660
 79: manual item smoking_hookah_1@oksana_spawn.script:demand_entertainments:4534                 smoking_hookah_1                (Небольшой рюкзак               ) @  -55.3820,   -6.4370,  -22.0660
 80: manual item hunting_knife@oksana_spawn.script:family_relics_2:5012                          hunting_knife                   (Охотничий Нож                  ) @ -186.9180,  -14.2710,  390.6820
 81: manual item wpn_toz34@oksana_spawn.script:family_relics_2:5013                              wpn_toz34                       (ТОЗ-34                         ) @ -187.3080,  -14.1630,  391.4120
 82: manual item ammo_12x70_buck@oksana_spawn.script:family_relics_2:5014                        ammo_12x70_buck                 (Патроны 12x70 Дробь            ) @ -186.5260,  -13.9040,  391.4890
 83: manual item ammo_12x70_buck@oksana_spawn.script:family_relics_2:5015                        ammo_12x70_buck                 (Патроны 12x70 Дробь            ) @ -190.9640,  -14.1540,  365.8890
 84: manual item bomba_mina_b@oksana_spawn.script:family_relics_2:5016                           bomba_mina_b                    (Усиленная противопехотная мина ) @ -186.5260,  -15.3780,  391.4890
 85: manual item ammo_12x70_buck@oksana_spawn.script:family_relics_2:5017                        ammo_12x70_buck                 (Патроны 12x70 Дробь            ) @ -177.7780,  -12.8390,  390.2290
 86: manual item playboy5@sak.script:add_new_lcitem:228                                          playboy5                        ("Плейбой" за май 2007 года     ) @  -19.5200,   -3.2200,  -19.9100
 87: manual item playboy6@sak.script:add_new_lcitem:229                                          playboy6                        ("Плейбой" за июнь 2007 года    ) @  -52.1100,  -10.5200,   35.3100
 88: manual item kep_binocular r0@binocle_kep.script:binocle_kep_start:14                        kep_binocular                   (Бинокль «Оптимус»              ) @ -108.3642,   11.7558,   36.0885
 89: manual item kep_binocular r1@binocle_kep.script:binocle_kep_start:14                        kep_binocular                   (Бинокль «Оптимус»              ) @   86.2055,    6.2771,   11.8504
 90: manual item kep_binocular r2@binocle_kep.script:binocle_kep_start:14                        kep_binocular                   (Бинокль «Оптимус»              ) @    0.1326,    7.0384,  -63.2947
 91: manual item kep_binocular r3@binocle_kep.script:binocle_kep_start:14                        kep_binocular                   (Бинокль «Оптимус»              ) @  -68.8957,    9.1424,  -32.0328
 92: manual item kep_binocular r4@binocle_kep.script:binocle_kep_start:14                        kep_binocular                   (Бинокль «Оптимус»              ) @  -19.9191,    9.6735,   73.5267
 93: manual item kep_binocular r5@binocle_kep.script:binocle_kep_start:14                        kep_binocular                   (Бинокль «Оптимус»              ) @    6.0914,   -6.2955,   11.2012
 94: manual item kep_binocular r6@binocle_kep.script:binocle_kep_start:14                        kep_binocular                   (Бинокль «Оптимус»              ) @  -50.1313,   -9.3948,   30.9444
 95: manual item kep_binocular r7@binocle_kep.script:binocle_kep_start:14                        kep_binocular                   (Бинокль «Оптимус»              ) @  -38.8254,   -6.3309,  -18.8777
 96: manual item grub_toolkit r2@dolgovazyi_toolkit.script:dolgovazyi_toolkit_start:10           grub_toolkit                    (Инструменты для грубой работы  ) @  -17.6401,   -7.1278,  -31.0316
 97: manual item grub_toolkit r3@dolgovazyi_toolkit.script:dolgovazyi_toolkit_start:10           grub_toolkit                    (Инструменты для грубой работы  ) @  -51.4893,   -5.8478,  -29.1199
 98: manual item kuznec_keis r0@hamster_kuznec4.script:hamster_kuznec4_start:9                   kuznec_keis                     (Потерянный кейс                ) @  -87.2105,   -7.2244,  191.3471
 99: manual item kuznec_keis r1@hamster_kuznec4.script:hamster_kuznec4_start:9                   kuznec_keis                     (Потерянный кейс                ) @ -100.8474,    1.1807,  319.9788
100: manual item kuznec_keis r2@hamster_kuznec4.script:hamster_kuznec4_start:9                   kuznec_keis                     (Потерянный кейс                ) @ -279.3645,   25.4664,  438.2506
101: manual item container_morkov@plov_kulinar.script:povar_crows_done:21                        container_morkov                (Мешок с морковью               ) @  -79.7590,  -10.7200,   39.8300
102: manual item container_ris@plov_kulinar.script:povar_crows_done:23                           container_ris                   (Мешок с рисом                  ) @  -79.7590,   -9.7200,   39.8300
103: manual item vssm_module r73@upgrade_vssm.script                                             vssm_module                     (Random VSSM Module             ) @ -282.0844,  -17.6849,  -28.7221
104: manual item vssm_module r74@upgrade_vssm.script                                             vssm_module                     (Random VSSM Module             ) @ -196.5974,  -11.5759,   40.5794
105: manual item vssm_module r75@upgrade_vssm.script                                             vssm_module                     (Random VSSM Module             ) @ -178.0546,   -3.1585,   -0.3301
106: manual item vssm_module r76@upgrade_vssm.script                                             vssm_module                     (Random VSSM Module             ) @ -243.3152,   -6.3695,  143.1750
107: manual item vssm_module r77@upgrade_vssm.script                                             vssm_module                     (Random VSSM Module             ) @ -219.4906,  -17.0679,  242.1492
108: manual item vssm_module r78@upgrade_vssm.script                                             vssm_module                     (Random VSSM Module             ) @ -244.5126,   -6.4023,  300.1339
109: manual item vssm_module r79@upgrade_vssm.script                                             vssm_module                     (Random VSSM Module             ) @ -270.7290,  -21.6675,  292.5326
110: manual item vssm_module r80@upgrade_vssm.script                                             vssm_module                     (Random VSSM Module             ) @ -294.0810,  -22.0996,  262.4160
111: manual item vssm_module r81@upgrade_vssm.script                                             vssm_module                     (Random VSSM Module             ) @ -334.6878,  -22.0460,  215.8716
112: manual item vssm_module r82@upgrade_vssm.script                                             vssm_module                     (Random VSSM Module             ) @ -245.9927,   -1.2060,  432.9099
113: manual item vssm_module r83@upgrade_vssm.script                                             vssm_module                     (Random VSSM Module             ) @ -206.4856,    5.6455,  453.8331
114: manual item vssm_module r84@upgrade_vssm.script                                             vssm_module                     (Random VSSM Module             ) @ -123.3271,  -15.0164,  376.9283
115: manual item vssm_module r85@upgrade_vssm.script                                             vssm_module                     (Random VSSM Module             ) @  -33.0168,  -20.3665,  368.1596
116: manual item vssm_module r86@upgrade_vssm.script                                             vssm_module                     (Random VSSM Module             ) @  -11.6114,   -2.9113,  450.7706
117: manual item vssm_module r87@upgrade_vssm.script                                             vssm_module                     (Random VSSM Module             ) @   99.8322,   -3.2236,  331.6652
118: manual item vssm_module r88@upgrade_vssm.script                                             vssm_module                     (Random VSSM Module             ) @   98.1006,   -3.9189,  283.8879
119: manual item vssm_module r89@upgrade_vssm.script                                             vssm_module                     (Random VSSM Module             ) @  -73.0093,  -17.9488,  251.2170
120: manual item vssm_module r90@upgrade_vssm.script                                             vssm_module                     (Random VSSM Module             ) @   85.7753,  -11.1119,  238.6749
121: manual item vssm_module r91@upgrade_vssm.script                                             vssm_module                     (Random VSSM Module             ) @   93.4176,  -11.5129,  113.6999
122: manual item vssm_module r92@upgrade_vssm.script                                             vssm_module                     (Random VSSM Module             ) @   34.3721,   -2.6280,   92.4443
123: manual item vssm_module r93@upgrade_vssm.script                                             vssm_module                     (Random VSSM Module             ) @  -91.4869,    1.9695,   77.7190
124: manual item vssm_module r94@upgrade_vssm.script                                             vssm_module                     (Random VSSM Module             ) @   80.1502,  -12.5668,   59.1198
125: manual item vssm_module r95@upgrade_vssm.script                                             vssm_module                     (Random VSSM Module             ) @  115.0601,   -9.3364,   48.4138
126: manual item vssm_module r96@upgrade_vssm.script                                             vssm_module                     (Random VSSM Module             ) @  102.6499,   -3.0061,   85.3478
127: manual item vssm_module r97@upgrade_vssm.script                                             vssm_module                     (Random VSSM Module             ) @   58.4827,   -6.8126,  -67.9964
128: manual item vssm_module r98@upgrade_vssm.script                                             vssm_module                     (Random VSSM Module             ) @  -32.5960,   -3.3330,  -55.5562
129: manual item vssm_module r99@upgrade_vssm.script                                             vssm_module                     (Random VSSM Module             ) @ -128.4644,  -11.5481,  -27.6698
130: manual item vssm_module r100@upgrade_vssm.script                                            vssm_module                     (Random VSSM Module             ) @   73.0373,   -7.1067,   17.0732
131: manual item vssm_module r101@upgrade_vssm.script                                            vssm_module                     (Random VSSM Module             ) @  -63.9077,  -18.8725,  157.2164
132: item        mil_af_dummy_spring                                                             af_dummy_spring                 ("Пружина"                      ) @ -247.3974,   -6.4023,  292.5846
133: item        mil_explosive_mobiltank                                                         amk_kanistra                    (Канистра с бензином            ) @ -163.7150,  -12.3105,  382.3823
134: item        mil_explosive_mobiltank_0001                                                    amk_kanistra                    (Канистра с бензином            ) @  -53.2192,  -10.7812,   10.3045
135: item        mil_explosive_mobiltank_0002                                                    amk_kanistra                    (Канистра с бензином            ) @  -49.0814,   -9.0434,   29.9650
136: item        mil_physic_object_0018                                                          amk_kanistra                    (Канистра с бензином            ) @  -46.8768,   -6.8879,  -13.3520
137: item        mil_physic_object_0020                                                          amk_kanistra                    (Канистра с бензином            ) @  -47.2202,   -6.8871,  -13.4976
138: item        mil_physic_object_0043                                                          amk_kanistra                    (Канистра с бензином            ) @  -44.3748,   -6.8716,  -14.3938
139: item        mil_physic_object_0044                                                          amk_kanistra                    (Канистра с бензином            ) @  -45.9296,   -6.7731,  -27.7025
140: item        mil_ammo_11.43x23_hydro0001                                                     ammo_11.43x23_hydro             (Патроны .45 ACP Hydra-Shock    ) @  -26.6401,   -7.2899,  -16.6570
141: item        mil_ammo_11.43x23_hydro0002                                                     ammo_11.43x23_hydro             (Патроны .45 ACP Hydra-Shock    ) @  105.0866,   -7.3355,  164.5260
142: item        mil_ammo_11.43x23_hydro0003                                                     ammo_11.43x23_hydro             (Патроны .45 ACP Hydra-Shock    ) @  105.0777,   -7.3375,  164.2439
143: item        mil_ammo_12x76_dart                                                             ammo_12x76_dart                 (Патроны 12x76 Дротик           ) @  -26.6739,   -5.8860,  -17.9488
144: item        mil_ammo_12x76_zhekan                                                           ammo_12x76_zhekan               (Патроны 12x76 Жекан            ) @ -306.7574,  -27.6029,  207.0124
145: item        mil_ammo_12x76_zhekan0000                                                       ammo_12x76_zhekan               (Патроны 12x76 Жекан            ) @ -306.5516,  -27.6049,  207.6202
146: item        mil_ammo_5.45x39_ap0006                                                         ammo_5.45x39_ap                 (Патроны 5.45x39мм БП           ) @ -191.3027,   -9.6722,   66.1743
147: item        mil_ammo_5.45x39_ap0007                                                         ammo_5.45x39_ap                 (Патроны 5.45x39мм БП           ) @ -191.0626,   -9.6831,   66.0760
148: item        mil_ammo_5.56x45_ap                                                             ammo_5.56x45_ap                 (Патроны 5.56x45мм AP           ) @ -193.7038,  -16.0338,  375.6004
149: item        mil_ammo_5.56x45_ap0000                                                         ammo_5.56x45_ap                 (Патроны 5.56x45мм AP           ) @ -193.3849,  -16.0185,  375.7623
150: item        mil_ammo_5.56x45_ss0001                                                         ammo_5.56x45_ss190              (Патроны 5.56x45мм SS109        ) @  -23.2079,   -7.2899,  -16.7438
151: item        mil_ammo_5.56x45_ss0003                                                         ammo_5.56x45_ss190              (Патроны 5.56x45мм SS109        ) @  -23.0398,   -7.2899,  -17.3296
152: item        mil_ammo_5.56x45_ss0004                                                         ammo_5.56x45_ss190              (Патроны 5.56x45мм SS109        ) @  -23.2415,   -7.2899,  -17.3244
153: item        mil_ammo_5.56x45_ss190                                                          ammo_5.56x45_ss190              (Патроны 5.56x45мм SS109        ) @  -23.0416,   -6.8098,  -16.2713
154: item        mil_ammo_vog-0000                                                               ammo_vog-25                     (Заряд ВОГ-25                   ) @ -274.7402,  -27.5464,  246.1537
155: item        mil_ammo_vog-0001                                                               ammo_vog-25                     (Заряд ВОГ-25                   ) @ -275.0103,  -27.5464,  245.8915
156: item        mil_ammo_vog-0002                                                               ammo_vog-25                     (Заряд ВОГ-25                   ) @ -274.6432,  -27.5464,  245.8237
157: item        mil_ammo_vog-0003                                                               ammo_vog-25                     (Заряд ВОГ-25                   ) @ -274.0526,  -27.5464,  245.9458
158: item        mil_ammo_vog-0004                                                               ammo_vog-25                     (Заряд ВОГ-25                   ) @ -275.2487,  -27.5464,  245.6298
159: item        mil_ammo_vog-0005                                                               ammo_vog-25                     (Заряд ВОГ-25                   ) @ -274.5503,  -27.5464,  246.0384
160: item        mil_ammo_vog-0006                                                               ammo_vog-25                     (Заряд ВОГ-25                   ) @  -25.9924,   -7.0268,  -21.4605
161: item        mil_ammo_vog-0007                                                               ammo_vog-25                     (Заряд ВОГ-25                   ) @  -25.8586,   -6.8098,  -15.3669
162: item        mil_ammo_vog-0008                                                               ammo_vog-25                     (Заряд ВОГ-25                   ) @  -25.7709,   -6.8098,  -15.4155
163: item        mil_ammo_vog-0009                                                               ammo_vog-25                     (Заряд ВОГ-25                   ) @  -25.6404,   -6.8098,  -15.3968
164: item        mil_ammo_vog-0010                                                               ammo_vog-25                     (Заряд ВОГ-25                   ) @  -25.7786,   -5.8860,  -15.3476
165: item        mil_ammo_vog-0011                                                               ammo_vog-25                     (Заряд ВОГ-25                   ) @  -25.6254,   -5.8860,  -15.3102
166: item        mil_ammo_vog-0012                                                               ammo_vog-25                     (Заряд ВОГ-25                   ) @  -25.2908,   -5.8860,  -15.2858
167: item        mil_ammo_vog-0013                                                               ammo_vog-25                     (Заряд ВОГ-25                   ) @  -25.0855,   -5.8860,  -15.3477
168: item        mil_ammo_vog-0014                                                               ammo_vog-25                     (Заряд ВОГ-25                   ) @ -250.6659,   -6.4023,  294.1831
169: item        mil_ammo_vog-0015                                                               ammo_vog-25                     (Заряд ВОГ-25                   ) @ -251.1765,   -6.4023,  294.6084
170: item        mil_ammo_vog-25                                                                 ammo_vog-25                     (Заряд ВОГ-25                   ) @ -274.3278,  -27.5464,  246.0436
171: item        mil_antirad                                                                     antirad                         (Antirad                        ) @  -23.6094,   -6.8098,  -15.3443
172: item        mil_antirad0000                                                                 antirad                         (Antirad                        ) @  -23.4912,   -6.8098,  -15.2601
173: item        mil_antirad0001                                                                 antirad                         (Antirad                        ) @  -23.6854,   -6.8098,  -15.2429
174: item        mil_antirad0002                                                                 antirad                         (Antirad                        ) @  103.7895,   -8.3775,  165.9503
175: item        mil_antirad0003                                                                 antirad                         (Antirad                        ) @  103.5208,   -8.3775,  166.4960
176: item        mil_antirad0004                                                                 antirad                         (Antirad                        ) @ -249.4197,   -6.3983,  293.6054
177: item        mil_bandage                                                                     bandage                         (Бинт                           ) @  -24.0484,   -6.8098,  -15.3292
178: item        mil_bandage0000                                                                 bandage                         (Бинт                           ) @  -24.2672,   -6.8098,  -15.3433
179: item        mil_bandage0001                                                                 bandage                         (Бинт                           ) @  -24.1822,   -5.8860,  -15.3864
180: item        mil_bread                                                                       bread                           (Bread                          ) @  -77.3699,  -10.4239,   39.6208
181: item        mil_bread_0000                                                                  bread                           (Bread                          ) @  -77.4019,  -10.4239,   39.8776
182: item        mil_bread_0001                                                                  bread                           (Bread                          ) @  -77.5330,  -10.4239,   39.8948
183: item        mil_conserva                                                                    conserva                        (Conserva                       ) @  -74.5825,  -11.1853,   38.5956
184: item        mil_conserva0000                                                                conserva                        (Conserva                       ) @  -74.4382,  -11.1853,   38.7433
185: item        mil_conserva0001                                                                conserva                        (Conserva                       ) @  -74.2923,  -11.1853,   38.5956
186: item        mil_conserva0002                                                                conserva                        (Conserva                       ) @  -74.2970,  -11.1853,   38.7452
187: item        mil_conserva0003                                                                conserva                        (Conserva                       ) @  -74.2970,  -11.1853,   38.8973
188: item        mil_conserva0004                                                                conserva                        (Conserva                       ) @  -74.4382,  -11.1853,   38.5956
189: item        mil_conserva0005                                                                conserva                        (Conserva                       ) @  -74.5825,  -11.1853,   38.7393
190: item        mil_conserva0006                                                                conserva                        (Conserva                       ) @ -191.2407,   -9.6842,   65.2597
191: item        mil_conserva0007                                                                conserva                        (Conserva                       ) @ -191.2407,   -9.6282,   65.2597
192: item        mil_conserva_0000                                                               conserva                        (Conserva                       ) @ -284.3736,  -18.2027,  191.9030
193: item        mil_conserva_0001                                                               conserva                        (Conserva                       ) @ -284.3736,  -18.1307,  191.9030
194: item        mil_conserva_0002                                                               conserva                        (Conserva                       ) @  -79.2903,  -10.7183,   40.0959
195: item        mil_grenade_f_0016                                                              grenade_f1                      (Граната Ф-1                    ) @ -163.1508,  -12.3168,  382.7496
196: item        mil_grenade_f_0017                                                              grenade_f1                      (Граната Ф-1                    ) @ -163.3000,  -12.3107,  382.6168
197: item        mil_grenade_f_0018                                                              grenade_f1                      (Граната Ф-1                    ) @ -196.8534,  -11.5296,   40.8850
198: item        mil_grenade_f_0019                                                              grenade_f1                      (Граната Ф-1                    ) @ -197.1077,  -11.5256,   40.7781
199: item        mil_kolbasa                                                                     kolbasa                         (Kolbasa                        ) @  -79.8755,  -10.7183,   39.8469
200: item        mil_kolbasa_0000                                                                kolbasa                         (Kolbasa                        ) @  -79.6992,  -10.7183,   39.8939
201: item        mil_kolbasa_0001                                                                kolbasa                         (Kolbasa                        ) @  -79.4350,  -10.7183,   39.8880
202: LevelWarper exit_to_aver_from_as_shape_0                                                                                                                      @ -292.7848,  -15.6625,  -31.4939 2 x 2
203: LevelWarper exit_to_bar_01_shape_0                                                                                                                            @ -372.6236,  -21.6993,   -4.8065 4.59000015258789 x 100
204: LevelWarper exit_to_bar_01_shape_1                                                                                                                            @ -372.6236,  -21.6993,   -4.8065 34.601921081543 x 4.16853380203247
205: LevelWarper exit_to_bar_01_shape_2                                                                                                                            @ -372.6236,  -21.6993,   -4.8065 49.4840278625488 x 4.55711698532104
206: LevelWarper exit_to_darkvalley_111_shape_0                                                                                                                    @   66.8580,   -8.1380,  -55.9280 0.800000011920929 x 0.800000011920929
207: LevelWarper exit_to_radar_01_shape_0                                                                                                                          @  156.7300,   -4.9300,  433.5700 20 x 20
208: LevelWarper exit_to_rostok_105_shape_0                                                                                                                        @ -356.7000,   -3.4700,  123.3200 1.54999995231628 x 1.54999995231628
209: item        mil_medkit                                                                      medkit                          (Medkit                         ) @ -191.7627,   -9.6719,   65.2087
210: item        mil_medkit0000                                                                  medkit                          (Medkit                         ) @ -191.7627,   -9.6299,   65.2087
211: item        mil_medkit0001                                                                  medkit                          (Medkit                         ) @  102.1647,  -13.0564,   53.8663
212: item        mil_medkit0002                                                                  medkit                          (Medkit                         ) @ -250.9360,   -6.4023,  294.0768
213: item        mil_medkit_0000                                                                 medkit                          (Medkit                         ) @ -273.5979,  -27.5464,  245.5364
214: item        mil_medkit_0001                                                                 medkit                          (Medkit                         ) @ -273.8026,  -27.5464,  245.4651
215: item        mil_medkit_0002                                                                 medkit                          (Medkit                         ) @  -52.2488,  -16.2699,  166.3577
216: item        mil_medkit_0003                                                                 medkit                          (Medkit                         ) @  -52.3425,  -16.2615,  166.5925
217: item        mil_medkit_0004                                                                 medkit                          (Medkit                         ) @ -284.1534,  -18.2027,  191.9030
218: item        mil_medkit_0005                                                                 medkit                          (Medkit                         ) @ -283.9359,  -18.1847,  192.0017
219: item        level_prefix_vodka_0001                                                         vodka                           (Vodka                          ) @  -92.4876,  -20.7311,  218.9124
220: item        mil_vodka                                                                       vodka                           (Vodka                          ) @ -193.1974,  -16.0185,  375.8902
221: item        mil_vodka_0000                                                                  vodka                           (Vodka                          ) @ -196.8926,  -11.5756,   41.3416
222: item        mil_vodka_0001                                                                  vodka                           (Vodka                          ) @ -197.0649,  -11.5756,   41.3065
223: item        mil_vodka_0002                                                                  vodka                           (Vodka                          ) @ -284.0905,  -18.2027,  191.6857
224: item        mil_vodka_0003                                                                  vodka                           (Vodka                          ) @ -196.9551,  -11.5756,   41.1735
