  0:                                                          collector's stash 0_0 @  -50.6487,  -18.5125,  345.9487
  1:                                                          collector's stash 0_1 @ -129.3535,   -8.3473,  205.6963
  2:                                                          collector's stash 0_2 @ -252.2018,   -1.3025,  438.2647
  3:                                                          collector's stash 1_0 @ -124.9763,   10.8107,  413.7277
  4:                                                          collector's stash 1_1 @ -372.6913,   -4.3602,  389.3266
  5:                                                          collector's stash 1_2 @ -134.9476,   11.1164,    9.5570
  6:                                                          collector's stash 1_3 @  -32.1810,   -3.3828,   51.8378
  7:                                                          collector's stash 1_4 @ -301.6657,  -17.5532,  191.8430
  8:                                                          collector's stash 1_5 @ -321.4855,  -18.8372,  235.7064
  9:                                                          collector's stash 1_6 @   -5.6383,   -6.8786,   66.4374
 10:                                                          collector's stash 1_7 @  -47.0047,   -6.7585,  -10.8304
 11:                                                          collector's stash 1_8 @  -19.2774,   -7.3648,  -26.3037
 12:                                                          Chessmaster's stash 4 @  -75.0218,  -11.3136,   39.2079
 13:                    m_inventory_box20@arhara_dialog.script:new_inventory20:1832 @ -261.5080,  -22.5890,  211.5210
 14:                  m_inventory_box43@buusty_dialog.script:nychka_obman_spawn:147 @ -201.9528,    5.7753,  455.7994
 15:                                 x_inventory_box2@kostya_dialog.script:961:1128 @   -0.7950,    1.1455,   10.2668
 16:                t_inventory_box10_2@kostya_dialog.script:t_inventory_box10:1545 @  -26.3700,   -0.5800,  -25.5300
 17:                    a_inventory_box9@mil_tasks.script:taynik_povar_rg6_spawn:17 @ -274.5520,  -27.5550,  245.4100
 18:                cache_vice_resident@oksana_spawn.script:backpack_anarchist:1690 @  -32.1150,   -3.3830,   52.1610
 19:                          m_sak_resiver_yantar@sak.script:check_droped_item:432 @ -244.6200,   -5.9800,  299.9400
 20:                  computer_flash r2@sak_dialog.script:take_bar_ivancov_rg6:1196 @  -17.2562,   -6.3255,  -28.5895
 21:                         n_inventory_box_as1@snp.script:resident_evil8_done:855 @   18.1671,   -5.2450,  436.4453
 22:                        n_inventory_box_as2@snp.script:gena_sakharov1_done:1794 @ -244.1814,   -2.3535,  293.2320
 23:                     m_inventory_box6 r0@taynik_spawn.script:new_inventory6:950 @  -53.2000,  -22.3500,  378.8700
 24:                     m_inventory_box6 r1@taynik_spawn.script:new_inventory6:950 @ -275.2500,  -20.0000,  260.5000
 25:                     m_inventory_box6 r2@taynik_spawn.script:new_inventory6:950 @ -296.1400,  -15.1300,  291.8100
 26:                     m_inventory_box6 r3@taynik_spawn.script:new_inventory6:950 @ -293.1500,  -15.0300,  195.9600
 27:                     m_inventory_box6 r4@taynik_spawn.script:new_inventory6:950 @ -228.6700,  -13.6800,  201.3600
 28:                     m_inventory_box6 r5@taynik_spawn.script:new_inventory6:950 @   51.5400,   -4.1700,  175.3200
 29:                     kuznec_seif@hamster_kuznec3.script:hamster_kuznec3_start:3 @  -23.1821,   -4.1142,  -26.6785
 30:               kuznec_seif_flash@hamster_kuznec3.script:hamster_kuznec3_start:4 @  -23.5573,   -3.3121,  -21.2646 Вытащить флешку и скачать данные на КПК
 31:                                            invisible_box emb_inventory_box_as1 @  -22.3575,   -0.5672,  -17.1543 snp\\schebet1_25
 32:                                                level_prefix_inventory_box_0028 @  -57.5081,  -10.8685,   32.1697 energy_drink = 2, bandage = 3, ammo_5.56x45_ss190, ammo_m209 = 2
 33:                                                level_prefix_inventory_box_0029 @  -92.4455,  -19.6261,  222.7719 ammo_12x76_zhekan, energy_drink = 2, ammo_5.56x45_ss190, grenade_f1
 34:                                                level_prefix_inventory_box_0030 @ -192.4976,  -15.5564,  372.1949 bandage = 2, ammo_5.56x45_ap = 2, medkit = 2
 35:                                                level_prefix_inventory_box_0031 @  101.3845,    0.1413,  302.2480 bandage = 2, ammo_5.56x45_ap, medkit, ammo_5.56x45_ss190, ammo_m209
 36:                                                level_prefix_inventory_box_0032 @ -233.3115,  -12.6693,   55.8868 ammo_9x39_pab9 = 2, medkit_army, ammo_vog-25
 37:                                                level_prefix_inventory_box_0033 @  -26.6873,   -5.4891,  -17.3222 wpn_rg-6 = 1, ammo_vog-25p = 6
 38:                                                level_prefix_inventory_box_0034 @  -25.1622,   -5.4891,  -15.3360 outfit_svoboda_m1 = 1, svoboda_light_outfit = 1, svoboda_heavy_outfit = 2
