  0: LevelWarper level_changer                                                                                                                                               @ -239.0000,  -25.5000, -133.3100 1 x 1
  1: item        Criminal note 2                                                                     note_zone_2                   ("ЧН - Бар Бандитов"                    ) @  -75.0726,   -1.1008,  155.4223
  2: lost page   document page 0_0                                                                   zonedocs_1                    (Часть документов                       ) @  147.9967,    0.8852,  354.6023
  3: lost page   document page 0_1                                                                   zonedocs_2                    (Часть документов                       ) @ -248.6613,  -19.2596, -171.7830
  4: lost page   document page 0_2                                                                   zonedocs_3                    (Часть документов                       ) @ -237.7599,  -19.6154, -481.3322
  5: lost page   document page 0_3                                                                   zonedocs_4                    (Часть документов                       ) @  -58.4371,  -30.1395, -476.5683
  6: lost page   document page 0_4                                                                   zonedocs_5                    (Часть документов                       ) @   30.1707,   21.9047,  681.0745
  7: lost page   document page 0_5                                                                   zonedocs_6                    (Часть документов                       ) @ -138.3282,  -21.1764, -356.8542
  8: lost page   document page 0_6                                                                   zonedocs_7                    (Часть документов                       ) @  -53.8794,   -9.1141,  -60.7259
  9: lost page   document page 0_7                                                                   zonedocs_8                    (Часть документов                       ) @  -69.1484,   -1.1990,  191.3984
 10: lost page   document page 0_8                                                                   zonedocs_9                    (Часть документов                       ) @   16.6592,    3.3770,   92.2400
 11: lost page   document page 0_9                                                                   zonedocs_10                   (Часть документов                       ) @ -137.7496,  -29.7123, -363.9103
 12: lost page   document page 0_10                                                                  zonedocs_11                   (Часть документов                       ) @ -243.8209,  -12.3955,  -37.9767
 13: lost page   document page 0_11                                                                  zonedocs_12                   (Часть документов                       ) @ -100.1579,   -7.9044,   14.2368
 14: lost page   document page 0_12                                                                  zonedocs_13                   (Часть документов                       ) @  170.7577,   10.0098,  240.8054
 15: lost page   document page 0_13                                                                  zonedocs_14                   (Часть документов                       ) @   63.4190,    9.1539,  616.7446
 16: lost page   document page 0_14                                                                  zonedocs_15                   (Часть документов                       ) @   29.7887,    2.3923,  388.4520
 17: lost page   document page 0_15                                                                  zonedocs_16                   (Часть документов                       ) @  208.6212,    2.0822,  334.5114
 18: lost page   document page 0_16                                                                  zonedocs_17                   (Часть документов                       ) @  110.9174,    1.7701,  457.7908
 19: lost page   document page 0_17                                                                  zonedocs_18                   (Часть документов                       ) @ -240.3752,  -28.5156, -316.7165
 20: lost page   document page 0_18                                                                  zonedocs_19                   (Часть документов                       ) @ -141.1952,  -29.2207, -368.5598
 21: lost page   document page 0_19                                                                  zonedocs_20                   (Часть документов                       ) @  281.0813,    5.3929,  334.6862
 22: lost page   document page 0_20                                                                  zonedocs_21                   (Часть документов                       ) @   75.2958,    3.5458,  391.7246
 23: lost page   document page 0_21                                                                  zonedocs_22                   (Часть документов                       ) @  253.8063,    2.2855,  305.2911
 24: lost page   document page 0_22                                                                  zonedocs_23                   (Часть документов                       ) @  127.9993,   -7.6253,  -40.1160
 25: lost page   document page 0_23                                                                  zonedocs_24                   (Часть документов                       ) @  -61.4046,  -31.2609, -356.4460
 26: lost page   document page 0_24                                                                  zonedocs_25                   (Часть документов                       ) @  -17.5523,    0.5871,  299.3419
 27: lost page   document page 0_25                                                                  zonedocs_26                   (Часть документов                       ) @  -10.3073,    6.5886,  289.5329
 28: lost page   document page 0_26                                                                  zonedocs_27                   (Часть документов                       ) @    7.7060,    6.8458,  294.9278
 29: lost page   document page 0_27                                                                  zonedocs_28                   (Часть документов                       ) @   16.7028,    4.5984,  258.8178
 30: lost page   document page 0_28                                                                  zonedocs_29                   (Часть документов                       ) @   -6.4885,   24.1160,  158.9111
 31: lost page   document page 0_29                                                                  zonedocs_30                   (Часть документов                       ) @  -79.9535,   -5.7213,  -67.9696
 32: lost page   document page 0_30                                                                  zonedocs_31                   (Часть документов                       ) @   44.5396,    2.3043,  160.4906
 33: lost page   document page 0_31                                                                  zonedocs_32                   (Часть документов                       ) @  -22.8329,    8.8298,   87.0596
 34: lost page   document page 0_32                                                                  zonedocs_33                   (Часть документов                       ) @  107.5184,   -7.5139,   11.2764
 35: lost page   document page 0_33                                                                  zonedocs_34                   (Часть документов                       ) @ -125.8440,  -26.2513, -383.5245
 36: lost page   document page 0_34                                                                  zonedocs_35                   (Часть документов                       ) @  -58.5426,    1.0211,  206.6129
 37: lost page   document page 0_35                                                                  zonedocs_36                   (Часть документов                       ) @ -182.4026,  -20.0230, -142.5811
 38: lost page   document page 0_36                                                                  zonedocs_37                   (Часть документов                       ) @ -106.7895,  -30.0336, -394.8159
 39: lost page   document page 0_37                                                                  zonedocs_38                   (Часть документов                       ) @  116.5355,   20.2009,  158.7271
 40: lost page   document page 0_38                                                                  zonedocs_39                   (Часть документов                       ) @ -254.9046,  -19.3668, -151.1044
 41: lost page   document page 0_39                                                                  zonedocs_40                   (Часть документов                       ) @ -170.9837,  -27.3247, -347.5722
 42: lost page   document page 0_40                                                                  zonedocs_41                   (Часть документов                       ) @  146.2937,    3.6017,  338.3178
 43: lost page   document page 0_41                                                                  zonedocs_42                   (Часть документов                       ) @ -116.4231,  -30.6213, -314.8597
 44: lost page   document page 0_42                                                                  zonedocs_43                   (Часть документов                       ) @  -89.4861,  -32.0277, -284.0592
 45: lost page   document page 0_43                                                                  zonedocs_44                   (Часть документов                       ) @   -4.8011,  -16.9168, -148.5629
 46: lost page   document page 0_44                                                                  zonedocs_45                   (Часть документов                       ) @ -118.3137,   11.9826,  118.7710
 47: lost page   document page 0_45                                                                  zonedocs_46                   (Часть документов                       ) @  343.0665,   16.5441,  200.8161
 48: lost page   document page 0_46                                                                  zonedocs_47                   (Часть документов                       ) @   61.5861,   11.5405,  614.2879
 49: lost page   document page 0_47                                                                  zonedocs_48                   (Часть документов                       ) @   82.4944,    8.2191,  586.0342
 50: lost page   document page 0_48                                                                  zonedocs_49                   (Часть документов                       ) @   37.7032,   16.3788,  680.6306
 51: lost page   document page 0_49                                                                  zonedocs_50                   (Часть документов                       ) @ -223.0715,  -19.9313, -160.6987
 52: lost page   document page 0_50                                                                  zonedocs_51                   (Часть документов                       ) @ -208.4054,  -20.0108, -123.9749
 53: lost page   document page 0_51                                                                  zonedocs_52                   (Часть документов                       ) @    7.2225,   16.3450,  680.6024
 54: lost page   document page 0_52                                                                  zonedocs_53                   (Часть документов                       ) @ -172.0819,  -20.3026, -172.3035
 55: lost page   document page 0_53                                                                  zonedocs_54                   (Часть документов                       ) @ -173.3914,  -16.6788, -132.0079
 56: lost page   document page 0_54                                                                  zonedocs_55                   (Часть документов                       ) @ -194.1910,  -19.4913, -132.2557
 57: lost page   document page 0_55                                                                  zonedocs_56                   (Часть документов                       ) @ -245.0300,  -23.3261, -132.9907
 58: lost page   document page 0_56                                                                  zonedocs_57                   (Часть документов                       ) @ -201.6117,  -13.2650, -163.2199
 59: lost page   document page 0_57                                                                  zonedocs_58                   (Часть документов                       ) @  138.0511,   -3.0259,  -37.5213
 60: lost page   document page 0_58                                                                  zonedocs_59                   (Часть документов                       ) @  135.0051,    2.5316,  316.6362
 61: lost page   document page 0_59                                                                  zonedocs_60                   (Часть документов                       ) @   30.8818,   20.2184,  156.9754
 62: manual item microshema@arhara_dialog.script:microshema:430                                      microshema                    (Сломанная плата с микросхемами         ) @ -111.1940,  -29.8470, -394.9910
 63: manual item microshema@arhara_dialog.script:microshema:431                                      microshema                    (Сломанная плата с микросхемами         ) @ -111.1940,  -29.8470, -394.9910
 64: manual item microshema@arhara_dialog.script:microshema:432                                      microshema                    (Сломанная плата с микросхемами         ) @ -111.1510,  -29.8800, -395.1100
 65: manual item microshema@arhara_dialog.script:microshema:433                                      microshema                    (Сломанная плата с микросхемами         ) @ -111.0530,  -29.8260, -395.1740
 66: manual item microshema@arhara_dialog.script:microshema:434                                      microshema                    (Сломанная плата с микросхемами         ) @ -111.1050,  -29.8480, -395.1660
 67: manual item microshema@arhara_dialog.script:microshema:435                                      microshema                    (Сломанная плата с микросхемами         ) @ -111.1580,  -29.8630, -394.9910
 68: manual item microshema@arhara_dialog.script:microshema:436                                      microshema                    (Сломанная плата с микросхемами         ) @ -111.1580,  -29.8630, -394.9910
 69: manual item microshema@arhara_dialog.script:microshema:437                                      microshema                    (Сломанная плата с микросхемами         ) @ -111.1330,  -29.8030, -394.7440
 70: manual item microshema@arhara_dialog.script:microshema:438                                      microshema                    (Сломанная плата с микросхемами         ) @ -111.1760,  -29.8580, -394.9930
 71: manual item microshema@arhara_dialog.script:microshema:439                                      microshema                    (Сломанная плата с микросхемами         ) @ -111.1760,  -29.8580, -394.9930
 72: manual item microshema@arhara_dialog.script:microshema:440                                      microshema                    (Сломанная плата с микросхемами         ) @ -111.1760,  -29.8580, -394.9930
 73: manual item microshema@arhara_dialog.script:microshema:441                                      microshema                    (Сломанная плата с микросхемами         ) @ -111.5160,  -29.8040, -394.4960
 74: manual item microshema@arhara_dialog.script:microshema:442                                      microshema                    (Сломанная плата с микросхемами         ) @ -110.7280,  -29.8030, -394.3390
 75: manual item x_ray_antenna@arhara_dialog.script:x_ray_antenna_change:3994                        x_ray_antenna                 (Переносная пси-антенна                 ) @  109.6980,    4.6170,  459.6770
 76: manual item explosive_bomba@arhara_dialog.script:spawn_bomba_i_mina:6096                        explosive_bomba               (Fuelcan                                ) @ -228.5450,  -28.9100, -223.0670
 77: manual item af_drops@arhara_dialog.script:proba_posulki:6107                                    af_drops                      ("Капля"                                ) @ -255.6550,  -23.3770, -134.3340
 78: manual item klenov_opisalovo@arhara_dialog.script:proba_posulki:6108                            klenov_opisalovo              (Данные от Клёнова                      ) @ -255.6550,  -23.3770, -134.3340
 79: manual item wpn_eagle_m2@arhara_dialog.script:posulka_nomer_dva:6112                            wpn_eagle_m2                  (Фотопистолет                           ) @ -255.6550,  -23.3770, -134.3340
 80: manual item quest_case_01 r0@escape_dialog.script:blockpost_case_spawn:196                      quest_case_01                 (Документы с блокпоста                  ) @ -126.6884,  -29.4200, -388.7040
 81: manual item quest_case_01 r1@escape_dialog.script:blockpost_case_spawn:196                      quest_case_01                 (Документы с блокпоста                  ) @ -126.5700,  -29.0000, -373.2000
 82: manual item quest_case_01 r2@escape_dialog.script:blockpost_case_spawn:196                      quest_case_01                 (Документы с блокпоста                  ) @ -140.9100,  -29.4900, -356.7400
 83: manual item quest_case_01 r3@escape_dialog.script:blockpost_case_spawn:196                      quest_case_01                 (Документы с блокпоста                  ) @ -139.3300,  -29.5100, -356.7400
 84: manual item quest_case_01 r4@escape_dialog.script:blockpost_case_spawn:196                      quest_case_01                 (Документы с блокпоста                  ) @ -140.8000,  -28.8250, -352.6100
 85: manual item quest_case_01 r5@escape_dialog.script:blockpost_case_spawn:196                      quest_case_01                 (Документы с блокпоста                  ) @ -136.0900,  -28.4500, -359.2300
 86: manual item quest_case_01 r6@escape_dialog.script:blockpost_case_spawn:196                      quest_case_01                 (Документы с блокпоста                  ) @ -140.6800,  -25.4400, -359.5800
 87: manual item af_soul@escape_dialog.script:nychka_britva_spawn:756                                af_soul                       ("Душа"                                 ) @  350.1269,   15.2500,  -30.4404
 88: manual item ammo_12x70_kart@escape_dialog.script:nychka_britva_spawn:757                        ammo_12x70_kart               (Патроны 12x70 Картечь                  ) @  350.1269,   15.2500,  -30.4404
 89: manual item ammo_12x70_kart@escape_dialog.script:nychka_britva_spawn:758                        ammo_12x70_kart               (Патроны 12x70 Картечь                  ) @  350.1269,   15.2500,  -30.4404
 90: manual item kostya_af_gold_fish@new_spawn.script:spawn_art:190                                  kostya_af_gold_fish           ("Золотая рыбка"                        ) @    8.8235,    2.8060,   90.2538
 91: manual item izomorf_kompas@oksana_spawn.script:birth_isomorphs:125                              izomorf_kompas                (Изоморф "Компас"                       ) @ -242.2780,  -14.1400,  -14.6170
 92: manual item wooden_box@oksana_spawn.script:chickie_monsters_4:1588                              wooden_box                    (Небольшой рюкзак                       ) @ -110.7420,  -30.0380, -392.2040
 93: manual item alkaloid_syringe@oksana_spawn.script:syringe_village:1815                           alkaloid_syringe              (Подозрительный шприц                   ) @ -185.8420,  -21.7150, -131.5480
 94: manual item conductor_diary@oksana_spawn.script:spawn_conductor:2183                            conductor_diary               (Дневник Проводника                     ) @ -217.6520,  -34.9450, -313.5780
 95: manual item sleeping_pillow@oksana_spawn.script:consumer_society:4632                           sleeping_pillow               (Подушка                                ) @ -126.1500,  -28.5660, -378.0580
 96: manual item publicity_material_3@oksana_spawn.script:publicity_material_0:4676                  publicity_material_3          (Небольшой рюкзак                       ) @  348.4400,   26.1520,  -29.0740
 97: manual item red_cup@oksana_spawn.script:publicity_material_0:4678                               red_cup                       (Красная Чашка                          ) @  355.9960,   15.0070,  -30.6550
 98: manual item dev_conserva_4@oksana_spawn.script:publicity_material_0:4679                        dev_conserva_4                (Небольшой рюкзак                       ) @  355.5100,   15.3340,  -29.8990
 99: manual item green_teapot_2@oksana_spawn.script:publicity_material_0:4680                        green_teapot_2                (Небольшой рюкзак                       ) @  354.3520,   15.2830,  -29.4490
100: manual item ashtray_stubs_1@oksana_spawn.script:publicity_material_0:4681                       ashtray_stubs_1               (Небольшой рюкзак                       ) @  354.6920,   15.0180,  -32.0480
101: manual item dev_conserva_5@oksana_spawn.script:publicity_material_0:4682                        dev_conserva_5                (Небольшой рюкзак                       ) @  353.8760,   14.9790,  -31.2950
102: manual item cigarette_strike_1@oksana_spawn.script:publicity_material_0:4683                    cigarette_strike_1            (Небольшой рюкзак                       ) @  353.2270,   14.9310,  -29.8820
103: manual item sandwich@oksana_spawn.script:publicity_material_0:4684                              sandwich                      (Бутерброд                              ) @  353.9840,   15.0710,  -28.5780
104: manual item sigaret@oksana_spawn.script:publicity_material_0:4685                               sigaret                       (Сигареты Lucky Strike                  ) @  355.3970,   15.0900,  -29.2680
105: manual item ammo_12x70_buck@oksana_spawn.script:publicity_material_0:4687                       ammo_12x70_buck               (Патроны 12x70 Дробь                    ) @  352.3570,   17.8930,  -33.3570
106: manual item ammo_9x39_ap@oksana_spawn.script:publicity_material_0:4688                          ammo_9x39_ap                  (Патроны 9x39мм СП-6                    ) @  350.4690,   15.2490,  -30.3280
107: manual item tv_hero_akim@oksana_spawn.script:tv_akim_1:5299                                     tv_hero_akim                  (Небольшой рюкзак                       ) @   22.5951,   17.1531,  681.1701
108: manual item alarm_clock_1@oksana_spawn.script:tv_akim_1:5300                                    alarm_clock_1                 (Небольшой рюкзак                       ) @   21.9098,   17.5752,  678.1334
109: manual item rad_document6@sak.script:add_new_lcitem:224                                         rad_document6                 (Папка с документами                    ) @ -139.6000,  -25.0300, -355.6000
110: manual item playboy2@sak.script:add_new_lcitem:225                                              playboy2                      ("Плейбой" за февраль 2007 года         ) @  112.8700,   -1.9400,    1.6000
111: manual item sak_document2@sak.script:volk_document_start:251                                    sak_document2                 (Документы и не читаемый диск           ) @  -80.0000,   -1.3000,  153.0000
112: manual item val_zapis_1@valerich_dialog.script:spawn_zap_coll:34                                val_zapis_1                   (Листок блокнота                        ) @ -199.6027,  -19.8969, -164.5164
113: manual item liker_baileys@hamster_kuznec8.script:hamster_kuznec8_start:8                        liker_baileys                 (Ликёр «Бейлиз»                         ) @ -245.5408,  -24.7906, -134.2319
114: manual item rukzak_tolik@tolik_robbed.script:tolik_robbed_start:3                               rukzak_tolik                  (Рюкзак со штанами Толика               ) @   22.8600,   23.0800,  659.9000
115: manual item amk_af_night_star r0@amk_mod.script:spawn_star:37                                   amk_af_night_star             ("Ночная звезда"                        ) @  -24.2727,  -12.1661, -100.2002
116: manual item amk_af_night_star r1@amk_mod.script:spawn_star:37                                   amk_af_night_star             ("Ночная звезда"                        ) @  159.5600,    4.7200,   88.6000
117: manual item amk_af_night_star r2@amk_mod.script:spawn_star:37                                   amk_af_night_star             ("Ночная звезда"                        ) @   -4.1100,    2.9000,  108.0900
118: manual item amk_zapiska@amk_mod.script:first_run:50                                             amk_zapiska                   (Исписанный клочок бумаги               ) @ -126.9600,  -28.4100, -379.1200
119: manual item vssm_module r0@upgrade_vssm.script                                                  vssm_module                   (Random VSSM Module                     ) @   57.8346,   19.0960,  156.0129
120: manual item vssm_module r1@upgrade_vssm.script                                                  vssm_module                   (Random VSSM Module                     ) @  348.6354,   15.4352,  242.8651
121: manual item vssm_module r2@upgrade_vssm.script                                                  vssm_module                   (Random VSSM Module                     ) @  201.7414,    7.8556,  104.8033
122: manual item vssm_module r3@upgrade_vssm.script                                                  vssm_module                   (Random VSSM Module                     ) @  105.9641,    0.4410,   -3.5394
123: manual item vssm_module r4@upgrade_vssm.script                                                  vssm_module                   (Random VSSM Module                     ) @  236.6394,    4.2492,  284.7187
124: manual item vssm_module r5@upgrade_vssm.script                                                  vssm_module                   (Random VSSM Module                     ) @  139.3806,    3.3068,  342.3701
125: manual item vssm_module r6@upgrade_vssm.script                                                  vssm_module                   (Random VSSM Module                     ) @  -18.0928,    0.5661,  252.5613
126: manual item vssm_module r7@upgrade_vssm.script                                                  vssm_module                   (Random VSSM Module                     ) @   -2.3928,   21.9270,  157.5265
127: manual item vssm_module r8@upgrade_vssm.script                                                  vssm_module                   (Random VSSM Module                     ) @    5.3732,   15.6077,   93.0238
128: manual item vssm_module r9@upgrade_vssm.script                                                  vssm_module                   (Random VSSM Module                     ) @  -13.6554,    2.4801,   59.2077
129: manual item vssm_module r10@upgrade_vssm.script                                                 vssm_module                   (Random VSSM Module                     ) @ -137.6849,   -5.0167,    2.8195
130: manual item vssm_module r11@upgrade_vssm.script                                                 vssm_module                   (Random VSSM Module                     ) @ -222.2354,  -17.2339, -164.5388
131: manual item vssm_module r12@upgrade_vssm.script                                                 vssm_module                   (Random VSSM Module                     ) @ -216.0233,  -15.9052, -130.6561
132: manual item vssm_module r13@upgrade_vssm.script                                                 vssm_module                   (Random VSSM Module                     ) @ -192.5602,  -16.7942, -135.7537
133: manual item vssm_module r14@upgrade_vssm.script                                                 vssm_module                   (Random VSSM Module                     ) @ -140.9736,  -29.6893, -354.3259
134: manual item vssm_module r15@upgrade_vssm.script                                                 vssm_module                   (Random VSSM Module                     ) @  -47.0301,  -18.6666, -200.2974
135: manual item vssm_module r16@upgrade_vssm.script                                                 vssm_module                   (Random VSSM Module                     ) @  115.4415,   -2.9586,  -26.8536
136: manual item vssm_module r17@upgrade_vssm.script                                                 vssm_module                   (Random VSSM Module                     ) @ -130.7393,    4.6385,  220.1588
137: manual item vssm_module r18@upgrade_vssm.script                                                 vssm_module                   (Random VSSM Module                     ) @  109.4450,    1.8179,  461.0426
138: manual item vssm_module r19@upgrade_vssm.script                                                 vssm_module                   (Random VSSM Module                     ) @   23.4057,   20.3533,  659.8805
139: item        esc_af_blood                                                                        af_blood                      ("Кровь камня"                          ) @  340.4780,   18.6109,  240.0392
140: item        esc_af_cristall_flower                                                              af_cristall_flower            ("Каменный цветок"                      ) @    9.6028,    2.7877,   90.2557
141: item        esc_af_electra_flash                                                                af_electra_flash              ("Вспышка"                              ) @  -80.3654,   -0.9523,  158.0027
142: item        esc_af_electra_sparkler                                                             af_electra_sparkler           ("Бенгальский огонь"                    ) @  -75.0654,   -1.0570,  155.3183
143: item        esc_af_electra_sparkler_0000                                                        af_electra_sparkler           ("Бенгальский огонь"                    ) @  -80.9769,   -1.2967,  151.0534
144: item        esc_af_medusa                                                                       af_medusa                     ("Медуза"                               ) @ -244.8165,  -13.1585,  -33.6452
145: item        esc_explosive_mobiltank                                                             amk_kanistra                  (Канистра с бензином                    ) @  131.6032,   -7.6811,   -4.1119
146: item        esc_explosive_mobiltank_0000                                                        amk_kanistra                  (Канистра с бензином                    ) @  -21.5125,    3.3621,   59.3001
147: item        esc_ammo_12x70_buck_0002                                                            ammo_12x70_buck               (Патроны 12x70 Дробь                    ) @  339.9138,   18.6249,  239.5743
148: item        esc_ammo_12x70_buck_0003                                                            ammo_12x70_buck               (Патроны 12x70 Дробь                    ) @  340.0618,   18.6249,  239.6859
149: item        esc_ammo_12x70_buck_0004                                                            ammo_12x70_buck               (Патроны 12x70 Дробь                    ) @ -167.6983,  -20.0127, -132.7115
150: item        esc_ammo_9x18_fmj_0002                                                              ammo_9x18_fmj                 (Патроны 9x18мм                         ) @ -136.9084,  -28.7376, -359.2009
151: item        esc_ammo_9x18_fmj_0003                                                              ammo_9x18_fmj                 (Патроны 9x18мм                         ) @ -136.8907,  -28.7376, -359.0434
152: item        esc_ammo_9x18_pmm                                                                   ammo_9x18_pmm                 (Патроны 9x18мм ПБМ                     ) @  310.8052,   15.2357,  273.9870
153: item        esc_ammo_9x18_pmm_0000                                                              ammo_9x18_pmm                 (Патроны 9x18мм ПБМ                     ) @  310.8468,   15.2212,  274.2149
154: item        esc_ammo_9x19_fmj                                                                   ammo_9x19_fmj                 (Патроны 9x19мм Парабеллум              ) @   23.8290,   21.9062,  680.8436
155: item        esc_ammo_9x19_fmj_0000                                                              ammo_9x19_fmj                 (Патроны 9x19мм Парабеллум              ) @   23.8071,   21.9062,  681.0396
156: item        esc_bandage                                                                         bandage                       (Бинт                                   ) @ -126.9103,  -29.9607, -379.0514
157: item        esc_bandage_0000                                                                    bandage                       (Бинт                                   ) @ -126.9364,  -29.9607, -378.8071
158: item        esc_bandage_0002                                                                    bandage                       (Бинт                                   ) @  311.1925,   15.2940,  274.1198
159: item        esc_bandage_0005                                                                    bandage                       (Бинт                                   ) @  340.2546,   18.6207,  239.8898
160: item        esc_bandit_outfit                                                                   bandit_outfit                 (Бандитская куртка                      ) @    1.7600,    0.6400,  297.5900
161: item        esc_bread                                                                           bread                         (Bread                                  ) @   61.3039,   -0.1385,  154.6193
162: item        esc_bread_0000                                                                      bread                         (Bread                                  ) @ -167.8534,  -29.4031, -355.1349
163: item        esc_bread_0001                                                                      bread                         (Bread                                  ) @ -212.8342,  -22.5382, -126.2159
164: item        esc_bread_0002                                                                      bread                         (Bread                                  ) @  112.9072,   -2.2120,    1.4102
165: item        esc_bread_0003                                                                      bread                         (Bread                                  ) @ -126.9281,  -29.0984, -373.2778
166: item        level_prefix_bread                                                                  bread                         (Bread                                  ) @  142.3702,    3.7842,  342.4005
167: item        esc_conserva                                                                        conserva                      (Conserva                               ) @  311.1546,   15.3082,  273.8657
168: item        esc_conserva_0000                                                                   conserva                      (Conserva                               ) @   61.0501,   -0.1385,  154.6699
169: item        esc_conserva_0001                                                                   conserva                      (Conserva                               ) @ -167.7918,  -29.4029, -354.9392
170: item        esc_conserva_0002                                                                   conserva                      (Conserva                               ) @ -167.6151,  -29.4031, -355.1519
171: item        esc_conserva_0003                                                                   conserva                      (Conserva                               ) @ -193.3708,  -19.4444, -130.0091
172: item        esc_conserva_0004                                                                   conserva                      (Conserva                               ) @ -126.3778,  -29.0984, -373.2643
173: item        esc_energy_drink                                                                    energy_drink                  (Энергетический напиток "S.T.A.L.K.E.R.") @  -46.3470,  -10.0376,  -63.9363
174: item        esc_energy_drink_0000                                                               energy_drink                  (Энергетический напиток "S.T.A.L.K.E.R.") @   61.0160,   -0.1385,  154.8612
175: item        esc_energy_drink_0001                                                               energy_drink                  (Энергетический напиток "S.T.A.L.K.E.R.") @ -141.0057,  -28.7749, -356.9963
176: item        esc_energy_drink_0002                                                               energy_drink                  (Энергетический напиток "S.T.A.L.K.E.R.") @ -140.8622,  -28.7749, -356.9223
177: item        esc_energy_drink_0003                                                               energy_drink                  (Энергетический напиток "S.T.A.L.K.E.R.") @ -140.7717,  -28.7749, -356.9919
178: item        esc_energy_drink_0004                                                               energy_drink                  (Энергетический напиток "S.T.A.L.K.E.R.") @ -167.7448,  -29.4031, -355.1171
179: item        esc_energy_drink_0005                                                               energy_drink                  (Энергетический напиток "S.T.A.L.K.E.R.") @ -140.7843,  -28.7749, -356.7769
180: item        esc_energy_drink_0006                                                               energy_drink                  (Энергетический напиток "S.T.A.L.K.E.R.") @ -167.7640,  -29.4030, -354.4101
181: item        esc_energy_drink_0007                                                               energy_drink                  (Энергетический напиток "S.T.A.L.K.E.R.") @ -141.0056,  -28.6644, -353.2912
182: item        esc_energy_drink_0008                                                               energy_drink                  (Энергетический напиток "S.T.A.L.K.E.R.") @ -127.0360,  -29.4277, -385.3913
183: item        esc_energy_drink_0009                                                               energy_drink                  (Энергетический напиток "S.T.A.L.K.E.R.") @ -212.9143,  -22.5382, -126.4781
184: item        esc_energy_drink_0010                                                               energy_drink                  (Энергетический напиток "S.T.A.L.K.E.R.") @ -205.7551,  -19.9963, -141.1139
185: item        esc_energy_drink_0011                                                               energy_drink                  (Энергетический напиток "S.T.A.L.K.E.R.") @ -127.0344,  -29.1500, -381.7431
186: item        esc_physic_object_0000                                                              energy_drink                  (Энергетический напиток "S.T.A.L.K.E.R.") @ -119.3426,  -30.0500, -391.6389
187: item        esc_physic_object_0001                                                              energy_drink                  (Энергетический напиток "S.T.A.L.K.E.R.") @ -139.8903,  -29.5765, -356.9496
188: item        esc_physic_object_0003                                                              energy_drink                  (Энергетический напиток "S.T.A.L.K.E.R.") @ -140.0375,  -29.5765, -356.9137
189: item        esc_physic_object_0004                                                              energy_drink                  (Энергетический напиток "S.T.A.L.K.E.R.") @ -139.8010,  -29.5765, -356.8522
190: item        esc_physic_object_0005                                                              energy_drink                  (Энергетический напиток "S.T.A.L.K.E.R.") @ -139.6328,  -29.5765, -356.9016
191: item        esc_physic_object_0006                                                              energy_drink                  (Энергетический напиток "S.T.A.L.K.E.R.") @ -139.9529,  -29.5765, -356.8178
192: item        esc_physic_object_0007                                                              energy_drink                  (Энергетический напиток "S.T.A.L.K.E.R.") @ -139.6410,  -29.5765, -356.7440
193: item        esc_physic_object_0008                                                              energy_drink                  (Энергетический напиток "S.T.A.L.K.E.R.") @ -139.3104,  -29.5405, -356.9546
194: item        esc_physic_object_0009                                                              energy_drink                  (Энергетический напиток "S.T.A.L.K.E.R.") @ -210.5448,  -19.7417, -137.0895
195: item        esc_physic_object_0010                                                              energy_drink                  (Энергетический напиток "S.T.A.L.K.E.R.") @  118.5063,   -6.9345,   10.8485
196: item        esc_physic_object_0011                                                              energy_drink                  (Энергетический напиток "S.T.A.L.K.E.R.") @ -201.6335,  -16.9580, -160.3874
197: item        esc_physic_object_0021                                                              energy_drink                  (Энергетический напиток "S.T.A.L.K.E.R.") @  118.5727,   -6.9345,   11.0427
198: item        esc_physic_object_0022                                                              energy_drink                  (Энергетический напиток "S.T.A.L.K.E.R.") @  118.6289,   -6.9345,   10.8242
199: item        esc_physic_object_0024                                                              energy_drink                  (Энергетический напиток "S.T.A.L.K.E.R.") @   61.2296,   -0.1385,  154.9608
200: item        esc_physic_object_0025                                                              energy_drink                  (Энергетический напиток "S.T.A.L.K.E.R.") @   61.1473,   -0.1385,  154.8927
201: item        esc_physic_object_0026                                                              energy_drink                  (Энергетический напиток "S.T.A.L.K.E.R.") @  112.0272,   -2.2438,    7.1801
202: item        esc_kolbasa                                                                         kolbasa                       (Kolbasa                                ) @ -167.6623,  -29.4032, -354.6268
203: item        esc_kolbasa_0000                                                                    kolbasa                       (Kolbasa                                ) @ -167.5980,  -29.4029, -354.9403
204: item        esc_kolbasa_0002                                                                    kolbasa                       (Kolbasa                                ) @ -127.0189,  -29.4277, -379.4282
205: LevelWarper escape_to_marsh_shape_0                                                                                                                                     @ -259.9700,  -14.0500, -183.0700 0.516279995441437 x 0.516279995441437
206: LevelWarper exit_to_agroprom_101_shape_0                                                                                                                                @ -153.1964,    8.8062,  231.3416 1 x 1
207: LevelWarper exit_to_darkvalley_from_esc_shape_0                                                                                                                         @  370.2300,   15.2300,  -44.4000 1 x 1
208: LevelWarper exit_to_garbage_01_shape_0                                                                                                                                  @   29.3464,   16.5562,  686.2416 2.22939944267273 x 2.22939944267273
209: LevelWarper teleport_120_shape_0                                                                                                                                        @ -300.0000,    0.0000,  -40.0000 0.5 x 0.5
210: item        esc_medkit                                                                          medkit                        (Medkit                                 ) @  -86.2783,   -4.9296,  -78.3331
211: item        esc_medkit_army                                                                     medkit_army                   (Medkit_army                            ) @ -126.9441,  -29.4277, -381.3959
212: item        esc_outfit_bandit_m1                                                                vodka                         (Vodka                                  ) @  368.3219,   14.9780,  -45.4771
213: item        esc_vodka                                                                           vodka                         (Vodka                                  ) @   61.3898,   -0.1385,  155.0936
214: item        esc_vodka_0000                                                                      vodka                         (Vodka                                  ) @ -167.8727,  -29.4032, -354.6606
215: item        esc_vodka_0001                                                                      vodka                         (Vodka                                  ) @ -167.5284,  -29.4030, -354.4551
216: item        esc_vodka_0002                                                                      vodka                         (Vodka                                  ) @ -236.3047,  -19.1863, -156.0160
217: item        esc_wpn_pm                                                                          wpn_pm                        (ПМ                                     ) @ -136.5865,  -28.7196, -359.2647
218: item        esc_wpn_walther                                                                     wpn_walther                   (Walther P99                            ) @   23.8067,   21.9455,  680.5323
