  0: monster     fracture_master@arhara_dialog.script:spawn_psi_one_one:4012                                                        (Излом-охотник           )  @  107.2890,    1.6500,  457.0660
  1: monster     fracture_master@arhara_dialog.script:spawn_psi_one_one:4013                                                        (Излом-охотник           )  @  108.0220,    1.7030,  456.6640
  2: monster     fire_chimera@arhara_dialog.script:spawn_psi_one_two:4018                                                           (Огненная химера         )  @  106.5820,    1.5800,  458.1010
  3: monster     new_electro_chimera@arhara_dialog.script:spawn_psi_one_two:4019                                                    (Призрачная электрохимера)  @  105.9140,    1.5650,  457.5730
  4: monster     pseudodog_normal@arhara_dialog.script:spawn_psi_one_tri:4025                                                       (Матёрая псевдособака    )  @  105.3130,    1.5330,  457.6610
  5: monster     pseudodog_big@arhara_dialog.script:spawn_psi_one_tri:4026                                                          (Белая псевдособака      )  @  106.5820,    1.5800,  458.1010
  6: monster     dog_habaruch@arhara_dialog.script:spawn_psi_one_tri:4027                                                           (Чёрный пёс              )  @  106.5820,    1.5800,  458.1010
  7: monster     dog_normal@arhara_dialog.script:spawn_psi_one_tri:4028                                                             (Тёмно-коричневая собака )  @  107.2890,    1.6500,  457.0660
  8: monster     dog_habaruch@arhara_dialog.script:spawn_psi_one_tri:4029                                                           (Чёрный пёс              )  @  107.2890,    1.6500,  457.0660
  9: monster     dog_weak@arhara_dialog.script:spawn_psi_one_tri:4030                                                               (Светло-коричневая собака)  @  107.2890,    1.6500,  457.0660
 10: monster     psyonik@arhara_dialog.script:spawn_psi_one_four:4037                                                               (Псионик                 )  @  107.2890,    1.6500,  457.0660
 11: monster     nosales@arhara_dialog.script:spawn_psi_one_five:4042                                                               (Упырь                   )  @  105.9140,    1.5650,  457.5730
 12: monster     snork_nosach@arhara_dialog.script:spawn_psi_one_five:4043                                                          (Упырь-носач             )  @  105.9140,    1.5650,  457.5730
 13: monster     nosales@arhara_dialog.script:spawn_psi_one_five:4044                                                               (Упырь                   )  @  105.9140,    1.5650,  457.5730
 14: monster     snork_nosach@arhara_dialog.script:spawn_psi_one_five:4045                                                          (Упырь-носач             )  @  105.3130,    1.5330,  457.6610
 15: monster     nosales@arhara_dialog.script:spawn_psi_one_five:4046                                                               (Упырь                   )  @  105.3130,    1.5330,  457.6610
 16: monster     snork_nosach@arhara_dialog.script:spawn_psi_one_five:4047                                                          (Упырь-носач             )  @  105.3130,    1.5330,  457.6610
 17: monster     zombie_trup@arhara_dialog.script:spawn_psi_one_six:4053                                                            (Зомби-труп              )  @  105.3130,    1.5330,  457.6610
 18: monster     zombie_immortal@arhara_dialog.script:spawn_psi_one_six:4054                                                        (Ведьма                  )  @  106.5820,    1.5800,  458.1010
 19: monster     zombie_beee@arhara_dialog.script:spawn_psi_one_six:4055                                                            (Взрывающийся зомби      )  @  106.5820,    1.5800,  458.1010
 20: monster     zombie_babka_strong@arhara_dialog.script:spawn_psi_one_six:4056                                                    (Матёрая зомби-бабка     )  @  106.5820,    1.5800,  458.1010
 21: monster     zombie_plague_komar@arhara_dialog.script:spawn_psi_one_six:4057                                                    (Комариный зомби         )  @  107.2890,    1.6500,  457.0660
 22: monster     bloodsucker_effector@arhara_dialog.script:spawn_psi_one_seven:4062                                                 (Болотная тварь          )  @  107.2890,    1.6500,  457.0660
 23: monster     bloodsucker_effector@arhara_dialog.script:spawn_psi_one_seven:4063                                                 (Болотная тварь          )  @  107.2890,    1.6500,  457.0660
 24: monster     snork_normal@arhara_dialog.script:spawn_psi_two_one:4072                                                           (Взрослый снорк          )  @  108.0220,    1.7030,  456.6640
 25: monster     snork_jumper@arhara_dialog.script:spawn_psi_two_one:4073                                                           (Крылатый снорк          )  @  107.2890,    1.6500,  457.0660
 26: monster     snork_stronger@arhara_dialog.script:spawn_psi_two_one:4074                                                         (Болотный снорк          )  @  108.0220,    1.7030,  456.6640
 27: monster     kikimora@arhara_dialog.script:spawn_psi_two_two:4080                                                               (Кикимора                )  @  106.5820,    1.5800,  458.1010
 28: monster     kikimora@arhara_dialog.script:spawn_psi_two_two:4081                                                               (Кикимора                )  @  105.9140,    1.5650,  457.5730
 29: monster     kikimora@arhara_dialog.script:spawn_psi_two_two:4082                                                               (Кикимора                )  @  105.3130,    1.5330,  457.6610
 30: monster     bibliotekar@arhara_dialog.script:spawn_psi_two_tri:4089                                                            (Библиотекарь            )  @  105.3130,    1.5330,  457.6610
 31: monster     karlito@arhara_dialog.script:spawn_psi_two_tri:4090                                                                (Псевдокарлик            )  @  107.2890,    1.6500,  457.0660
 32: monster     tushkano_normal@arhara_dialog.script:suher_tushk:6159                                                              (Тушкан                  )  @ -215.5110,  -19.9600, -141.0830
 33: monster     tushkano_strong@arhara_dialog.script:suher_tushk:6160                                                              (Чёрный тушкан           )  @ -215.5110,  -19.9600, -141.0830
 34: monster     zasada_blockpost_2@buusty_dialog.script:voyaki_blockpost_spawn:1243                                                (GENERATE_NAME_lieutenant)  @ -132.4486,  -29.9505, -360.1573
 35: monster     zasada_blockpost_3@buusty_dialog.script:voyaki_blockpost_spawn:1244                                                (GENERATE_NAME_lieutenant)  @ -132.4486,  -29.9505, -360.1573
 36: monster     zasada_tonnel_agro_2@buusty_dialog.script:voyaki_blockpost_spawn:1245                                              (GENERATE_NAME_lieutenant)  @ -132.4586,  -29.9505, -360.1573
 37: monster     zasada_blockpost_3@buusty_dialog.script:voyaki_blockpost_spawn:1246                                                (GENERATE_NAME_lieutenant)  @ -144.0119,  -30.1385, -368.9859
 38: monster     zasada_blockpost_2@buusty_dialog.script:voyaki_blockpost_spawn:1247                                                (GENERATE_NAME_lieutenant)  @ -144.0119,  -30.1385, -368.9859
 39: monster     zasada_blockpost_2@buusty_dialog.script:voyaki_blockpost_spawn:1248                                                (GENERATE_NAME_lieutenant)  @ -142.7191,  -30.1211, -385.9346
 40: monster     zasada_blockpost_1@buusty_dialog.script:voyaki_blockpost_spawn:1249                                                (GENERATE_NAME_lieutenant)  @ -142.7191,  -30.1211, -385.9346
 41: monster     zasada_blockpost_2@buusty_dialog.script:voyaki_blockpost_spawn:1250                                                (GENERATE_NAME_lieutenant)  @ -109.7510,  -30.2027, -376.3365
 42: monster     zasada_blockpost_3@buusty_dialog.script:voyaki_blockpost_spawn:1251                                                (GENERATE_NAME_lieutenant)  @ -109.7510,  -30.2027, -376.3365
 43: monster     zasada_tonnel_agro_1@buusty_dialog.script:voyaki_blockpost_spawn:1252                                              (GENERATE_NAME_lieutenant)  @ -109.7810,  -30.2027, -376.3365
 44: monster     zasada_blockpost_2@buusty_dialog.script:voyaki_blockpost_spawn:1253                                                (GENERATE_NAME_lieutenant)  @ -130.6600,  -30.1500, -404.0400
 45: monster     zasada_tonnel_agro_2@buusty_dialog.script:voyaki_blockpost_spawn:1255                                              (GENERATE_NAME_lieutenant)  @ -153.4684,  -29.5451, -373.4033
 46: monster     zasada_blockpost_2@buusty_dialog.script:voyaki_blockpost_spawn2:1260                                               (GENERATE_NAME_lieutenant)  @ -162.6185,  -30.5002, -342.3830
 47: monster     zasada_blockpost_3@buusty_dialog.script:voyaki_blockpost_spawn2:1261                                               (GENERATE_NAME_lieutenant)  @ -162.6185,  -30.5002, -342.3830
 48: monster     zasada_blockpost_2@buusty_dialog.script:voyaki_blockpost_spawn2:1262                                               (GENERATE_NAME_lieutenant)  @ -126.9687,  -30.4828, -341.4493
 49: monster     zasada_blockpost_3@buusty_dialog.script:voyaki_blockpost_spawn2:1263                                               (GENERATE_NAME_lieutenant)  @ -126.9687,  -30.4828, -341.4493
 50: monster     zasada_blockpost_1@buusty_dialog.script:voyaki_blockpost_spawn2:1264                                               (GENERATE_NAME_lieutenant)  @ -186.2474,  -24.7516, -398.6132
 51: monster     zasada_blockpost_1@buusty_dialog.script:voyaki_blockpost_spawn2:1265                                               (GENERATE_NAME_lieutenant)  @ -186.2475,  -24.7516, -398.6132
 52: monster     zasada_blockpost_3@buusty_dialog.script:voyaki_blockpost_spawn2:1266                                               (GENERATE_NAME_lieutenant)  @ -186.2475,  -24.7516, -398.6132
 53: monster     zasada_blockpost_2@buusty_dialog.script:voyaki_blockpost_spawn2:1267                                               (GENERATE_NAME_lieutenant)  @ -165.8611,  -29.6865, -354.9796
 54: monster     zasada_blockpost_1@buusty_dialog.script:voyaki_blockpost_spawn2:1268                                               (GENERATE_NAME_lieutenant)  @ -165.8611,  -29.6865, -354.9796
 55: monster     zasada_tonnel_agro_3@buusty_dialog.script:voyaki_blockpost_spawn2:1269                                             (GENERATE_NAME_lieutenant)  @ -142.7191,  -30.1211, -385.9346
 56: monster     zasada_tonnel_agro_1@buusty_dialog.script:voyaki_blockpost_spawn2:1270                                             (GENERATE_NAME_lieutenant)  @ -144.0119,  -30.1385, -368.9859
 57: human       esc_buusty_team_12@buusty_dialog.script:voyaki_blockpost_spawn3:1275                                               (Тринадцатый пророк      )  @ -153.6056,  -29.6609, -410.5282
 58: human       esc_buusty_team_3@buusty_dialog.script:voyaki_blockpost_spawn3:1276                                                (Пивкабы                 )  @ -153.6056,  -29.6609, -410.5282
 59: human       esc_buusty_team_5@buusty_dialog.script:voyaki_blockpost_spawn3:1277                                                (Андевил                 )  @ -153.6057,  -29.6609, -410.5282
 60: human       esc_buusty_team_7@buusty_dialog.script:voyaki_blockpost_spawn3:1278                                                (Санче Пуг               )  @ -153.6057,  -29.6609, -410.5282
 61: human       esc_buusty_team_2@buusty_dialog.script:voyaki_blockpost_spawn3:1279                                                (ВДВ-5549                )  @ -190.5493,  -25.6092, -384.1375
 62: human       esc_buusty_team_4@buusty_dialog.script:voyaki_blockpost_spawn3:1280                                                (Кузьма Мастер           )  @ -190.5492,  -25.6092, -384.1375
 63: human       esc_buusty_team_8@buusty_dialog.script:voyaki_blockpost_spawn3:1282                                                (Святослав               )  @ -190.5493,  -25.6092, -384.1375
 64: human       esc_buusty_team_9@buusty_dialog.script:voyaki_blockpost_spawn3:1283                                                (Айзимди                 )  @ -212.6984,  -32.2075, -345.9012
 65: human       esc_buusty_team_11@buusty_dialog.script:voyaki_blockpost_spawn3:1284                                               (Олдман                  )  @ -172.6943,  -30.6891, -340.0341
 66: human       esc_buusty_team_17@buusty_dialog.script:voyaki_blockpost_spawn3:1285                                               (Лёня ПРО                )  @ -174.6943,  -30.6891, -340.0341
 67: human       esc_buusty_team_13@buusty_dialog.script:voyaki_blockpost_spawn3:1286                                               (Витя Нафанька           )  @ -212.6983,  -32.2075, -345.9012
 68: human       esc_buusty_team_15@buusty_dialog.script:voyaki_blockpost_spawn3:1287                                               (Константин 69           )  @ -172.6942,  -30.6891, -340.0341
 69: human       esc_buusty_team_10@buusty_dialog.script:voyaki_blockpost_spawn3:1288                                               (Юра Босс                )  @ -137.5144,  -30.4542, -326.4581
 70: human       esc_buusty_team_14@buusty_dialog.script:voyaki_blockpost_spawn3:1290                                               (Виктор Причёсочка       )  @ -148.5410,  -30.0448, -304.8386
 71: human       esc_buusty_team_6@buusty_dialog.script:voyaki_blockpost_spawn3:1291                                                (Йоджи                   )  @ -148.5414,  -30.0448, -304.8386
 72: monster     zasada_blockpost_2@buusty_dialog.script:voyaki_blockpost_spawn4:1296                                               (GENERATE_NAME_lieutenant)  @ -148.5414,  -30.0448, -304.8386
 73: monster     zasada_tonnel_agro_2@buusty_dialog.script:voyaki_blockpost_spawn4:1297                                             (GENERATE_NAME_lieutenant)  @ -148.5414,  -30.0448, -304.8386
 74: monster     zasada_blockpost_2@buusty_dialog.script:voyaki_blockpost_spawn4:1298                                               (GENERATE_NAME_lieutenant)  @ -148.5414,  -30.0448, -304.8386
 75: monster     zasada_tonnel_agro_3@buusty_dialog.script:voyaki_blockpost_spawn4:1299                                             (GENERATE_NAME_lieutenant)  @ -190.5492,  -25.6092, -384.1375
 76: monster     zasada_blockpost_1@buusty_dialog.script:voyaki_blockpost_spawn4:1300                                               (GENERATE_NAME_lieutenant)  @ -190.5492,  -25.6092, -384.1375
 77: monster     zasada_blockpost_1@buusty_dialog.script:voyaki_blockpost_spawn4:1301                                               (GENERATE_NAME_lieutenant)  @ -190.5492,  -25.6092, -384.1375
 78: monster     zasada_tonnel_agro_2@buusty_dialog.script:voyaki_blockpost_spawn4:1302                                             (GENERATE_NAME_lieutenant)  @ -153.6056,  -29.6609, -410.5282
 79: monster     zasada_blockpost_3@buusty_dialog.script:voyaki_blockpost_spawn4:1303                                               (GENERATE_NAME_lieutenant)  @ -165.8611,  -29.6865, -354.9796
 80: monster     zasada_tonnel_agro_3@buusty_dialog.script:voyaki_blockpost_spawn4:1304                                             (GENERATE_NAME_lieutenant)  @ -153.6056,  -29.6609, -410.5282
 81: monster     zasada_tonnel_agro_3@buusty_dialog.script:voyaki_blockpost_spawn4:1305                                             (GENERATE_NAME_lieutenant)  @ -142.7191,  -30.1211, -385.9346
 82: monster     zasada_tonnel_agro_1@buusty_dialog.script:voyaki_blockpost_spawn4:1306                                             (GENERATE_NAME_lieutenant)  @ -144.0119,  -30.1385, -368.9859
 83: monster     zasada_tonnel_agro_1@buusty_dialog.script:voyaki_blockpost_spawn4:1307                                             (GENERATE_NAME_lieutenant)  @ -137.5144,  -30.4542, -326.4581
 84: monster     bloodsucker_weak@buusty_dialog.script:add_nychka_britva_spawn:1584                                                 (Молодой кровосос        )  @  362.5240,   14.9460,  -40.5180
 85: monster     bloodsucker_effector@buusty_dialog.script:add_nychka_britva_spawn:1585                                             (Болотная тварь          )  @  362.5240,   14.9460,  -40.5180
 86: monster     bloodsucker_mil@buusty_dialog.script:add_nychka_britva_spawn:1586                                                  (Сумрачный кровосос      )  @  354.7790,   15.0000,  -35.0640
 87: monster     bloodsucker_weak@buusty_dialog.script:add_nychka_britva_spawn1:1592                                                (Молодой кровосос        )  @  367.4617,   15.0580,  -37.7640
 88: monster     bloodsucker_effector@buusty_dialog.script:add_nychka_britva_spawn1:1593                                            (Болотная тварь          )  @  364.3500,   15.0700,  -38.2900
 89: monster     bloodsucker_weak@buusty_dialog.script:add_nychka_britva_spawn2:1600                                                (Молодой кровосос        )  @  362.5240,   14.9460,  -40.5180
 90: monster     bloodsucker_mil@buusty_dialog.script:add_nychka_britva_spawn2:1601                                                 (Сумрачный кровосос      )  @  354.7790,   15.0000,  -35.0640
 91: monster     bloodsucker_child@buusty_dialog.script:add_nychka_britva_spawn3:1608                                               (Мелкий кровосос         )  @  367.4610,   15.0580,  -37.7640
 92: monster     bloodsucker_child@buusty_dialog.script:add_nychka_britva_spawn3:1609                                               (Мелкий кровосос         )  @  364.3500,   15.0700,  -38.2900
 93: human       arhara_desant_blockpost_4@buusty_dialog.script:esc_arhara_desant_heli_dubl:4657                                    (GENERATE_NAME_lieutenant)  @  -90.1800,  -32.1800, -285.4100
 94: human       arhara_desant_blockpost@buusty_dialog.script:esc_arhara_desant_heli_dubl:4658                                      (GENERATE_NAME_captain   )  @  -83.2100,  -33.0500, -312.7500
 95: human       arhara_desant_blockpost_3@buusty_dialog.script:esc_arhara_desant_heli_dubl2:4664                                   (GENERATE_NAME_captain   )  @ -132.9800,  -30.1400, -316.5400
 96: human       arhara_desant_blockpost_1@buusty_dialog.script:esc_arhara_desant_heli_dubl2:4665                                   (GENERATE_NAME_lieutenant)  @  -57.2300,  -23.2600, -272.4700
 97: human       arhara_desant_blockpost@buusty_dialog.script:arhara_desant_blockpost:4670                                          (GENERATE_NAME_captain   )  @ -145.4000,  -29.6900, -351.3200
 98: human       arhara_desant_blockpost_1@buusty_dialog.script:arhara_desant_blockpost:4671                                        (GENERATE_NAME_lieutenant)  @ -172.3900,  -30.5900, -349.9100
 99: human       arhara_desant_blockpost_2@buusty_dialog.script:arhara_desant_blockpost:4672                                        (GENERATE_NAME_lieutenant)  @ -203.6800,  -37.2900, -296.1000
100: human       arhara_desant_blockpost_3@buusty_dialog.script:arhara_desant_blockpost:4673                                        (GENERATE_NAME_captain   )  @ -132.9800,  -30.1400, -316.5400
101: human       arhara_desant_blockpost_4@buusty_dialog.script:arhara_desant_blockpost:4674                                        (GENERATE_NAME_lieutenant)  @  -90.1800,  -32.1800, -285.4100
102: human       arhara_desant_blockpost_2@buusty_dialog.script:arhara_desant_blockpost1:4680                                       (GENERATE_NAME_lieutenant)  @ -203.6800,  -37.2900, -296.1000
103: human       arhara_desant_blockpost_3@buusty_dialog.script:arhara_desant_blockpost1:4681                                       (GENERATE_NAME_captain   )  @ -132.9800,  -30.1400, -316.5400
104: human       arhara_desant_blockpost_4@buusty_dialog.script:arhara_desant_blockpost1:4682                                       (GENERATE_NAME_lieutenant)  @  -90.1800,  -32.1800, -285.4100
105: human       arhara_desant_blockpost@buusty_dialog.script:arhara_desant_blockpost1:4683                                         (GENERATE_NAME_captain   )  @  -83.2100,  -33.0500, -312.7500
106: human       arhara_desant_blockpost_1@buusty_dialog.script:arhara_desant_blockpost1:4684                                       (GENERATE_NAME_lieutenant)  @  -57.2300,  -23.2600, -272.4700
107: human       arhara_desant_blockpost@buusty_dialog.script:arhara_desant_blockpost2:4691                                         (GENERATE_NAME_captain   )  @ -145.4000,  -29.6900, -351.3200
108: human       arhara_desant_blockpost_1@buusty_dialog.script:arhara_desant_blockpost2:4692                                       (GENERATE_NAME_lieutenant)  @ -172.3900,  -30.5900, -349.9100
109: human       arhara_desant_blockpost@buusty_dialog.script:arhara_desant_blockpost2:4693                                         (GENERATE_NAME_captain   )  @  -83.2100,  -33.0500, -312.7500
110: human       arhara_desant_blockpost_1@buusty_dialog.script:arhara_desant_blockpost2:4694                                       (GENERATE_NAME_lieutenant)  @  -57.2300,  -23.2600, -272.4700
111: human       arhara_desant_blockpost@buusty_dialog.script:arhara_desant_blockpost3:4701                                         (GENERATE_NAME_captain   )  @ -145.4000,  -29.6900, -351.3200
112: human       arhara_desant_blockpost_2@buusty_dialog.script:arhara_desant_blockpost3:4702                                       (GENERATE_NAME_lieutenant)  @ -203.6800,  -37.2900, -296.1000
113: human       arhara_desant_blockpost_4@buusty_dialog.script:arhara_desant_blockpost3:4703                                       (GENERATE_NAME_lieutenant)  @  -90.1800,  -32.1800, -285.4100
114: human       arhara_desant_blockpost_1@buusty_dialog.script:arhara_desant_blockpost3:4704                                       (GENERATE_NAME_lieutenant)  @  -57.2300,  -23.2600, -272.4700
115: monster     dshor_boss@buusty_dialog.script:dshor_boss_spawn:6855                                                              (Чингиз                  )  @  109.3400,   -7.5000,    7.5200
116: monster     chingis_bodyguard@buusty_dialog.script:dshor_boss_spawn:6858                                                       (specnaz_bandit_veteran  )  @  133.7500,   -7.6800,   10.6700
117: monster     chingis_bodyguard1@buusty_dialog.script:dshor_boss_spawn:6859                                                      (specnaz_bandit_veteran  )  @  152.3700,   -7.5300,    8.0900
118: monster     bloodsucker_weak@escape_dialog.script:nychka_britva_spawn:753                                                      (Молодой кровосос        )  @  362.5244,   14.9461,  -40.5186
119: monster     bloodsucker_effector@escape_dialog.script:nychka_britva_spawn:754                                                  (Болотная тварь          )  @  362.5244,   14.9461,  -40.5186
120: monster     bloodsucker_effector@escape_dialog.script:nychka_britva_spawn:755                                                  (Болотная тварь          )  @  354.7791,   15.0001,  -35.0650
121: monster     zombie_babka_strong@escape_dialog.script:spawn_monstrov:773                                                        (Матёрая зомби-бабка     )  @  347.2410,   15.2680,  -22.2610
122: monster     zombie_babka_weak@escape_dialog.script:spawn_monstrov:775                                                          (Свежая зомби-бабка      )  @  345.9090,   15.3090,  -21.2510
123: monster     zombie_babka_strong@escape_dialog.script:spawn_monstrov:777                                                        (Матёрая зомби-бабка     )  @  345.0170,   15.3370,  -20.1040
124: monster     zombie_hell14@escape_dialog.script:spawn_monstrov:779                                                              (Зомби в мешковине       )  @  344.1020,   15.3740,  -19.0650
125: monster     zombie_babka_strong@escape_dialog.script:spawn_monstrov:781                                                        (Матёрая зомби-бабка     )  @  344.8430,   15.6460,  -17.8840
126: monster     zombie_babka_weak@escape_dialog.script:spawn_monstrov:783                                                          (Свежая зомби-бабка      )  @  343.7120,   15.6150,  -17.3370
127: monster     zombie_babka_strong@escape_dialog.script:spawn_monstrov:785                                                        (Матёрая зомби-бабка     )  @  342.5890,   15.4660,  -17.5430
128: monster     zombie_hell7@escape_dialog.script:spawn_monstrov:787                                                               (Зомби-бомж              )  @  343.2970,   16.0870,  -16.2110
129: monster     zombie_babka_normal@escape_dialog.script:spawn_monstrov:789                                                        (Опытная зомби-бабка     )  @  343.7620,   16.9030,  -14.9910
130: monster     zombie_trup2@escape_dialog.script:spawn_monstrov:791                                                               (Полуразложившийся зомби )  @  344.4010,   17.7300,  -13.8430
131: monster     zombie_babka_strong@escape_dialog.script:spawn_monstrov:793                                                        (Матёрая зомби-бабка     )  @  347.2720,   15.0180,  -28.6540
132: monster     zombie_babka_normal@escape_dialog.script:spawn_monstrov:795                                                        (Опытная зомби-бабка     )  @  346.7710,   14.9160,  -31.3440
133: monster     zombie_hell12@escape_dialog.script:spawn_monstrov:797                                                              (Зомби-лаборант          )  @  348.8830,   15.1400,  -30.4140
134: monster     zombie_babka_strong@escape_dialog.script:spawn_monstrov:799                                                        (Матёрая зомби-бабка     )  @  349.1890,   14.8800,  -32.0900
135: monster     zombie_babka_strong@escape_dialog.script:spawn_monstrov:801                                                        (Матёрая зомби-бабка     )  @  351.2500,   15.0160,  -32.6290
136: monster     zombie_strong@escape_dialog.script:spawn_monstrov:803                                                              (Матёрый зомби           )  @  335.5146,   15.5261,  -24.3819
137: monster     zombie_hell5@escape_dialog.script:spawn_monstrov:805                                                               (Зомби-рабочий           )  @  337.4221,   15.1668,  -22.6379
138: monster     zombie_hell1@escape_dialog.script:spawn_monstrov:807                                                               (Зомби-странник          )  @  339.5371,   15.3966,  -21.7373
139: monster     zombie_babka_normal@escape_dialog.script:spawn_monstrov:811                                                        (Опытная зомби-бабка     )  @  340.7835,   15.2150,  -20.2805
140: monster     zombie_hell16@escape_dialog.script:spawn_monstrov:813                                                              (Ошпаренный зомби        )  @  341.7980,   15.0883,  -21.2496
141: monster     zombie_hell2@escape_dialog.script:spawn_monstrov:815                                                               (Зомби-мумия             )  @  342.1735,   15.0247,  -24.1726
142: monster     zombie_weak@escape_dialog.script:spawn_monstrov:817                                                                (Свежий зомби            )  @  344.5927,   14.9133,  -23.7653
143: monster     zombie_hell11@escape_dialog.script:spawn_monstrov:819                                                              (Зомби-инвалид           )  @  344.6527,   14.9133,  -23.7653
144: monster     zombie_hell6@escape_dialog.script:spawn_monstrov:821                                                               (Жареный зомби           )  @  345.3423,   15.0564,  -26.0229
145: monster     zombie_hell1@escape_dialog.script:spawn_monstrov:823                                                               (Зомби-странник          )  @  346.1647,   15.0229,  -27.5251
146: monster     zombie_hell7@escape_dialog.script:spawn_monstrov:825                                                               (Зомби-бомж              )  @  347.2351,   14.9014,  -26.8703
147: monster     zombie_babka_weak@escape_dialog.script:spawn_monstrov:827                                                          (Свежая зомби-бабка      )  @  347.2551,   14.9014,  -26.8703
148: monster     zombie_strong@escape_dialog.script:spawn_monstrov:829                                                              (Матёрый зомби           )  @  348.9969,   14.8091,  -26.6039
149: monster     zombie_hell3@escape_dialog.script:spawn_monstrov:831                                                               (Зомби-зэк               )  @  344.5109,   15.2897,  -20.7802
150: monster     zombie_hell6@escape_dialog.script:spawn_monstrov:833                                                               (Жареный зомби           )  @  342.4630,   14.9834,  -22.3373
151: monster     zombie_hell7@escape_dialog.script:spawn_monstrov:835                                                               (Зомби-бомж              )  @  342.4650,   14.9834,  -22.3373
152: monster     zombie_babka_normal@escape_dialog.script:spawn_monstrov:837                                                        (Опытная зомби-бабка     )  @  342.4670,   14.9834,  -22.3373
153: monster     zombie_hell4@escape_dialog.script:spawn_monstrov:839                                                               (Зомби-подопытный        )  @  343.6661,   14.9369,  -23.0767
154: monster     zombie_strong@escape_dialog.script:spawn_monstrov:841                                                              (Матёрый зомби           )  @  327.1310,   16.5810,  -23.3659
155: monster     zombie_trup@escape_dialog.script:spawn_monstrov:843                                                                (Зомби-труп              )  @  327.1310,   16.5810,  -23.3659
156: monster     zombie_hell10@escape_dialog.script:spawn_monstrov:845                                                              (Зомби-врач              )  @  327.1310,   16.5810,  -23.3659
157: monster     zombie_hell@escape_dialog.script:spawn_monstrov:847                                                                (Адский зомби            )  @  327.1310,   16.5810,  -23.3659
158: monster     fracture_strong@escape_dialog.script:spawn_monstrov:849                                                            (Матёрый излом           )  @  314.1870,   16.4677,   10.0488
159: monster     zombie_hell5@escape_dialog.script:spawn_monstrov:850                                                               (Зомби-рабочий           )  @  314.1870,   16.4677,   10.0488
160: monster     fracture_strong@escape_dialog.script:spawn_monstrov:852                                                            (Матёрый излом           )  @  314.1870,   16.4677,   10.0488
161: monster     zombie_babka_strong@escape_dialog.script:spawn_monstrov:853                                                        (Матёрая зомби-бабка     )  @  315.1870,   16.4677,   10.0488
162: monster     zombie_hell7@escape_dialog.script:spawn_monstrov:855                                                               (Зомби-бомж              )  @  314.1780,   16.4677,   10.0488
163: monster     zombie_hell2@escape_dialog.script:spawn_monstrov:857                                                               (Зомби-мумия             )  @  314.1870,   16.4677,   10.0488
164: monster     fracture_strong@escape_dialog.script:spawn_monstrov:859                                                            (Матёрый излом           )  @  307.7707,   16.1606,   -4.0254
165: monster     zombie_trup@escape_dialog.script:spawn_monstrov:860                                                                (Зомби-труп              )  @  307.7707,   16.1606,   -4.0254
166: monster     fracture_strong@escape_dialog.script:spawn_monstrov:862                                                            (Матёрый излом           )  @  307.7707,   16.1606,   -4.0254
167: monster     zombie_babka_weak@escape_dialog.script:spawn_monstrov:863                                                          (Свежая зомби-бабка      )  @  308.7707,   16.1606,   -4.0254
168: monster     zombie_trup2@escape_dialog.script:spawn_monstrov:865                                                               (Полуразложившийся зомби )  @  309.7707,   16.1606,   -4.0254
169: monster     fracture_strong@escape_dialog.script:spawn_monstrov:867                                                            (Матёрый излом           )  @  313.8901,   15.6403,    6.0814
170: monster     zombie_hell4@escape_dialog.script:spawn_monstrov:868                                                               (Зомби-подопытный        )  @  314.8901,   15.6403,    6.0814
171: monster     zombie_hell1@escape_dialog.script:spawn_monstrov:870                                                               (Зомби-странник          )  @  315.8901,   15.6403,    6.0814
172: monster     zombie_weak@escape_dialog.script:spawn_monstrov:872                                                                (Свежий зомби            )  @  313.8901,   15.6403,    6.0814
173: monster     zombie_hell2@escape_dialog.script:spawn_monstrov:874                                                               (Зомби-мумия             )  @  313.8921,   15.6403,    6.0814
174: monster     fracture_strong@escape_dialog.script:spawn_monstrov:876                                                            (Матёрый излом           )  @  313.8901,   15.6403,    6.0814
175: monster     zombie_hell3@escape_dialog.script:spawn_monstrov:877                                                               (Зомби-зэк               )  @  277.4400,   14.4300,   29.0500
176: monster     zombie_hell4@escape_dialog.script:spawn_monstrov:879                                                               (Зомби-подопытный        )  @  285.0600,   15.1700,   24.5000
177: monster     zombie_hell5@escape_dialog.script:spawn_monstrov:881                                                               (Зомби-рабочий           )  @  286.2200,   14.6100,    7.6800
178: monster     zombie_hell6@escape_dialog.script:spawn_monstrov:883                                                               (Жареный зомби           )  @  296.3300,   15.4800,    6.2400
179: monster     zombie_hell7@escape_dialog.script:spawn_monstrov:885                                                               (Зомби-бомж              )  @  301.2500,   15.6000,    2.5500
180: monster     zombie_hell8@escape_dialog.script:spawn_monstrov:887                                                               (Зомби-алкаш             )  @  299.3400,   17.4500,   30.2000
181: monster     zombie_hell9@escape_dialog.script:spawn_monstrov:889                                                               (Зомби-шахтёр            )  @  289.7700,   16.6100,   37.2900
182: monster     zombie_hell10@escape_dialog.script:spawn_monstrov:891                                                              (Зомби-врач              )  @  298.5200,   15.4600,   13.4300
183: monster     zombie_hell11@escape_dialog.script:spawn_monstrov:893                                                              (Зомби-инвалид           )  @  302.4100,   15.3900,   11.3300
184: monster     zombie_babka_weak@escape_dialog.script:spawn_monstrov:895                                                          (Свежая зомби-бабка      )  @  328.7200,   15.8800,   -9.0100
185: human       maria_kordon@fly_island.script:final29:637                                                                         (Мария                   )  @ -204.1490,  -19.8956, -134.2517
186: human       snegir_kordon@fly_island.script:snegir_start_done2:1069                                                            (Славик Снегирь          )  @ -205.5262,  -19.8803, -134.2329
187: human       vzn_stalker_kontrik@kostya_dialog.script:vzn_fill:307                                                              (Сталкер Петров          )  @ -209.2384,  -20.6149, -149.4431
188: monster     esc_zver@new_spawn.script:spawn_zver:130                                                                           (Зверь                   )  @ -123.1368,  -30.0519, -368.9888
189: monster     esc_bodyzver1@new_spawn.script:spawn_zver:132                                                                      (GENERATE_NAME_bandit    )  @ -123.1368,  -30.0519, -368.9888
190: monster     esc_bodyzver2@new_spawn.script:spawn_zver:133                                                                      (GENERATE_NAME_bandit    )  @ -123.1368,  -30.0519, -368.9888
191: monster     esc_bodyzver3@new_spawn.script:spawn_zver:134                                                                      (GENERATE_NAME_bandit    )  @ -123.1368,  -30.0519, -368.9888
192: monster     esc_bodyzver4@new_spawn.script:spawn_zver:135                                                                      (GENERATE_NAME_bandit    )  @ -123.1368,  -30.0519, -368.9888
193: monster     esc_bodyzver5@new_spawn.script:spawn_zver:136                                                                      (GENERATE_NAME_bandit    )  @ -123.1368,  -30.0519, -368.9888
194: monster     esc_mil_def@new_spawn.script:spawn_zver:137                                                                        (GENERATE_NAME_sergeant  )  @ -168.1920,  -31.6251, -272.0247
195: monster     esc_mil2_def@new_spawn.script:spawn_zver:138                                                                       (GENERATE_NAME_sergeant  )  @ -168.1920,  -31.6251, -272.0247
196: monster     esc_mil3_def@new_spawn.script:spawn_zver:139                                                                       (GENERATE_NAME_sergeant  )  @ -168.1920,  -31.6251, -272.0247
197: monster     esc_mil4_def@new_spawn.script:spawn_zver:140                                                                       (GENERATE_NAME_sergeant  )  @ -168.1920,  -31.6251, -272.0247
198: monster     esc_mil5_def@new_spawn.script:spawn_zver:141                                                                       (GENERATE_NAME_sergeant  )  @ -163.0171,  -25.4363, -350.4128
199: monster     esc_mil6_def@new_spawn.script:spawn_zver:142                                                                       (GENERATE_NAME_sergeant  )  @ -163.0171,  -25.4363, -350.4128
200: monster     esc_mil7_def@new_spawn.script:spawn_zver:143                                                                       (GENERATE_NAME_sergeant  )  @ -163.0171,  -25.4363, -350.4128
201: monster     esc_mil8_def@new_spawn.script:spawn_zver:144                                                                       (GENERATE_NAME_sergeant  )  @ -163.0171,  -25.4363, -350.4128
202: monster     esc_mil9_def@new_spawn.script:spawn_zver:145                                                                       (GENERATE_NAME_sergeant  )  @ -133.7991,  -25.8115, -354.5214
203: monster     esc_mil10_def@new_spawn.script:spawn_zver:146                                                                      (GENERATE_NAME_sergeant  )  @ -133.7991,  -25.8115, -354.5214
204: monster     esc_mil11_def@new_spawn.script:spawn_zver:147                                                                      (GENERATE_NAME_sergeant  )  @ -133.2193,  -29.6904, -354.2818
205: monster     esc_mil12_def@new_spawn.script:spawn_zver:148                                                                      (GENERATE_NAME_sergeant  )  @ -133.7991,  -25.8115, -354.5214
206: monster     esc_mil13_def@new_spawn.script:spawn_zver:149                                                                      (GENERATE_NAME_sergeant  )  @ -139.4981,  -29.6912, -353.1365
207: monster     esc_mil14_def@new_spawn.script:spawn_zver:150                                                                      (GENERATE_NAME_sergeant  )  @ -139.4981,  -29.6912, -353.1365
208: monster     esc_snip_atak@new_spawn.script:add_zver:154                                                                        (GENERATE_NAME_bandit    )  @ -130.9326,  -17.9007, -187.9986
209: monster     esc_snip2_atak@new_spawn.script:add_zver:155                                                                       (GENERATE_NAME_bandit    )  @ -130.9326,  -17.9007, -187.9986
210: monster     esc_snip3_atak@new_spawn.script:add_zver:156                                                                       (GENERATE_NAME_bandit    )  @ -130.9326,  -17.9007, -187.9986
211: monster     esc_snip4_atak@new_spawn.script:add_zver:157                                                                       (GENERATE_NAME_bandit    )  @ -130.4655,  -10.0215, -126.0045
212: monster     esc_snip5_atak@new_spawn.script:add_zver:158                                                                       (GENERATE_NAME_bandit    )  @ -130.4655,  -10.0215, -126.0045
213: monster     esc_snip6_atak@new_spawn.script:add_zver:159                                                                       (GENERATE_NAME_bandit    )  @ -130.4655,  -10.0215, -126.0045
214: monster     esc_snip7_atak@new_spawn.script:add_zver:160                                                                       (GENERATE_NAME_bandit    )  @ -238.8508,  -19.5412, -118.8462
215: monster     esc_snip8_atak@new_spawn.script:add_zver:161                                                                       (GENERATE_NAME_bandit    )  @ -238.8508,  -19.5412, -118.8462
216: monster     esc_snip9_atak@new_spawn.script:add_zver:162                                                                       (GENERATE_NAME_bandit    )  @ -238.8508,  -19.5412, -118.8462
217: human       esc_ranger1@new_spawn.script:new_petruha_spawn:455                                                                 (Петруха                 )  @  315.0900,    3.9000,  118.7200
218: human       rad_soldier_master@oksana_spawn.script:chickie_monsters_4:1574                                                     (GENERATE_NAME_captain   )  @ -116.1560,  -29.9740, -387.1870
219: human       rad_soldier_master@oksana_spawn.script:chickie_monsters_4:1575                                                     (GENERATE_NAME_captain   )  @ -139.5690,  -29.6890, -351.3040
220: human       val_soldier_respawn_1@oksana_spawn.script:chickie_monsters_4:1576                                                  (sim_soldier_specnaz     )  @ -169.3290,  -29.6850, -354.3770
221: monster     esc_mil_def@oksana_spawn.script:chickie_monsters_4:1577                                                            (GENERATE_NAME_sergeant  )  @ -167.8040,  -25.4350, -355.2170
222: human       rad_specnaz_respawn_specnaz@oksana_spawn.script:chickie_monsters_4:1578                                            (sim_soldier_specnaz     )  @ -146.2720,  -29.9600, -371.3160
223: human       rad_soldier_master@oksana_spawn.script:chickie_monsters_4:1579                                                     (GENERATE_NAME_captain   )  @ -169.3290,  -29.6850, -354.3770
224: human       rad_soldier_master@oksana_spawn.script:chickie_monsters_4:1580                                                     (GENERATE_NAME_captain   )  @ -143.1860,  -29.6910, -351.6740
225: monster     esc_mil_def@oksana_spawn.script:chickie_monsters_4:1581                                                            (GENERATE_NAME_sergeant  )  @ -139.5690,  -29.6890, -351.3040
226: human       val_soldier_respawn_1@oksana_spawn.script:chickie_monsters_4:1582                                                  (sim_soldier_specnaz     )  @ -137.7750,  -25.4410, -354.4060
227: human       rad_soldier_master@oksana_spawn.script:chickie_monsters_4:1583                                                     (GENERATE_NAME_captain   )  @ -169.3290,  -29.6850, -354.3770
228: human       rad_specnaz_respawn_specnaz@oksana_spawn.script:chickie_monsters_4:1584                                            (sim_soldier_specnaz     )  @ -146.2720,  -29.9600, -371.3160
229: monster     soldat_blockpost@oksana_spawn.script:chickie_monsters_4:1585                                                       (Лейтенант Бродко        )  @ -111.0430,  -29.8030, -394.7190
230: human       rad_soldier_master@oksana_spawn.script:chickie_monsters_7:1826                                                     (GENERATE_NAME_captain   )  @ -246.3170,  -19.5560, -132.9360
231: human       rad_soldier_master@oksana_spawn.script:chickie_monsters_7:1827                                                     (GENERATE_NAME_captain   )  @ -241.0790,  -20.0290, -156.2820
232: human       val_soldier_respawn_1@oksana_spawn.script:chickie_monsters_7:1828                                                  (sim_soldier_specnaz     )  @ -226.1500,  -19.4850, -178.4180
233: monster     esc_mil_def@oksana_spawn.script:chickie_monsters_7:1829                                                            (GENERATE_NAME_sergeant  )  @ -229.1110,  -19.8880, -175.4680
234: human       rad_soldier_master@oksana_spawn.script:chickie_monsters_7:1830                                                     (GENERATE_NAME_captain   )  @ -247.8990,  -19.6560, -169.6270
235: human       rad_soldier_master@oksana_spawn.script:chickie_monsters_7:1831                                                     (GENERATE_NAME_captain   )  @ -246.0760,  -20.0050, -159.4130
236: human       rad_specnaz_respawn_specnaz@oksana_spawn.script:chickie_monsters_7:1832                                            (sim_soldier_specnaz     )  @ -244.7750,  -20.0610, -148.9080
237: monster     esc_mil_def@oksana_spawn.script:chickie_monsters_7:1833                                                            (GENERATE_NAME_sergeant  )  @ -257.9340,  -17.7080, -127.5990
238: human       val_soldier_respawn_1@oksana_spawn.script:chickie_monsters_7:1834                                                  (sim_soldier_specnaz     )  @ -272.5060,  -16.1310, -148.1890
239: human       rad_soldier_master@oksana_spawn.script:chickie_monsters_7:1835                                                     (GENERATE_NAME_captain   )  @ -263.3750,  -18.0460, -162.1760
240: human       rad_specnaz_respawn_specnaz@oksana_spawn.script:chickie_monsters_7:1836                                            (sim_soldier_specnaz     )  @ -256.5260,  -15.3990, -177.1650
241: monster     fighter_machinegun@oksana_spawn.script:spawn_machinegun:2187                                                       (GENERATE_NAME_lieutenant)  @ -183.1390,  -31.2880, -331.3660
242: monster     fighter_machinegun@oksana_spawn.script:spawn_machinegun:2188                                                       (GENERATE_NAME_lieutenant)  @ -173.0790,  -25.4350, -351.3060
243: human       agr_soldier_regular_11@oksana_spawn.script:spawn_machinegun:2189                                                   (agr_soldier_regular     )  @ -211.5840,  -32.8470, -340.8870
244: human       agr_soldier_veteran_22@oksana_spawn.script:spawn_machinegun:2190                                                   (sim_soldier_specnaz     )  @ -191.2260,  -33.6720, -311.3900
245: human       agr_soldier_regular_11@oksana_spawn.script:spawn_machinegun:2191                                                   (agr_soldier_regular     )  @ -202.1330,  -37.1740, -293.2340
246: monster     pervert_necrophile_2@oksana_spawn.script:phenomenon_mobsters_2:3562                                                (Гуля Извращенец         )  @ -238.5740,  -20.0290, -152.8890
247: human       white_mackintosh_111@oksana_spawn.script:phenomenon_mobsters_2:3563                                                (GENERATE_NAME_bandit    )  @ -234.6970,  -20.0370, -158.2890
248: human       ds_bandit_respawn_111@oksana_spawn.script:phenomenon_mobsters_2:3564                                               (sim_bandit_novice       )  @ -233.1920,  -20.0290, -156.5890
249: human       ds_bandit_respawn_222@oksana_spawn.script:phenomenon_mobsters_2:3565                                               (sim_bandit_general      )  @ -242.0680,  -20.0650, -156.7620
250: human       ds_bandit_respawn_333@oksana_spawn.script:phenomenon_mobsters_2:3566                                               (sim_bandit_veteran      )  @ -241.6870,  -20.0280, -153.4150
251: human       white_mackintosh_111@oksana_spawn.script:phenomenon_mobsters_2:3567                                                (GENERATE_NAME_bandit    )  @ -236.0110,  -20.0300, -154.5530
252: monster     vodjanoj@oksana_spawn.script:flower_assignment_2:3578                                                              (Зомби-утопленник        )  @ -246.3170,  -19.5560, -132.9360
253: monster     ghoul_strong@oksana_spawn.script:flower_assignment_2:3579                                                          (Гуль                    )  @ -241.0790,  -20.0290, -156.2820
254: monster     zombie_babka_strong@oksana_spawn.script:flower_assignment_2:3580                                                   (Матёрая зомби-бабка     )  @ -226.1500,  -19.4850, -178.4180
255: monster     zombie_babka_normal@oksana_spawn.script:flower_assignment_2:3581                                                   (Опытная зомби-бабка     )  @ -229.1110,  -19.8880, -175.4680
256: monster     zombie_babka_weak@oksana_spawn.script:flower_assignment_2:3582                                                     (Свежая зомби-бабка      )  @ -247.8990,  -19.6560, -169.6270
257: monster     zombie_ghost@oksana_spawn.script:flower_assignment_2:3583                                                          (Зомби-призрак           )  @ -246.0760,  -20.0050, -159.4130
258: monster     zombie_hell@oksana_spawn.script:flower_assignment_2:3584                                                           (Адский зомби            )  @ -244.7750,  -20.0610, -148.9080
259: monster     zombie_hell@oksana_spawn.script:flower_assignment_2:3585                                                           (Адский зомби            )  @ -257.9340,  -17.7080, -127.5990
260: monster     zombie_immortal@oksana_spawn.script:flower_assignment_2:3586                                                       (Ведьма                  )  @ -272.5060,  -16.1310, -148.1890
261: monster     zombie_beee@oksana_spawn.script:flower_assignment_2:3587                                                           (Взрывающийся зомби      )  @ -263.3750,  -18.0460, -162.1760
262: monster     zombie_blow@oksana_spawn.script:flower_assignment_2:3588                                                           (Зомби-камикадзе         )  @ -256.5260,  -15.3990, -177.1650
263: monster     zombie_trup2@oksana_spawn.script:flower_assignment_2:3589                                                          (Полуразложившийся зомби )  @ -238.5740,  -20.0290, -152.8890
264: monster     zombie_trup@oksana_spawn.script:flower_assignment_2:3590                                                           (Зомби-труп              )  @ -234.6970,  -20.0370, -158.2890
265: monster     zombie_strong@oksana_spawn.script:flower_assignment_2:3591                                                         (Матёрый зомби           )  @ -233.1920,  -20.0290, -156.5890
266: monster     zombie_immortal@oksana_spawn.script:flower_assignment_2:3592                                                       (Ведьма                  )  @ -242.0680,  -20.0650, -156.7620
267: monster     zombie_beee@oksana_spawn.script:flower_assignment_2:3593                                                           (Взрывающийся зомби      )  @ -241.6870,  -20.0280, -153.4150
268: monster     zombie_blow@oksana_spawn.script:flower_assignment_2:3594                                                           (Зомби-камикадзе         )  @ -236.0110,  -20.0300, -154.5530
269: monster     scelet_strong@oksana_spawn.script:flower_assignment_2:3595                                                         (Зомби-скелет            )  @ -248.4500,  -19.3890, -171.0450
270: monster     scelet_strong@oksana_spawn.script:flower_assignment_2:3596                                                         (Зомби-скелет            )  @ -241.3810,  -20.0510, -173.0390
271: monster     scelet_strong@oksana_spawn.script:flower_assignment_2:3597                                                         (Зомби-скелет            )  @ -242.8390,  -19.8910, -167.6200
272: monster     scelet_strong@oksana_spawn.script:flower_assignment_2:3598                                                         (Зомби-скелет            )  @ -236.9950,  -20.1360, -171.0120
273: monster     scelet_strong@oksana_spawn.script:flower_assignment_2:3599                                                         (Зомби-скелет            )  @ -245.1280,  -20.1770, -169.9640
274: monster     scelet_strong@oksana_spawn.script:flower_assignment_2:3600                                                         (Зомби-скелет            )  @ -247.4370,  -19.7880, -165.3990
275: human       ds_bandit_respawn_11@oksana_spawn.script:publicity_material_0:4686                                                 (sim_bandit_novice       )  @  351.7320,   15.0850,  -28.7130
276: human       ds_bandit_respawn_44@oksana_spawn.script:collection_coin_1:4835                                                    (sim_bandit_novice       )  @  118.0730,   -7.4990,    7.9700
277: human       esc_akims_trups@snp.script:akims_spawn_trups:2147                                                                  (                        )  @   30.2700,   15.9300,  665.3100
278: human       esc_akims_trups2@snp.script:akims_spawn_trups:2148                                                                 (                        )  @   29.5800,   15.7500,  660.8600
279: human       esc_akims_trups@snp.script:akims_spawn_trups:2149                                                                  (                        )  @   34.0100,   15.7500,  661.4500
280: human       esc_akims_trups2@snp.script:akims_spawn_trups:2150                                                                 (                        )  @   23.0700,   18.0100,  664.2800
281: human       esc_akims_trups@snp.script:akims_spawn_trups:2151                                                                  (                        )  @   22.9700,   20.3500,  659.2200
282: monster     snp_kordon2 r0@snp_spawn.script:n_inventory_box_kordon1:17                                                         (                        )  @ -264.7047,   -9.2020,  -54.9164
283: monster     snp_kordon2 r1@snp_spawn.script:n_inventory_box_kordon1:17                                                         (                        )  @ -275.9922,   -7.1646,  -43.9421
284: monster     snp_kordon2 r2@snp_spawn.script:n_inventory_box_kordon1:17                                                         (                        )  @ -270.5687,  -11.2527,  -73.6848
285: monster     snp_kordon2 r3@snp_spawn.script:n_inventory_box_kordon1:17                                                         (                        )  @ -261.7877,   -9.9591,  -65.4304
286: monster     akim_soldier1@akim_omlet.script:akim_omlet_start:6                                                                 (GENERATE_NAME_lieutenant)  @ -171.9690,  -25.4420, -351.2070
287: monster     akim_soldier2@akim_omlet.script:akim_omlet_start:8                                                                 (GENERATE_NAME_lieutenant)  @ -143.5030,  -29.6910, -352.3230
288: monster     akim_soldier3@akim_omlet.script:akim_omlet_start:10                                                                (GENERATE_NAME_lieutenant)  @ -123.3610,  -30.0510, -375.3450
289: monster     akim_soldier4@akim_omlet.script:akim_omlet_start:12                                                                (GENERATE_NAME_lieutenant)  @ -137.7390,  -25.4400, -355.4210
290: monster     soldier_mines_veteran@akim_omlet.script:akim_omlet_start:14                                                        (GENERATE_NAME_sergeant  )  @ -163.6246,  -25.4361, -356.8644
291: monster     soldier_mines_regular@akim_omlet.script:akim_omlet_start:15                                                        (GENERATE_NAME_captain   )  @ -168.9747,  -25.4351, -352.7358
292: monster     soldier_mines_veteran@akim_omlet.script:akim_omlet_start:16                                                        (GENERATE_NAME_sergeant  )  @ -178.6588,  -29.0654, -364.2876
293: monster     soldier_mines_veteran@akim_omlet.script:akim_omlet_start:17                                                        (GENERATE_NAME_sergeant  )  @ -132.8034,  -25.7905, -356.6866
294: monster     zasada_blockpost_3@akim_omlet.script:akim_omlet_start:18                                                           (GENERATE_NAME_lieutenant)  @ -135.3316,  -30.1746, -397.1631
295: monster     naemnik_veteran@informator_pda.script:informator_pda_give:3                                                        (sim_killer_veteran      )  @   17.2160,   15.8700,  662.9030
296: monster     naemnik_regular@informator_pda.script:informator_pda_give:4                                                        (sim_killer_general      )  @    9.2180,   16.6360,  686.9170
297: monster     naemnik_veteran@informator_pda.script:informator_pda_give:5                                                        (sim_killer_veteran      )  @   23.7580,   16.5490,  671.6670
298: monster     naemnik_regular@informator_pda.script:informator_pda_give:6                                                        (sim_killer_general      )  @   36.2850,   16.1520,  672.0600
299: monster     naemnik_veteran@informator_pda.script:informator_pda_give:7                                                        (sim_killer_veteran      )  @    7.2050,   14.3760,  645.2860
300: monster     kuznec_sucker@koloda_kuznec.script:hamster_kuznec7_start:71                                                        (Молодой кровосос        )  @  -20.7302,    2.4801,   89.4893
301: car/turret  vehicle_btr@amk_mod.script:spawn_military_btr:2436                                                                 (                        )  @ -168.1100,  -29.7100, -303.2100
302: car/turret  vehicle_btr@amk_mod.script:spawn_military_btr:2437                                                                 (                        )  @ -237.8500,  -26.2300, -378.8100
303: monster     snp_kordon1@callback_take.script:1:21                                                                              (GENERATE_NAME_lieutenant)  @  -96.2019,   -4.6711,  -17.6292
