  0:                                               collector's stash 0_0 @ -147.4281,   -0.2045, -270.0313
  1:                                               collector's stash 0_1 @ -157.1594,    9.7109, -269.8372
  2:                                               collector's stash 0_2 @  -75.5323,    0.5317,   58.9648
  3:                                               collector's stash 0_3 @  -81.5304,    7.8584,  -52.0358
  4:                                               collector's stash 0_4 @  197.1719,    0.3615, -312.6808
  5:                                               collector's stash 0_5 @  184.9593,    5.4177, -226.5925
  6:                                               collector's stash 0_6 @ -163.0571,    4.9826, -311.9232
  7:                                               collector's stash 0_7 @   25.1090,   10.3439, -150.6971
  8:              a_inventory_box4@braad_test.script:spawn_shadowman:681 @   23.9147,    3.9985,   26.4886
  9:                  a_inventory_box3@braad_test.script:spawn_green:761 @  228.3353,   -7.2982,   67.8218
 10:               a_inventory_box6@braad_test.script:BitvaKL_rukzak:878 @  201.8493,   -2.1621,  -79.3243
 11:                   n_inventory_box_kl2@fly_island.script:final31:650 @ -132.6502,   -1.8911,  -45.4740
 12:                    s_inventory_box3_1@kostya_dialog.script:961:1035 @  -99.4100,    1.3700, -171.4600
 13:                    s_inventory_box3_2@kostya_dialog.script:961:1036 @ -155.5145,   -4.6266, -262.3450
 14:       t_inventory_box9_2@kostya_dialog.script:t_inventory_box9:1526 @ -108.5400,    0.6100, -244.6300
 15:                              n_inventory_box_kl1_2@snp.script:3:120 @ -199.6215,   10.0863, -256.5099
 16:                                n_inventory_box_kl1@snp.script:3:127 @ -116.1289,   27.0691,   17.8804
 17:                            n_inventory_box_kl1_3@snp.script:581:648 @ -133.7256,   -4.0904, -153.5874
 18:                    n_inventory_box_kl3@snp.script:docent1_done:1079 @ -151.2260,    4.3636, -330.0238
 19:    t_inventory_box6_1 r0@taynik_spawn.script:t_new_inventory6_1:615 @  214.5300,    0.9000,   98.7800
 20:    t_inventory_box6_1 r1@taynik_spawn.script:t_new_inventory6_1:615 @  265.6700,    1.9600,   64.3400
 21:    t_inventory_box6_1 r2@taynik_spawn.script:t_new_inventory6_1:615 @  185.1800,    1.8000,   40.9500
 22:    t_inventory_box6_1 r3@taynik_spawn.script:t_new_inventory6_1:615 @  189.1944,   -6.7419,  -20.2175
 23:    t_inventory_box6_2 r0@taynik_spawn.script:t_new_inventory6_2:643 @  152.1000,    1.3300, -119.0700
 24:    t_inventory_box6_2 r1@taynik_spawn.script:t_new_inventory6_2:643 @ -104.8300,   -2.1900,  -61.0600
 25:    t_inventory_box6_2 r2@taynik_spawn.script:t_new_inventory6_2:643 @   51.2133,    3.8301, -222.7517
 26:    t_inventory_box6_2 r3@taynik_spawn.script:t_new_inventory6_2:643 @  -35.9191,   -2.1006, -229.7566
 27: a_inventory_box11 r0@hamster_kuznec8.script:hamster_kuznec8_done:22 @ -126.7906,   -1.0205, -268.4480
 28: a_inventory_box11 r1@hamster_kuznec8.script:hamster_kuznec8_done:22 @ -148.2036,   -1.0208, -268.5007
 29:                 tank_gps_real@shurup_metall.script:tank_gps5_use:30 @  231.9490,   -6.0290,   65.3090
 30:               tank_gps5@shurup_metall.script:shurup_metall_start:10 @  231.9490,   -6.0290,   65.3090 Установить радиомаяк
 31:                                 invisible_box emb_inventory_box_kl1 @    0.7460,   -1.0653,  -61.1556 snp\\sverchok25
 32:                                 invisible_box emb_inventory_box_kl2 @   26.9228,   26.2853,   19.2680
 33:                                                            red_q6_n @ -136.0353,   -5.3914, -294.8839 medkit_scientic = 2, antirad = 5
