  0: LevelWarper level_changer                                                                                                                         @  311.9234,    1.0267,  155.4521 1 x 1
  1: LevelWarper level_changer_0                                                                                                                       @  172.4500,   -0.4200,  421.4800 1 x 1
  2: LevelWarper level_changer_1                                                                                                                       @ -231.2813,   -1.2102,   31.8311 1 x 1
  3: manual item dimak_book@buusty_dialog.script:dimak_bloknot_spawn:724                         dimak_book           (Блокнот Димака                ) @  274.3702,   18.7819,  311.7963
  4: manual item ammo_12x70_kart@buusty_dialog.script:dimak_bloknot_spawn:725                    ammo_12x70_kart      (Патроны 12x70 Картечь         ) @  274.3702,   18.7819,  311.7963
  5: manual item ammo_12x70_kart@buusty_dialog.script:dimak_bloknot_spawn:726                    ammo_12x70_kart      (Патроны 12x70 Картечь         ) @  274.3702,   18.7819,  311.7963
  6: manual item ammo_12x70_kart@buusty_dialog.script:dimak_bloknot_spawn:727                    ammo_12x70_kart      (Патроны 12x70 Картечь         ) @  274.3702,   18.7819,  311.7963
  7: manual item televizor r0@buusty_dialog.script:televizor_ubil_spawn:863                      televizor            (Телевизор                     ) @  -75.6010,   20.8950,  101.9390
  8: manual item televizor r1@buusty_dialog.script:televizor_ubil_spawn:863                      televizor            (Телевизор                     ) @  -65.5800,   17.7100,   86.4500
  9: manual item televizor r2@buusty_dialog.script:televizor_ubil_spawn:863                      televizor            (Телевизор                     ) @  -44.3400,   13.8700,  111.8200
 10: manual item televizor r3@buusty_dialog.script:televizor_ubil_spawn:863                      televizor            (Телевизор                     ) @  -52.1000,   12.8000,   91.7300
 11: manual item televizor r4@buusty_dialog.script:televizor_ubil_spawn:863                      televizor            (Телевизор                     ) @  -55.5000,    9.6400,   93.5600
 12: manual item televizor r5@buusty_dialog.script:televizor_ubil_spawn:863                      televizor            (Телевизор                     ) @  -44.5000,    9.5000,   87.2750
 13: manual item televizor r6@buusty_dialog.script:televizor_ubil_spawn:863                      televizor            (Телевизор                     ) @  -83.4160,   12.7200,   99.6100
 14: manual item network_antenna_1@oksana_spawn.script:spawn_station_network_1:3050              network_antenna_1    (Небольшой рюкзак              ) @   46.6210,   16.5420, -139.3430
 15: manual item paper_box_recorder@oksana_spawn.script:past_remnants:4582                       paper_box_recorder   (Небольшой рюкзак              ) @  130.8540,    1.4740,  -42.7100
 16: manual item geography_globe@oksana_spawn.script:past_remnants:4583                          geography_globe      (Географический Глобус         ) @   35.0090,    7.4760,  151.0060
 17: manual item photo_politician@oksana_spawn.script:past_remnants:4584                         photo_politician     (Фото в Рамке                  ) @   44.0040,   18.4570, -139.4860
 18: manual item flowerpot_cactus@oksana_spawn.script:past_remnants:4585                         flowerpot_cactus     (Вазон                         ) @  102.8220,   -0.4300,  148.6690
 19: manual item reference_book@oksana_spawn.script:past_remnants:4586                           reference_book       (Книга Афоризмов               ) @ -187.0690,    3.7580, -369.5260
 20: manual item publicity_material_3@oksana_spawn.script:publicity_material_6:4755              publicity_material_3 (Небольшой рюкзак              ) @  126.1680,    2.9900,  232.6150
 21: manual item toy_tetris@oksana_spawn.script:publicity_material_6:4757                        toy_tetris           (Тетрис                        ) @  136.4840,   29.3320,  240.3450
 22: manual item flowerpot_cactus_1@oksana_spawn.script:publicity_material_6:4758                flowerpot_cactus_1   (Небольшой рюкзак              ) @  132.3810,   30.1010,  235.2200
 23: manual item dev_conserva_4@oksana_spawn.script:publicity_material_6:4759                    dev_conserva_4       (Небольшой рюкзак              ) @  136.5260,   28.9070,  236.8560
 24: manual item dev_conserva_3@oksana_spawn.script:publicity_material_6:4760                    dev_conserva_3       (Небольшой рюкзак              ) @  134.8460,   28.9230,  238.1660
 25: manual item green_teapot_1@oksana_spawn.script:publicity_material_6:4761                    green_teapot_1       (Небольшой рюкзак              ) @  131.3180,   28.9070,  235.6780
 26: manual item ashtray_stubs_1@oksana_spawn.script:publicity_material_6:4762                   ashtray_stubs_1      (Небольшой рюкзак              ) @  135.4240,   28.9070,  240.3900
 27: manual item stool_wooden_1@oksana_spawn.script:publicity_material_6:4763                    stool_wooden_1       (Небольшой рюкзак              ) @  135.8850,   28.9220,  237.9320
 28: manual item table_wooden_1@oksana_spawn.script:publicity_material_6:4764                    table_wooden_1       (Небольшой рюкзак              ) @  136.5720,   28.9060,  236.8960
 29: manual item card_pack_1@oksana_spawn.script:publicity_material_6:4765                       card_pack_1          (Небольшой рюкзак              ) @  135.9560,   29.9990,  241.2930
 30: manual item dev_vodka_1@oksana_spawn.script:publicity_material_6:4766                       dev_vodka_1          (Небольшой рюкзак              ) @  134.3500,   28.9070,  235.9840
 31: manual item sandwich@oksana_spawn.script:publicity_material_6:4767                          sandwich             (Бутерброд                     ) @  132.6990,   28.9060,  238.7880
 32: manual item playboy11@oksana_spawn.script:publicity_material_6:4768                         playboy11            ("Плейбой" за октябрь 2007 года) @  134.5060,   28.9110,  235.7320
 33: manual item kitchen_pan_1@oksana_spawn.script:publicity_material_6:4772                     kitchen_pan_1        (Небольшой рюкзак              ) @  136.8570,   29.8160,  236.7070
 34: manual item kitchen_pan_2@oksana_spawn.script:publicity_material_6:4773                     kitchen_pan_2        (Небольшой рюкзак              ) @  136.8570,   30.1460,  236.7070
 35: manual item list_relics@oksana_spawn.script:publicity_material_6:4774                       list_relics          (Список Реликвий               ) @  136.1650,   29.8220,  237.1340
 36: manual item ashtray_stubs_1@oksana_spawn.script:publicity_material_6:4775                   ashtray_stubs_1      (Небольшой рюкзак              ) @  135.6310,   29.8270,  236.8920
 37: manual item bomba_mina_b@oksana_spawn.script:publicity_material_6:4776                      bomba_mina_b         (Усиленная противопехотная мина) @  139.0860,   20.3880,  212.0900
 38: manual item bomba_mina_b@oksana_spawn.script:publicity_material_6:4777                      bomba_mina_b         (Усиленная противопехотная мина) @  122.8300,    9.0020,  227.2860
 39: manual item bomba_mina_b@oksana_spawn.script:publicity_material_6:4778                      bomba_mina_b         (Усиленная противопехотная мина) @  127.1860,    5.3500,  222.4990
 40: manual item bomba_mina_b@oksana_spawn.script:publicity_material_6:4779                      bomba_mina_b         (Усиленная противопехотная мина) @  119.3870,    3.5300,  219.3770
 41: manual item bomba_mina_b@oksana_spawn.script:publicity_material_6:4780                      bomba_mina_b         (Усиленная противопехотная мина) @  137.2670,   17.4450,  217.4980
 42: manual item bomba_mina_b@oksana_spawn.script:publicity_material_6:4781                      bomba_mina_b         (Усиленная противопехотная мина) @  131.7980,   14.9660,  228.4300
 43: manual item bomba_mina_b@oksana_spawn.script:publicity_material_6:4782                      bomba_mina_b         (Усиленная противопехотная мина) @  128.1290,   12.3210,  231.9110
 44: manual item toy_kukla_1@oksana_spawn.script:publicity_material_6:4783                       toy_kukla_1          (Небольшой рюкзак              ) @  131.3070,   29.1510,  240.0540
 45: manual item toy_kukla_2@oksana_spawn.script:publicity_material_6:4784                       toy_kukla_2          (Небольшой рюкзак              ) @  131.6100,   29.1420,  240.8120
 46: manual item publicity_material_1@oksana_spawn.script:publicity_material_6:4785              publicity_material_1 (Небольшой рюкзак              ) @  132.3710,   28.9070,  237.2510
 47: manual item snp_pda13@snp.script:fenrir2_done:772                                           snp_pda13            (Ещё один КПК Фенрира          ) @  137.0463,   28.9075,  241.0139
 48: manual item snp_note20@snp.script:lobsang1_done:990                                         snp_note20           (Старая дискета                ) @ -123.5600,    2.6400, -265.1700
 49: manual item ammo_408@akill_vision.script:akill_vision_spawn:12                              ammo_408             (Патроны .408 Chey Tac         ) @  130.9740,   28.9080,  233.8190
 50: manual item nv_bad@akill_vision.script:akill_vision_spawn:14                                nv_bad               (Стандартный ПНВ               ) @   93.6780,    1.6500,  368.6040
 51: manual item nv_bad@akill_vision.script:akill_vision_spawn:16                                nv_bad               (Стандартный ПНВ               ) @   17.1100,    5.1410,  358.5940
 52: manual item nv_bad@akill_vision.script:akill_vision_spawn:18                                nv_bad               (Стандартный ПНВ               ) @    2.9600,    4.6850,  399.4060
 53: manual item nv_bad@akill_vision.script:akill_vision_spawn:20                                nv_bad               (Стандартный ПНВ               ) @   24.0300,   -0.3930,  370.2020
 54: manual item nv_bad@akill_vision.script:akill_vision_spawn:22                                nv_bad               (Стандартный ПНВ               ) @   24.8120,    4.5350,  278.6230
 55: manual item nv_bad@akill_vision.script:akill_vision_spawn:24                                nv_bad               (Стандартный ПНВ               ) @   16.3590,    4.4940,  258.7470
 56: manual item nv_bad@akill_vision.script:akill_vision_spawn:26                                nv_bad               (Стандартный ПНВ               ) @   13.5380,   -0.5060,  255.5210
 57: manual item nv_bad@akill_vision.script:akill_vision_spawn:28                                nv_bad               (Стандартный ПНВ               ) @    8.6280,    0.6320,  284.7010
 58: manual item nv_bad@akill_vision.script:akill_vision_spawn:30                                nv_bad               (Стандартный ПНВ               ) @   52.2770,    9.2090,  123.5620
 59: manual item nv_bad@akill_vision.script:akill_vision_spawn:32                                nv_bad               (Стандартный ПНВ               ) @   44.1250,    5.3490,  149.5160
 60: manual item nv_bad@akill_vision.script:akill_vision_spawn:34                                nv_bad               (Стандартный ПНВ               ) @   74.3700,    5.3090,  179.4230
 61: manual item nv_bad@akill_vision.script:akill_vision_spawn:36                                nv_bad               (Стандартный ПНВ               ) @   51.2480,    1.4090,  115.1040
 62: manual item nv_bad@akill_vision.script:akill_vision_spawn:38                                nv_bad               (Стандартный ПНВ               ) @  -42.4260,   20.9010,   74.3290
 63: manual item nv_bad@akill_vision.script:akill_vision_spawn:40                                nv_bad               (Стандартный ПНВ               ) @  -41.8430,   16.8010,   96.7180
 64: manual item nv_bad@akill_vision.script:akill_vision_spawn:42                                nv_bad               (Стандартный ПНВ               ) @  -56.1080,    8.6010,   73.4890
 65: manual item nv_bad@akill_vision.script:akill_vision_spawn:44                                nv_bad               (Стандартный ПНВ               ) @  -78.8460,    4.5680,   73.8380
 66: manual item wpn_vihlop_camo@knife_akill.script:knife_akill_done:38                          wpn_vihlop_camo      (ВССК «Глушь»                  ) @  203.1668,   18.0642,  -10.0367
 67: manual item ammo_8.6x70_ap@knife_akill.script:knife_akill_done:39                           ammo_8.6x70_ap       (Патроны .338 LM Partition     ) @  203.1668,   18.0642,  -10.0367
 68: manual item pechat_mashinka@ziklop_mashinka.script:ziklop_mashinka_start:14                 pechat_mashinka      (Печатная машинка              ) @ -187.1020,    0.5476, -358.8917
 69: LevelWarper pri_to_x8_shape_0                                                                                                                     @  -78.0495,    0.3037,  100.5198 0.79139518737793 x 0.79139518737793
 70: ArtKiller   restrictor_art_buluz_vp_pripyat_shape_0                                                                                               @  230.5600,   -0.5100,  122.0100 62.0499992370605 x 62.0499992370605
