  0:                cordon_blockpost_barak_stash @ -121.8181,  -29.4898, -378.1656 conserva = 2, kolbasa = 1, bread = 3
  1:                   cordon_inventory_box_0000 @ -248.7178,  -12.0617, -133.2906 kolbasa, bread, vodka
  2:                   cordon_inventory_box_0001 @ -248.1471,  -15.9913, -145.8999 wpn_pm, ammo_9x18_fmj = 3, wpn_knife, wpn_binoc, medkit = 1, bandage = 2, acumm = 1, matras, conserva, flaska, detector_simple
