 0: d_pantenol_box r0@new_spawn.script:pantenol_box_spawn:1100                     fixed  @  171.2100,    5.2600,   16.05001x Д-Пантенол
 1: d_pantenol_box r1@new_spawn.script:pantenol_box_spawn:1100                     fixed  @  173.9600,    6.0250,   21.46001x Д-Пантенол
 2: d_pantenol_box r2@new_spawn.script:pantenol_box_spawn:1100                     fixed  @  183.0000,    5.3600,   41.99001x Д-Пантенол
 3: d_pantenol_box r3@new_spawn.script:pantenol_box_spawn:1100                     fixed  @  192.3650,    6.0350,   56.16701x Д-Пантенол
 4: d_pantenol_box r4@new_spawn.script:pantenol_box_spawn:1100                     fixed  @  191.0200,    2.1200,   71.55001x Д-Пантенол
 5: d_pantenol_box r5@new_spawn.script:pantenol_box_spawn:1100                     fixed  @  171.7900,    0.7560,   35.24001x Д-Пантенол
 6: d_pantenol_box r6@new_spawn.script:pantenol_box_spawn:1100                     fixed  @  181.2100,    1.8100,   35.63501x Д-Пантенол
 7: d_pantenol_box r7@new_spawn.script:pantenol_box_spawn:1100                     fixed  @  205.5300,    1.0000,   66.28001x Д-Пантенол
 8: d_pantenol_box r8@new_spawn.script:pantenol_box_spawn:1100                     fixed  @  231.8100,    0.7500,   16.30001x Д-Пантенол
 9: d_pantenol_box r9@new_spawn.script:pantenol_box_spawn:1100                     fixed  @  239.6600,   -0.4300,   17.20001x Д-Пантенол
10: d_pantenol_box r10@new_spawn.script:pantenol_box_spawn:1100                    fixed  @  229.0900,    1.3600,    5.07001x Д-Пантенол
11: d_pantenol_box r11@new_spawn.script:pantenol_box_spawn:1100                    fixed  @  213.1200,    0.5450,  -10.41001x Д-Пантенол
12: d_pantenol_box r12@new_spawn.script:pantenol_box_spawn:1100                    fixed  @  201.9400,   -0.4300,  -12.73001x Д-Пантенол
13: d_pantenol_box r13@new_spawn.script:pantenol_box_spawn:1100                    fixed  @  210.5300,    0.5400,  -16.41001x Д-Пантенол
14: d_pantenol_box r14@new_spawn.script:pantenol_box_spawn:1100                    fixed  @  215.8200,    4.4540,    5.45001x Д-Пантенол
15: d_pantenol_box r15@new_spawn.script:pantenol_box_spawn:1100                    fixed  @  219.7500,    4.6840,  -12.76001x Д-Пантенол
16: d_pantenol_box r16@new_spawn.script:pantenol_box_spawn:1100                    fixed  @  196.6700,    4.6840,  -20.17001x Д-Пантенол
17: d_pantenol_box r17@new_spawn.script:pantenol_box_spawn:1100                    fixed  @  206.2700,   11.5640,  -14.34001x Д-Пантенол
18: east_pripayt_d_pantenol                                                        random @  238.1037,    0.5468,   24.5517
19: east_pripayt_d_pantenol_01                                                     random @  229.0576,    1.7120,   21.3538
20: east_pripayt_d_pantenol_02                                                     random @  219.8310,    5.6636,  -12.7441
21: east_pripayt_d_pantenol_03                                                     random @  214.5614,    6.5239,  -17.3789
22: east_pripayt_d_pantenol_04                                                     random @  196.5868,    5.6630,  -20.2128
23: east_pripayt_d_pantenol_05                                                     random @  190.9266,    1.4260,   71.5402
24: east_pripayt_d_pantenol_06                                                     random @  173.8359,    2.9383,   21.3698
25: east_pripayt_d_pantenol_07                                                     random @  182.9569,    5.9630,   42.0081
