  0: LevelWarper level_changer                                                                                                                @   8.5400,   9.3600,  21.5300 1 x 1
  1: LevelWarper level_changer_0                                                                                                              @  16.4342,  -7.8958,  19.2288 1 x 1
  2: manual item kaktus_izomorf@arhara_dialog.script:fotopatronu_dal:5782                kaktus_izomorf        (Изоморф                     ) @  14.1180,  -0.5380,  23.6570
  3: manual item sak_book_warlab@sak.script:add_books:353                                sak_book_warlab       (Книга из Военной Лаборатории) @  -4.5916, -12.2665, -59.5268
  4: LevelWarper warlab_generators_level_changer_shape_0                                                                                      @  -3.8010,  13.3005,  22.1440 2.59139513969421 x 2.59139513969421
  5: LevelWarper warlab_level_changer_to_brainlab_shape_0                                                                                     @  -4.2667,  -3.0842,  -9.4898 0.591395199298859 x 0.591395199298859
  6: LevelWarper warlab_skladu_level_changer_shape_0                                                                                          @   9.8855,  -7.3344,   4.7481 0.516279995441437 x 0.516279995441437
