  0: monster     tank_zasada@akill.script:sak_tank_start:82                                                        (Соколиный Глаз              )  @  534.6743,  -45.1382, -252.8077
  1: monster     bibliotekar@buusty_dialog.script:black_angel_spawn:48                                             (Библиотекарь                )  @  361.8332,  -51.4459, -343.6878
  2: monster     electro_chimera@buusty_dialog.script:black_angel_spawn:49                                         (Электрохимера               )  @  361.8332,  -51.4459, -343.6878
  3: monster     chimera_weak@buusty_dialog.script:black_angel_spawn:50                                            (Химера                      )  @  361.8332,  -51.4459, -343.6878
  4: monster     chimera_x_ray@buusty_dialog.script:black_angel_spawn:51                                           (Призрачная химера           )  @  346.3886,  -52.1043, -343.3193
  5: monster     chimera_normal@buusty_dialog.script:black_angel_spawn:52                                          (Лавовая химера              )  @  346.3886,  -52.1043, -343.3193
  6: monster     chimera_strong@buusty_dialog.script:black_angel_spawn:53                                          (Светлошёрстная химера       )  @  349.5916,  -48.6078, -321.8660
  7: monster     fire_chimera@buusty_dialog.script:black_angel_spawn:54                                            (Огненная химера             )  @  349.5916,  -48.6078, -321.8660
  8: monster     bear@buusty_dialog.script:black_angel_spawn:55                                                    (Медведь-мутант              )  @  361.2270,  -49.0944, -335.2919
  9: monster     new_electro_chimera@buusty_dialog.script:black_angel_spawn:56                                     (Призрачная электрохимера    )  @  361.2270,  -49.0944, -335.2919
 10: monster     new_electro_chimera@buusty_dialog.script:black_angel_spawn:57                                     (Призрачная электрохимера    )  @  370.0378,  -52.0971, -348.0501
 11: monster     bibliotekar@buusty_dialog.script:black_angel_spawn:58                                             (Библиотекарь                )  @  370.0378,  -52.0971, -348.0501
 12: monster     chimera_x_ray@buusty_dialog.script:black_angel_spawn:59                                           (Призрачная химера           )  @  412.9341,  -49.2894, -311.6123
 13: monster     chimera_weak@buusty_dialog.script:black_angel_spawn:60                                            (Химера                      )  @  412.9341,  -49.2894, -311.6123
 14: monster     fire_chimera@buusty_dialog.script:black_angel_spawn:61                                            (Огненная химера             )  @  412.9341,  -49.2894, -311.6123
 15: monster     fire_chimera@buusty_dialog.script:black_angel_spawn:62                                            (Огненная химера             )  @  420.1961,  -49.6722, -323.9300
 16: monster     bear@buusty_dialog.script:black_angel_spawn:63                                                    (Медведь-мутант              )  @  420.1961,  -49.6722, -323.9300
 17: monster     new_electro_chimera@buusty_dialog.script:black_angel_spawn:64                                     (Призрачная электрохимера    )  @  424.1989,  -49.6348, -328.3031
 18: monster     chimera_weak@buusty_dialog.script:black_angel_spawn:65                                            (Химера                      )  @  424.1989,  -49.6348, -328.3031
 19: monster     electro_chimera@buusty_dialog.script:black_angel_spawn:66                                         (Электрохимера               )  @  424.1989,  -49.6348, -328.3031
 20: monster     electro_chimera@buusty_dialog.script:black_angel_spawn:67                                         (Электрохимера               )  @  428.8560,  -48.9394, -336.8505
 21: monster     bibliotekar@buusty_dialog.script:black_angel_spawn:68                                             (Библиотекарь                )  @  428.8560,  -48.9394, -336.8505
 22: monster     snork_jumper@buusty_dialog.script:black_angel_spawn:69                                            (Крылатый снорк              )  @  313.2618,  -51.1401, -253.1057
 23: monster     snork_nosach@buusty_dialog.script:black_angel_spawn:70                                            (Упырь-носач                 )  @  313.2618,  -51.1401, -253.1057
 24: monster     nosales@buusty_dialog.script:black_angel_spawn:71                                                 (Упырь                       )  @  313.2618,  -51.1401, -253.1057
 25: monster     fracture_master@buusty_dialog.script:black_angel_spawn:72                                         (Излом-охотник               )  @  313.2618,  -51.1401, -253.1057
 26: monster     carlic@buusty_dialog.script:black_angel_spawn:73                                                  (Карлик                      )  @  301.4224,  -50.0690, -253.8680
 27: monster     carlic@buusty_dialog.script:black_angel_spawn:74                                                  (Карлик                      )  @  301.4224,  -50.0690, -253.8680
 28: monster     m_poltergeist_dd@buusty_dialog.script:black_angel_spawn:75                                        (Ползучий пиро-полтергейст   )  @  301.4224,  -50.0690, -253.8680
 29: monster     m_controller_act@buusty_dialog.script:black_angel_spawn:76                                        (Быстрый контролёр           )  @  301.4224,  -50.0690, -253.8680
 30: monster     psyonik@buusty_dialog.script:black_angel_spawn:77                                                 (Псионик                     )  @  301.4224,  -50.0690, -253.8680
 31: monster     snork_jumper@buusty_dialog.script:black_angel_spawn:78                                            (Крылатый снорк              )  @  301.4224,  -50.0690, -253.8680
 32: monster     poltergeist_build@buusty_dialog.script:black_angel_spawn:79                                       (Ползучий полтергейст        )  @  301.4224,  -50.0690, -253.8680
 33: monster     fracture_master@buusty_dialog.script:black_angel_spawn:80                                         (Излом-охотник               )  @  301.4224,  -50.0690, -253.8680
 34: monster     fracture_karlik@buusty_dialog.script:black_angel_spawn:81                                         (Карликовый излом            )  @  301.4224,  -50.0690, -253.8680
 35: monster     zombie_plague@buusty_dialog.script:black_angel_spawn:82                                           (Чумной зомби                )  @  301.4224,  -50.0690, -253.8680
 36: monster     voen_zombied1@buusty_dialog.script:black_angel_spawn:83                                           (pri_zombied_suicide         )  @  301.4224,  -50.0690, -253.8680
 37: monster     voen_zombied2@buusty_dialog.script:black_angel_spawn:84                                           (pri_zombied_veteran         )  @  301.4224,  -50.0690, -253.8680
 38: monster     snork_jumper@buusty_dialog.script:black_angel_spawn:85                                            (Крылатый снорк              )  @  301.4224,  -50.0690, -253.8680
 39: monster     snork_nosach@buusty_dialog.script:black_angel_spawn:86                                            (Упырь-носач                 )  @  301.4224,  -50.0690, -253.8680
 40: monster     nosales@buusty_dialog.script:black_angel_spawn:87                                                 (Упырь                       )  @  301.4224,  -50.0690, -253.8680
 41: monster     poltergeist_build@buusty_dialog.script:black_angel_spawn:88                                       (Ползучий полтергейст        )  @  301.4224,  -50.0690, -253.8680
 42: monster     gigant_red_strong@buusty_dialog.script:himery_spawn:121                                           (Красный псевдогигант        )  @  361.8332,  -51.4459, -343.6878
 43: monster     dog_habaruch@buusty_dialog.script:himery_spawn:125                                                (Чёрный пёс                  )  @  361.2270,  -49.0944, -335.2919
 44: monster     snork_jumper@buusty_dialog.script:himery_spawn:133                                                (Крылатый снорк              )  @  428.8560,  -48.9394, -336.8505
 45: monster     snork_jumper@buusty_dialog.script:himery_spawn:139                                                (Крылатый снорк              )  @  301.4224,  -50.0690, -253.8680
 46: monster     zombie_plague@buusty_dialog.script:himery_spawn:140                                               (Чумной зомби                )  @  301.4224,  -50.0690, -253.8680
 47: monster     gigant_virus_strong@buusty_dialog.script:himery_spawn_again:379                                   (Мегапсевдогигант            )  @  361.8332,  -51.4459, -343.6878
 48: monster     fracture_strong@buusty_dialog.script:himery_spawn_again:380                                       (Матёрый излом               )  @  361.8332,  -51.4459, -343.6878
 49: monster     zombie_plague@buusty_dialog.script:himery_spawn_again:381                                         (Чумной зомби                )  @  346.3886,  -52.1043, -343.3193
 50: monster     snork_jumper@buusty_dialog.script:himery_spawn_again:382                                          (Крылатый снорк              )  @  349.5916,  -48.6078, -321.8660
 51: monster     snork_nosach@buusty_dialog.script:himery_spawn_again:383                                          (Упырь-носач                 )  @  349.5916,  -48.6078, -321.8660
 52: monster     nosales@buusty_dialog.script:himery_spawn_again:384                                               (Упырь                       )  @  349.5916,  -48.6078, -321.8660
 53: monster     poltergeist_build@buusty_dialog.script:himery_spawn_again:385                                     (Ползучий полтергейст        )  @  361.2270,  -49.0944, -335.2919
 54: monster     m_poltergeist_dd@buusty_dialog.script:himery_spawn_again:386                                      (Ползучий пиро-полтергейст   )  @  361.2270,  -49.0944, -335.2919
 55: monster     m_controller_act@buusty_dialog.script:himery_spawn_again:387                                      (Быстрый контролёр           )  @  361.2270,  -49.0944, -335.2919
 56: monster     psyonik@buusty_dialog.script:himery_spawn_again:388                                               (Псионик                     )  @  361.2270,  -49.0944, -335.2919
 57: monster     fracture_master@buusty_dialog.script:himery_spawn_again:389                                       (Излом-охотник               )  @  370.0378,  -52.0971, -348.0501
 58: monster     bibliotekar@buusty_dialog.script:himery_spawn_again:390                                           (Библиотекарь                )  @  412.9341,  -49.2894, -311.6123
 59: monster     bloodsucker_mil@buusty_dialog.script:himery_spawn_again:391                                       (Сумрачный кровосос          )  @  420.1961,  -49.6722, -323.9300
 60: monster     zombie_hell15@buusty_dialog.script:himery_spawn_again:392                                         (Зомби-охотник               )  @  420.1961,  -49.6722, -323.9300
 61: monster     zanoza@buusty_dialog.script:himery_spawn_again:393                                                (Заноза                      )  @  420.1961,  -49.6722, -323.9300
 62: monster     zanoza@buusty_dialog.script:himery_spawn_again:394                                                (Заноза                      )  @  420.1961,  -49.6722, -323.9300
 63: monster     snork_jumper@buusty_dialog.script:himery_spawn_again:395                                          (Крылатый снорк              )  @  424.1989,  -49.6348, -328.3031
 64: monster     carlic@buusty_dialog.script:himery_spawn_again:396                                                (Карлик                      )  @  424.1989,  -49.6348, -328.3031
 65: monster     fracture_karlik@buusty_dialog.script:himery_spawn_again:397                                       (Карликовый излом            )  @  424.1989,  -49.6348, -328.3031
 66: monster     snork_jumper@buusty_dialog.script:himery_spawn_again:398                                          (Крылатый снорк              )  @  428.8560,  -48.9394, -336.8505
 67: monster     snork_nosach@buusty_dialog.script:himery_spawn_again:399                                          (Упырь-носач                 )  @  428.8560,  -48.9394, -336.8505
 68: monster     nosales@buusty_dialog.script:himery_spawn_again:400                                               (Упырь                       )  @  428.8560,  -48.9394, -336.8505
 69: monster     carlic@buusty_dialog.script:himery_spawn_again:401                                                (Карлик                      )  @  428.8560,  -48.9394, -336.8505
 70: monster     fracture_karlik@buusty_dialog.script:himery_spawn_again:402                                       (Карликовый излом            )  @  428.8560,  -48.9394, -336.8505
 71: monster     fracture_master@buusty_dialog.script:himery_spawn_again:403                                       (Излом-охотник               )  @  428.8560,  -48.9394, -336.8505
 72: monster     bibliotekar@buusty_dialog.script:himery_spawn_again:404                                           (Библиотекарь                )  @  313.2618,  -51.1401, -253.1057
 73: monster     fracture_strong@buusty_dialog.script:himery_spawn_again:405                                       (Матёрый излом               )  @  301.4224,  -50.0690, -253.8680
 74: monster     poltergeist_build@buusty_dialog.script:himery_spawn_again:406                                     (Ползучий полтергейст        )  @  301.4224,  -50.0690, -253.8680
 75: monster     m_poltergeist_dd@buusty_dialog.script:himery_spawn_again:407                                      (Ползучий пиро-полтергейст   )  @  301.4224,  -50.0690, -253.8680
 76: monster     carlic@buusty_dialog.script:himery_spawn_again:408                                                (Карлик                      )  @  301.4224,  -50.0690, -253.8680
 77: monster     fracture_karlik@buusty_dialog.script:himery_spawn_again:409                                       (Карликовый излом            )  @  301.4224,  -50.0690, -253.8680
 78: monster     fracture_master@buusty_dialog.script:himery_spawn_again:410                                       (Излом-охотник               )  @  301.4224,  -50.0690, -253.8680
 79: monster     zombie_plague@buusty_dialog.script:himery_spawn_again:411                                         (Чумной зомби                )  @  301.4224,  -50.0690, -253.8680
 80: monster     voen_zombied1@buusty_dialog.script:himery_spawn_again:412                                         (pri_zombied_suicide         )  @  301.4224,  -50.0690, -253.8680
 81: monster     voen_zombied2@buusty_dialog.script:himery_spawn_again:413                                         (pri_zombied_veteran         )  @  301.4224,  -50.0690, -253.8680
 82: monster     gigant_strong@buusty_dialog.script:himery_spawn_again:414                                         (Матёрый псевдогигант        )  @  301.4224,  -50.0690, -253.8680
 83: monster     monolith_x8_regular@buusty_dialog.script:lukash_zasada_radar:2983                                 (sim_monolith_regular        )  @  632.4100,  -43.7400,  190.3200
 84: monster     monolith_x8_veteran@buusty_dialog.script:lukash_zasada_radar:2984                                 (sim_monolith_specnaz        )  @  660.8800,  -43.8900,  178.0200
 85: monster     monolith_x8_master@buusty_dialog.script:lukash_zasada_radar:2985                                  (sim_monolith_master         )  @  624.3700,  -43.8300,  179.7300
 86: monster     tank_spawn_zasada7@buusty_dialog.script:lukash_zasada_radar:2986                                  (GENERATE_NAME_stalker       )  @  618.8600,  -43.8400,  192.2600
 87: monster     tank_spawn_zasada2@buusty_dialog.script:lukash_zasada_radar:2987                                  (GENERATE_NAME_stalker       )  @  660.8800,  -43.8900,  178.0200
 88: monster     tank_pauk_zasada1@buusty_dialog.script:monolith_pauk_zasada:2992                                  (GENERATE_NAME_stalker       )  @  547.1700,  -42.9900,   76.0900
 89: monster     tank_pauk_zasada2@buusty_dialog.script:monolith_pauk_zasada:2993                                  (GENERATE_NAME_stalker       )  @  520.9800,  -40.6000,  105.4000
 90: monster     tank_pauk_zasada3@buusty_dialog.script:monolith_pauk_zasada:2994                                  (GENERATE_NAME_stalker       )  @  576.6500,  -50.0300,   16.1300
 91: monster     tank_pauk_zasada4@buusty_dialog.script:monolith_pauk_zasada:2995                                  (GENERATE_NAME_stalker       )  @  531.4600,  -49.6500,   16.7900
 92: monster     tank_pauk_zasada5@buusty_dialog.script:monolith_pauk_zasada:2996                                  (GENERATE_NAME_stalker       )  @  597.6300,  -50.3200,   12.3500
 93: monster     tank_pauk_zasada6@buusty_dialog.script:monolith_pauk_zasada:2997                                  (sim_monolith_master         )  @  660.8800,  -43.8900,  178.0200
 94: monster     tank_pauk_zasada7@buusty_dialog.script:monolith_pauk_zasada:2998                                  (GENERATE_NAME_stalker       )  @  660.8800,  -43.8900,  178.0200
 95: monster     tank_pauk_zasada3@buusty_dialog.script:monolith_pauk_zasada2:3003                                 (GENERATE_NAME_stalker       )  @  547.1700,  -42.9900,   76.0900
 96: monster     tank_pauk_zasada4@buusty_dialog.script:monolith_pauk_zasada2:3004                                 (GENERATE_NAME_stalker       )  @  520.9800,  -40.6000,  105.4000
 97: monster     tank_pauk_zasada1@buusty_dialog.script:monolith_pauk_zasada2:3005                                 (GENERATE_NAME_stalker       )  @  576.6500,  -50.0300,   16.1300
 98: monster     tank_pauk_zasada7@buusty_dialog.script:monolith_pauk_zasada2:3006                                 (GENERATE_NAME_stalker       )  @  531.4600,  -49.6500,   16.7900
 99: monster     tank_pauk_zasada2@buusty_dialog.script:monolith_pauk_zasada2:3007                                 (GENERATE_NAME_stalker       )  @  597.6300,  -50.3200,   12.3500
100: monster     tank_pauk_zasada6@buusty_dialog.script:monolith_pauk_zasada2:3008                                 (sim_monolith_master         )  @  660.8800,  -43.8900,  178.0200
101: monster     tank_pauk_zasada1@buusty_dialog.script:monolith_pauk_zasada3:3014                                 (GENERATE_NAME_stalker       )  @  547.1700,  -42.9900,   76.0900
102: monster     tank_pauk_zasada2@buusty_dialog.script:monolith_pauk_zasada3:3015                                 (GENERATE_NAME_stalker       )  @  520.9800,  -40.6000,  105.4000
103: monster     tank_pauk_zasada6@buusty_dialog.script:monolith_pauk_zasada3:3016                                 (sim_monolith_master         )  @  576.6500,  -50.0300,   16.1300
104: monster     tank_pauk_zasada4@buusty_dialog.script:monolith_pauk_zasada3:3017                                 (GENERATE_NAME_stalker       )  @  531.4600,  -49.6500,   16.7900
105: monster     tank_pauk_zasada5@buusty_dialog.script:monolith_pauk_zasada3:3018                                 (GENERATE_NAME_stalker       )  @  597.6300,  -50.3200,   12.3500
106: monster     tank_pauk_zasada8@buusty_dialog.script:monolith_pauk_zasada3:3019                                 (GENERATE_NAME_stalker       )  @  531.4600,  -49.6500,   16.7900
107: monster     tank_pauk_zasada7@buusty_dialog.script:monolith_pauk_zasada3:3020                                 (GENERATE_NAME_stalker       )  @  660.8800,  -43.8900,  178.0200
108: monster     monolith_x8_regular@new_dialog.script:nebo_clear_dal:594                                          (sim_monolith_regular        )  @   72.3985,   -4.2989,  -57.9819
109: monster     monolith_x8_veteran@new_dialog.script:nebo_clear_dal:595                                          (sim_monolith_specnaz        )  @   89.7748,    5.6317,  -71.5434
110: monster     monolith_x8_regular@new_dialog.script:nebo_clear_dal:596                                          (sim_monolith_regular        )  @   83.7444,   -0.1370,  -71.1877
111: monster     monolith_x8_veteran@new_dialog.script:nebo_clear_dal:597                                          (sim_monolith_specnaz        )  @   24.0068,   -0.1495,  -71.5658
112: monster     monolith_x8_regular@new_dialog.script:nebo_clear_dal:598                                          (sim_monolith_regular        )  @   52.2471,   -3.9327,  -56.7030
113: monster     monolith_x8_veteran@new_dialog.script:nebo_clear_dal:599                                          (sim_monolith_specnaz        )  @   20.2749,    7.3866,  -97.1258
114: monster     monolith_x8_master@new_dialog.script:nebo_clear_dal:600                                           (sim_monolith_master         )  @   -1.7785,    3.7679,  -95.4055
115: monster     boev_sniper_rad1@new_spawn.script:prizrak_true:112                                                (GENERATE_NAME_bandit        )  @  608.7364,  -52.1337, -279.3496
116: monster     boev_sniper_rad2@new_spawn.script:prizrak_true:113                                                (GENERATE_NAME_bandit        )  @  593.3867,  -51.8384, -289.0971
117: monster     boev_sniper_rad3@new_spawn.script:prizrak_true:114                                                (GENERATE_NAME_bandit        )  @  597.5021,  -53.7798, -255.7053
118: monster     boev_sniper_rad4@new_spawn.script:prizrak_true:115                                                (GENERATE_NAME_bandit        )  @  611.5910,  -52.4556, -304.1401
119: monster     boev_sniper_rad5@new_spawn.script:prizrak_true:116                                                (GENERATE_NAME_bandit        )  @  613.7868,  -50.4356,   -8.7365
120: monster     boev_sniper_rad6@new_spawn.script:prizrak_true:117                                                (GENERATE_NAME_bandit        )  @  606.5784,  -53.6416,  -52.6837
121: monster     boev_sniper_rad7@new_spawn.script:prizrak_true:118                                                (GENERATE_NAME_bandit        )  @  511.0148,  -49.8034,   16.5319
122: monster     boev_sniper_rad8@new_spawn.script:prizrak_true:119                                                (GENERATE_NAME_bandit        )  @  515.3607,  -49.9835,    0.5920
123: monster     boev_sniper_rad9@new_spawn.script:prizrak_true:120                                                (GENERATE_NAME_bandit        )  @  394.2270,  -49.7197,   15.6820
124: monster     boev_sniper_rad10@new_spawn.script:prizrak_true:121                                               (GENERATE_NAME_bandit        )  @  349.5722,  -49.9718,   15.1037
125: monster     boev_sniper_rad11@new_spawn.script:prizrak_true:122                                               (GENERATE_NAME_bandit        )  @  131.9209,   -3.2017,   30.6498
126: monster     boev_sniper_rad12@new_spawn.script:prizrak_true:123                                               (GENERATE_NAME_bandit        )  @  105.6645,   -0.2002,  -18.8602
127: monster     boev_sniper_rad13@new_spawn.script:prizrak_true:124                                               (GENERATE_NAME_bandit        )  @  115.5398,   -0.3068,  -33.9878
128: monster     boev_sniper_rad14@new_spawn.script:prizrak_true:125                                               (GENERATE_NAME_bandit        )  @   69.8166,   -0.4328,   -0.6804
129: monster     boev_sniper_rad15@new_spawn.script:prizrak_true:126                                               (GENERATE_NAME_bandit        )  @   90.3081,   -0.3996,  -18.0513
130: monster     anarhist_freedom@oksana_spawn.script:appearance_anarchist:1745                                    (Жора Анархист               )  @  599.3700,  -50.3290,   13.0780
131: monster     tarakan_normal@oksana_spawn.script:appearance_anarchist:1746                                      (Рыжий таракан               )  @  591.3220,  -52.3190, -369.3120
132: monster     tarakan_strong@oksana_spawn.script:appearance_anarchist:1747                                      (Чёрный таракан              )  @  593.6510,  -51.9170, -376.8570
133: monster     tarakan_normal@oksana_spawn.script:appearance_anarchist:1748                                      (Рыжий таракан               )  @  606.1580,  -51.1460, -346.4680
134: monster     tarakan_strong@oksana_spawn.script:appearance_anarchist:1749                                      (Чёрный таракан              )  @  599.8200,  -51.6540, -339.7690
135: monster     tarakan_normal@oksana_spawn.script:appearance_anarchist:1750                                      (Рыжий таракан               )  @  592.2520,  -50.2310, -328.7290
136: monster     tarakan_strong@oksana_spawn.script:appearance_anarchist:1751                                      (Чёрный таракан              )  @  609.6890,  -51.8070, -324.8740
137: monster     tarakan_normal@oksana_spawn.script:appearance_anarchist:1752                                      (Рыжий таракан               )  @  608.3430,  -51.9710, -315.9290
138: monster     tarakan_strong@oksana_spawn.script:appearance_anarchist:1753                                      (Чёрный таракан              )  @  602.7200,  -52.1800, -315.0330
139: monster     snork_normal@oksana_spawn.script:appearance_anarchist:1754                                        (Взрослый снорк              )  @  572.4870,  -55.9120, -253.0810
140: monster     snork_normal@oksana_spawn.script:appearance_anarchist:1755                                        (Взрослый снорк              )  @  578.9270,  -59.1420, -233.6500
141: monster     snork_normal@oksana_spawn.script:appearance_anarchist:1756                                        (Взрослый снорк              )  @  550.2080,  -56.3190, -236.0160
142: monster     snork_normal@oksana_spawn.script:appearance_anarchist:1757                                        (Взрослый снорк              )  @  550.6140,  -59.8280, -219.8550
143: monster     snork_normal@oksana_spawn.script:appearance_anarchist:1758                                        (Взрослый снорк              )  @  544.0960,  -58.4590, -218.5003
144: human       waite_resident_1@oksana_spawn.script:phenomenon_resident_1:1791                                   (Резидент                    )  @  158.6310,   12.3760,    3.5210
145: human       agr_soldier_regular_12@oksana_spawn.script:military_radar:1903                                    (agr_soldier_regular         )  @  577.8900,  -52.4370, -393.2230
146: human       agr_soldier_veteran_12@oksana_spawn.script:military_radar:1904                                    (sim_soldier_specnaz         )  @  587.8070,  -51.5600, -391.7710
147: human       esc_soldier_respawn_11@oksana_spawn.script:military_radar:1905                                    (sim_soldier_regular         )  @  577.7140,  -50.4820, -364.9080
148: human       esc_soldier_respawn_specnaz_12@oksana_spawn.script:military_radar:1906                            (sim_soldier_specnaz         )  @  591.6490,  -52.2780, -368.5420
149: human       rad_specnaz_respawn_specnaz_12@oksana_spawn.script:military_radar:1907                            (sim_soldier_specnaz         )  @  614.0760,  -51.5050, -313.0890
150: human       rad_soldier_master_12@oksana_spawn.script:military_radar:1908                                     (GENERATE_NAME_captain       )  @  603.6870,  -52.1500, -314.9770
151: human       rad_soldier_master_12@oksana_spawn.script:military_radar:1909                                     (GENERATE_NAME_captain       )  @  619.4000,  -51.7900, -321.9630
152: monster     white_mackintosh_00@oksana_spawn.script:white_trade:2631                                          (GENERATE_NAME_stalker       )  @   61.1000,   -3.3160,  -68.4570
153: monster     white_mackintosh_00@oksana_spawn.script:white_trade:2632                                          (GENERATE_NAME_stalker       )  @   80.4490,   -4.7260,  -57.6650
154: monster     white_mackintosh_00@oksana_spawn.script:white_trade:2633                                          (GENERATE_NAME_stalker       )  @   81.4060,   -6.2960,  -34.0980
155: monster     white_mackintosh_00@oksana_spawn.script:white_trade:2634                                          (GENERATE_NAME_stalker       )  @   62.6610,   -4.4880,  -36.7790
156: monster     white_mackintosh_00@oksana_spawn.script:white_trade:2635                                          (GENERATE_NAME_stalker       )  @   38.6880,   -4.3230,  -39.3180
157: monster     white_mackintosh_00@oksana_spawn.script:white_trade:2636                                          (GENERATE_NAME_stalker       )  @    5.0070,   -0.3010,  -72.2960
158: monster     white_mackintosh_33@oksana_spawn.script:white_trade:2637                                          (GENERATE_NAME_stalker       )  @   78.6710,   -6.1010,  -19.2450
159: human       mil_stalker_respawn_11@oksana_spawn.script:stalker_trade:2655                                     (sim_military_neytral_veteran)  @   63.4000,   -4.3610,  -47.7290
160: human       mil_stalker_respawn_22@oksana_spawn.script:stalker_trade:2656                                     (sim_military_neytral_veteran)  @   60.4580,   -4.2860,  -49.9420
161: human       mil_stalker_respawn_33@oksana_spawn.script:stalker_trade:2657                                     (sim_military_neytral_master )  @   56.4270,   -4.3560,  -46.6810
162: human       mil_stalker_respawn_22@oksana_spawn.script:stalker_trade:2658                                     (sim_military_neytral_veteran)  @   53.5440,   -4.3130,  -53.4160
163: human       mil_stalker_respawn_33@oksana_spawn.script:stalker_trade:2659                                     (sim_military_neytral_master )  @   55.3660,   -4.3740,  -51.8920
164: human       mil_stalker_respawn_11@oksana_spawn.script:stalker_trade:2660                                     (sim_military_neytral_veteran)  @   17.2040,   -0.1660,  -59.4710
165: human       mil_stalker_respawn_22@oksana_spawn.script:stalker_trade:2661                                     (sim_military_neytral_veteran)  @   18.6100,   -0.2060,  -53.3790
166: human       mil_stalker_respawn_33@oksana_spawn.script:stalker_trade:2662                                     (sim_military_neytral_master )  @   22.1960,   -0.2910,  -59.7670
167: human       mil_stalker_respawn_11@oksana_spawn.script:stalker_trade:2663                                     (sim_military_neytral_veteran)  @   60.1330,   -3.6900,  -57.0270
168: human       mil_stalker_respawn_33@oksana_spawn.script:stalker_trade:2664                                     (sim_military_neytral_master )  @   48.7050,   -4.0450,  -45.6740
169: human       ds_bandit_respawn_99@oksana_spawn.script:collection_coin_6:4872                                   (sim_soldier_specnaz         )  @   14.1970,   -2.5440,   79.3450
170: human       agr_soldier_regular_12@oksana_spawn.script:family_relics_4:5047                                   (agr_soldier_regular         )  @  577.8900,  -52.4370, -393.2230
171: human       agr_soldier_veteran_12@oksana_spawn.script:family_relics_4:5048                                   (sim_soldier_specnaz         )  @  587.8070,  -51.5600, -391.7710
172: human       esc_soldier_respawn_11@oksana_spawn.script:family_relics_4:5049                                   (sim_soldier_regular         )  @  577.7140,  -50.4820, -364.9080
173: human       esc_soldier_respawn_specnaz_12@oksana_spawn.script:family_relics_4:5050                           (sim_soldier_specnaz         )  @  591.6490,  -52.2780, -368.5420
174: human       rad_specnaz_respawn_specnaz_12@oksana_spawn.script:family_relics_4:5051                           (sim_soldier_specnaz         )  @  614.0760,  -51.5050, -313.0890
175: human       rad_soldier_master_12@oksana_spawn.script:family_relics_4:5052                                    (GENERATE_NAME_captain       )  @  603.6870,  -52.1500, -314.9770
176: human       rad_soldier_master_12@oksana_spawn.script:family_relics_4:5053                                    (GENERATE_NAME_captain       )  @  619.4000,  -51.7900, -321.9630
177: monster     amk_zombied_3@spawn_teleport.script:teleportate7:295                                              (sim_zombied_master          )  @  430.3271,  -55.3446, -265.7506
178: monster     amk_zombied_3@spawn_teleport.script:teleportate7:296                                              (sim_zombied_master          )  @  425.4528,  -55.5188, -260.2814
179: monster     amk_zombied_3@spawn_teleport.script:teleportate7:297                                              (sim_zombied_master          )  @  416.3465,  -54.1633, -257.1782
180: monster     amk_zombied_3@spawn_teleport.script:teleportate7:298                                              (sim_zombied_master          )  @  393.5179,  -53.0551, -245.6539
181: monster     amk_zombied_3@spawn_teleport.script:teleportate7:299                                              (sim_zombied_master          )  @  406.4603,  -51.8546, -248.0162
182: monster     amk_zombied_3@spawn_teleport.script:teleportate7:300                                              (sim_zombied_master          )  @  414.0120,  -53.1975, -252.0063
183: monster     m_controller_normal@spawn_teleport.script:teleportate7:301                                        (Молодой контролёр           )  @  301.1988,  -48.3780, -167.6840
184: monster     bloodsucker_strong@spawn_zombi.script:spawn_krovosos8:17                                          (Матёрый кровосос            )  @  -17.0426,    0.3436,  -39.8463
185: monster     m_controller_old@spawn_zombi.script:spawn_kontroller:20                                           (Матёрый контролёр           )  @    1.7860,    3.3079,  -17.6795
186: monster     psydog_saharov@fantoms_pda.script:fantoms_saharov:14                                              (Пси-собака                  )  @  503.2040,  -44.5550, -211.8560
187: monster     monolith_x8_regular@grom_poison.script:clear_doc_poison:113                                       (sim_monolith_regular        )  @  368.8180,  -50.5980,   26.5040
188: monster     monolith_x8_veteran@grom_poison.script:clear_doc_poison:114                                       (sim_monolith_specnaz        )  @  381.7630,  -50.2510,   15.6230
189: monster     monolith_x8_master@grom_poison.script:clear_doc_poison:115                                        (sim_monolith_master         )  @  402.3770,  -49.5460,   17.8980
190: monster     tank_spawn_zasada1@grom_poison.script:clear_doc_poison:116                                        (GENERATE_NAME_stalker       )  @  364.0530,  -50.1320,   -4.9460
191: monster     monolith_x8_regular@grom_poison.script:clear_doc_poison:117                                       (sim_monolith_regular        )  @  346.2160,  -50.0020,   11.7340
192: monster     monolith_x8_veteran@grom_poison.script:clear_doc_poison:118                                       (sim_monolith_specnaz        )  @  411.6790,  -49.6680,   18.3600
193: monster     lost_sergeant r0@hamster_kuznec1.script:hamster_kuznec1_start:11                                  (GENERATE_NAME_stalker       )  @  195.5080,  -12.7150,   83.9550
194: monster     lost_sergeant r1@hamster_kuznec1.script:hamster_kuznec1_start:11                                  (GENERATE_NAME_stalker       )  @  446.7720,  -50.0020,    4.2450
195: monster     lost_sergeant r2@hamster_kuznec1.script:hamster_kuznec1_start:11                                  (GENERATE_NAME_stalker       )  @  358.2223,  -50.2004,   -2.6917
196: monster     lost_sergeant r3@hamster_kuznec1.script:hamster_kuznec1_start:11                                  (GENERATE_NAME_stalker       )  @  613.0905,  -50.4992,   -7.7338
197: monster     lost_sergeant r4@hamster_kuznec1.script:hamster_kuznec1_start:11                                  (GENERATE_NAME_stalker       )  @  524.4795,  -49.2570, -237.4397
198: monster     voen_invisible@krest_bizon.script:krest_bizon_start:3                                             (GENERATE_NAME_lieutenant    )  @  347.1440,  -51.6200, -299.9770
199: monster     voen_invisible@krest_bizon.script:krest_bizon_start:4                                             (GENERATE_NAME_lieutenant    )  @  345.4620,  -48.1350, -323.1040
200: monster     voen_invisible@krest_bizon.script:krest_bizon_start:5                                             (GENERATE_NAME_lieutenant    )  @  316.9350,  -50.0020, -336.5590
201: monster     voen_invisible@krest_bizon.script:krest_bizon_start:6                                             (GENERATE_NAME_lieutenant    )  @  325.1500,  -47.8510, -204.5740
202: monster     voen_invisible@krest_bizon.script:krest_bizon_start:7                                             (GENERATE_NAME_lieutenant    )  @  308.3110,  -47.5210, -168.2130
203: monster     voen_invisible@krest_bizon.script:krest_bizon_start:8                                             (GENERATE_NAME_lieutenant    )  @  333.6160,  -46.6860, -149.3720
204: monster     monolith_x8_regular@life_heart_sidor.script:life_heart_sidor_start:4                              (sim_monolith_regular        )  @  529.5566,  -50.3593, -234.9613
205: monster     monolith_x8_veteran@life_heart_sidor.script:life_heart_sidor_start:5                              (sim_monolith_specnaz        )  @  542.4910,  -51.4676, -191.2457
206: monster     monolith_x8_master@life_heart_sidor.script:life_heart_sidor_start:6                               (sim_monolith_master         )  @  562.6902,  -59.9554, -181.6094
207: monster     monolith_x8_regular@life_heart_sidor.script:life_heart_sidor_start:7                              (sim_monolith_regular        )  @  578.7131,  -62.6574, -181.1546
208: monster     monolith_x8_veteran@life_heart_sidor.script:life_heart_sidor_start:8                              (sim_monolith_specnaz        )  @  605.9520,  -63.4184, -193.6623
209: monster     monolith_x8_master@life_heart_sidor.script:life_heart_sidor_start:9                               (sim_monolith_master         )  @  599.1000,  -62.7041, -171.9740
210: monster     tank_spawn_zasada3@life_heart_sidor.script:life_heart_sidor_start:10                              (GENERATE_NAME_stalker       )  @  558.8829,  -57.1404, -170.0744
211: monster     monolith_x8_veteran@life_heart_sidor.script:life_heart_sidor_start:11                             (sim_monolith_specnaz        )  @  577.3529,  -62.1458, -204.3405
212: monster     monolith_x8_regular@life_heart_sidor.script:life_heart_sidor_start:12                             (sim_monolith_regular        )  @  550.1768,  -60.6253, -214.9959
213: monster     tank_spawn_zasada2@life_heart_sidor.script:life_heart_sidor_start:13                              (GENERATE_NAME_stalker       )  @  534.4148,  -45.1381, -252.7355
214: car/turret  auto_turret_2@life_heart_sidor.script:life_heart_sidor_start:14                                   (                            )  @  531.1257,  -46.2345, -244.7351
215: car/turret  auto_turret_2@life_heart_sidor.script:life_heart_sidor_start:15                                   (                            )  @  564.3012,  -59.3216, -208.6681
216: monster     bw_sniper@max_camouflage.script:max_camouflage_start:36                                           (Снайпер из Блэквотер        )  @  511.4872,  -45.2391, -203.4017
217: monster     bw_sniper@max_camouflage.script:max_camouflage_start:37                                           (Снайпер из Блэквотер        )  @  560.7158,  -52.9585, -124.8585
218: monster     bw_killers2@max_camouflage.script:max_camouflage_start:38                                         (Наёмник из Блэквотер        )  @  524.8696,  -48.4849, -180.8371
219: monster     bw_killers1@max_camouflage.script:max_camouflage_start:39                                         (Наёмник из Блэквотер        )  @  546.4222,  -54.8195,  -93.9219
220: monster     monolith_x8_regular@max_gunsight.script:max_gunsight_start:16                                     (sim_monolith_regular        )  @  590.9210,  -58.7790, -112.6500
221: monster     monolith_x8_veteran@max_gunsight.script:max_gunsight_start:17                                     (sim_monolith_specnaz        )  @  576.5960,  -58.8270, -163.7130
222: monster     monolith_x8_master@max_gunsight.script:max_gunsight_start:18                                      (sim_monolith_master         )  @  578.9240,  -62.6720, -181.5260
223: monster     tank_spawn_zasada1@max_gunsight.script:max_gunsight_start:19                                      (GENERATE_NAME_stalker       )  @  555.7100,  -59.5310, -193.5920
224: monster     tank_x003@max_gunsight.script:max_gunsight_start:20                                               (GENERATE_NAME_stalker       )  @  601.0170,  -63.3020, -175.6410
225: monster     monolith_x8_regular@max_gunsight.script:max_gunsight_start:21                                     (sim_monolith_regular        )  @  544.0900,  -50.1990, -253.4300
226: monster     monolith_x8_veteran@max_gunsight.script:max_gunsight_start:22                                     (sim_monolith_specnaz        )  @  650.9750,  -50.9350,  -59.8710
227: monster     monolith_x8_master@max_gunsight.script:max_gunsight_start:23                                      (sim_monolith_master         )  @  627.3810,  -50.8380,  -39.3530
228: monster     tank_spawn_zasada@max_gunsight.script:max_gunsight_start:24                                       (GENERATE_NAME_stalker       )  @  599.9360,  -51.4070,  -41.7580
229: monster     tank_spawn_zasada4@max_gunsight.script:max_gunsight_start:25                                      (GENERATE_NAME_stalker       )  @  605.2180,  -48.9980,  -15.9380
230: monster     monolith_x8_veteran@max_gunsight.script:max_gunsight_start:26                                     (sim_monolith_specnaz        )  @  572.8570,  -49.2030,   19.4750
231: monster     monolith_x8_master@max_gunsight.script:max_gunsight_start:27                                      (sim_monolith_master         )  @  566.1280,  -50.0940,   -0.5600
232: monster     tank_spawn_zasada7@max_gunsight.script:max_gunsight_start:28                                      (GENERATE_NAME_stalker       )  @  531.3840,  -49.6250,   16.8960
233: monster     monolith_x8_regular@max_gunsight.script:max_gunsight_start:29                                     (sim_monolith_regular        )  @  471.3850,  -50.0020,   13.2810
234: monster     monolith_x8_veteran@max_gunsight.script:max_gunsight_start:30                                     (sim_monolith_specnaz        )  @  459.8700,  -50.0140,   -1.8740
235: monster     tank_x003@max_gunsight.script:max_gunsight_start:32                                               (GENERATE_NAME_stalker       )  @  407.3380,  -50.0020,   15.7760
236: monster     tank_spawn_zasada7@max_gunsight.script:max_gunsight_start:33                                      (GENERATE_NAME_stalker       )  @  451.4150,  -49.9720,   17.8180
237: monster     monolith_x8_regular@max_gunsight.script:max_gunsight_start:34                                     (sim_monolith_regular        )  @  344.7250,  -50.0000,    4.0770
238: monster     monolith_x8_veteran@max_gunsight.script:max_gunsight_start:35                                     (sim_monolith_specnaz        )  @  346.1920,  -49.9580,   15.8250
239: monster     monolith_x8_master@max_gunsight.script:max_gunsight_start:36                                      (sim_monolith_master         )  @  336.1670,  -49.2630,   -1.3420
240: car/turret  auto_turret_2@max_gunsight.script:max_gunsight_start:37                                           (                            )  @  306.5810,  -36.1520,  -22.9180
241: car/turret  auto_turret_2@max_gunsight.script:max_gunsight_start:38                                           (                            )  @  616.0490,  -46.3120,  -26.7730
242: monster     monolith_x8_regular@max_gunsight.script:max_gunsight_spawn1:43                                    (sim_monolith_regular        )  @  408.8790,  -49.1750,   20.2520
243: monster     monolith_x8_veteran@max_gunsight.script:max_gunsight_spawn1:44                                    (sim_monolith_specnaz        )  @  391.8590,  -49.7660,   15.8820
244: monster     monolith_x8_regular@max_gunsight.script:max_gunsight_spawn1:45                                    (sim_monolith_regular        )  @  406.6940,  -48.4820,   30.1840
245: monster     monolith_x8_veteran@max_gunsight.script:max_gunsight_spawn1:46                                    (sim_monolith_specnaz        )  @  416.8890,  -50.4450,  -10.1120
246: monster     monolith_x8_master@max_gunsight.script:max_gunsight_spawn1:47                                     (sim_monolith_master         )  @  333.9850,  -50.4820,  -23.9480
247: monster     tank_x003@max_gunsight.script:max_gunsight_spawn2:52                                              (GENERATE_NAME_stalker       )  @  379.5720,  -50.2030,   57.3520
248: monster     monolith_x8_regular@max_gunsight.script:max_gunsight_spawn2:53                                    (sim_monolith_regular        )  @  379.3540,  -49.5010,   63.7620
249: monster     monolith_x8_veteran@max_gunsight.script:max_gunsight_spawn2:54                                    (sim_monolith_specnaz        )  @  389.3660,  -49.7490,   63.7620
250: monster     tank_spawn_zasada3@max_gunsight.script:max_gunsight_spawn2:55                                     (GENERATE_NAME_stalker       )  @  551.2170,  -41.7940,  170.1180
251: monster     tank_spawn_zasada5@max_gunsight.script:max_gunsight_spawn2:56                                     (GENERATE_NAME_stalker       )  @  559.6320,  -41.6110,  167.6730
252: monster     bw_killers1@new_radios.script:new_radios_adrenalin:21                                             (Наёмник из Блэквотер        )  @  602.5957,  -51.7353, -339.8211
253: monster     bw_killers2@new_radios.script:new_radios_adrenalin:23                                             (Наёмник из Блэквотер        )  @  605.8248,  -51.6107, -360.3959
254: monster     bw_killers1@new_radios.script:new_radios_adrenalin:24                                             (Наёмник из Блэквотер        )  @  582.0860,  -50.3498, -351.8091
255: monster     bw_killers2@new_radios.script:new_radios_adrenalin:25                                             (Наёмник из Блэквотер        )  @  589.3793,  -52.2157, -365.6994
256: monster     bw_killers1@new_radios.script:new_radios_adrenalin:26                                             (Наёмник из Блэквотер        )  @  611.7512,  -51.1891, -344.0237
257: monster     bw_killers2@new_radios.script:new_radios_adrenalin:27                                             (Наёмник из Блэквотер        )  @  589.0590,  -50.5807, -341.4405
258: monster     bw_killers1@taynik_phantom.script:taynik_phantom_start:5                                          (Наёмник из Блэквотер        )  @  -30.9501,   -0.6710,  -50.7996
259: monster     bw_killers2@taynik_phantom.script:taynik_phantom_start:6                                          (Наёмник из Блэквотер        )  @    2.4549,    0.1091,  -28.5402
260: monster     bw_sniper@taynik_phantom.script:taynik_phantom_start:7                                            (Снайпер из Блэквотер        )  @   89.9051,    5.6283,  -71.7941
261: monster     bw_sniper@taynik_phantom.script:taynik_phantom_start:8                                            (Снайпер из Блэквотер        )  @   89.7189,    5.4217,   -1.3583
262: monster     bw_killers1@taynik_phantom.script:taynik_phantom_start:9                                          (Наёмник из Блэквотер        )  @   77.1954,    3.2626,   92.7185
263: monster     bw_killers2@taynik_phantom.script:taynik_phantom_start:10                                         (Наёмник из Блэквотер        )  @   79.5686,    0.0935,   11.9782
264: monster     bw_killers1@taynik_phantom.script:taynik_phantom_start:11                                         (Наёмник из Блэквотер        )  @   29.0997,    3.1446,   66.7094
265: monster     bw_killers2@taynik_phantom.script:taynik_phantom_start:12                                         (Наёмник из Блэквотер        )  @   62.4839,   -4.3904,  -42.5036
266: monster     bw_killers1@taynik_phantom.script:taynik_phantom_start:13                                         (Наёмник из Блэквотер        )  @   -2.3985,   -0.3026,    5.1911
267: monster     bw_killers2@taynik_phantom.script:taynik_phantom_start:14                                         (Наёмник из Блэквотер        )  @  -12.7231,   -1.7011,   60.3903
268: monster     bw_killers1@taynik_phantom.script:taynik_phantom_start:15                                         (Наёмник из Блэквотер        )  @  -29.7972,    4.9551,   92.8344
269: monster     bw_killers2@taynik_phantom.script:taynik_phantom_start:16                                         (Наёмник из Блэквотер        )  @   10.6920,   -1.8013,   31.3080
270: monster     bw_killers1@taynik_phantom.script:taynik_phantom_start:17                                         (Наёмник из Блэквотер        )  @  110.5101,    5.4718,   81.4072
271: monster     bw_killers2@taynik_phantom.script:taynik_phantom_start:18                                         (Наёмник из Блэквотер        )  @   73.3989,    0.3187,  -93.1609
272: car/turret  vehicle_apc@taynik_phantom.script:taynik_phantom_start:19                                         (                            )  @  118.8119,   -0.2371,  -31.7760
273: monster     monolith_x8_veteran@zahar_ohota.script:ohota_dolina_spawn:86                                      (sim_monolith_specnaz        )  @  618.7069,  -43.8281,  179.7898
274: monster     monolith_x8_regular@zahar_ohota.script:ohota_dolina_spawn:88                                      (sim_monolith_regular        )  @  634.3625,  -43.8459,  194.3255
275: monster     monolith_x8_veteran@zahar_ohota.script:ohota_dolina_spawn:89                                      (sim_monolith_specnaz        )  @  633.8896,  -43.8321,  190.8534
276: monster     monolith_x8_veteran@zahar_ohota.script:ohota_dolina_spawn:91                                      (sim_monolith_specnaz        )  @  630.1245,  -43.8312,  191.2128
277: monster     monolith_x8_regular@zahar_ohota.script:ohota_dolina_spawn:92                                      (sim_monolith_regular        )  @  641.5098,  -43.8803,  179.8369
278: monster     kontrik_radar@zahar_ohota.script:ohota_radar_spawn:121                                            (Контролёр-толстяк           )  @  553.7224,  -42.2890,  175.6773
279: monster     rad_zombied_respawn_1@zahar_ohota.script:ohota_radar_spawn:122                                    (sim_zombied_novice          )  @  553.7224,  -42.2890,  175.6773
280: monster     rad_zombied_respawn_2@zahar_ohota.script:ohota_radar_spawn:123                                    (sim_zombied_veteran         )  @  553.7224,  -42.2890,  175.6773
281: monster     rad_zombied_respawn_3@zahar_ohota.script:ohota_radar_spawn:124                                    (sim_zombied_master          )  @  553.7224,  -42.2890,  175.6773
282: monster     zombie_plague_komar@zahar_ohota.script:ohota_radar_spawn:125                                      (Комариный зомби             )  @  553.7224,  -42.2890,  175.6773
283: monster     kontrik_radar1@zahar_ohota.script:ohota_radar_spawn:126                                           (Матёрый контролёр           )  @  368.8242,  -48.2262, -132.5739
284: monster     kontrik_yantar2@zahar_ohota.script:ohota_radar_spawn:127                                          (Контролёр-толстяк           )  @  360.3037,  -49.0124, -325.1108
285: monster     kontrik_yantar3@zahar_ohota.script:ohota_radar_spawn:128                                          (Молодой контролёр           )  @  465.0738,  -52.6223, -202.6273
286: monster     rad_zombied_respawn_1 r0@zahar_ohota.script:ohota_radar_spawn:132                                 (sim_zombied_novice          )  @  368.8242,  -48.2262, -132.5739
287: monster     rad_zombied_respawn_1 r1@zahar_ohota.script:ohota_radar_spawn:132                                 (sim_zombied_novice          )  @  360.3037,  -49.0124, -325.1108
288: monster     rad_zombied_respawn_1 r2@zahar_ohota.script:ohota_radar_spawn:132                                 (sim_zombied_novice          )  @  465.0738,  -52.6223, -202.6273
289: monster     rad_zombied_respawn_2 r0@zahar_ohota.script:ohota_radar_spawn:133                                 (sim_zombied_veteran         )  @  368.8242,  -48.2262, -132.5739
290: monster     rad_zombied_respawn_2 r1@zahar_ohota.script:ohota_radar_spawn:133                                 (sim_zombied_veteran         )  @  360.3037,  -49.0124, -325.1108
291: monster     rad_zombied_respawn_2 r2@zahar_ohota.script:ohota_radar_spawn:133                                 (sim_zombied_veteran         )  @  465.0738,  -52.6223, -202.6273
292: monster     voen_zombied2 r0@zahar_ohota.script:ohota_radar_spawn:134                                         (pri_zombied_veteran         )  @  368.8242,  -48.2262, -132.5739
293: monster     voen_zombied2 r1@zahar_ohota.script:ohota_radar_spawn:134                                         (pri_zombied_veteran         )  @  360.3037,  -49.0124, -325.1108
294: monster     voen_zombied2 r2@zahar_ohota.script:ohota_radar_spawn:134                                         (pri_zombied_veteran         )  @  465.0738,  -52.6223, -202.6273
295: monster     zombie_hell7 r0@zahar_ohota.script:ohota_radar_spawn:135                                          (Зомби-бомж                  )  @  368.8242,  -48.2262, -132.5739
296: monster     zombie_hell7 r1@zahar_ohota.script:ohota_radar_spawn:135                                          (Зомби-бомж                  )  @  360.3037,  -49.0124, -325.1108
297: monster     zombie_hell7 r2@zahar_ohota.script:ohota_radar_spawn:135                                          (Зомби-бомж                  )  @  465.0738,  -52.6223, -202.6273
298: monster     zombie_hell8 r0@zahar_ohota.script:ohota_radar_spawn:136                                          (Зомби-алкаш                 )  @  368.8242,  -48.2262, -132.5739
299: monster     zombie_hell8 r1@zahar_ohota.script:ohota_radar_spawn:136                                          (Зомби-алкаш                 )  @  360.3037,  -49.0124, -325.1108
300: monster     zombie_hell8 r2@zahar_ohota.script:ohota_radar_spawn:136                                          (Зомби-алкаш                 )  @  465.0738,  -52.6223, -202.6273
301: monster     esc_arhara_stalker_zombied r0@zahar_ohota.script:ohota_radar_spawn:137                            (GENERATE_NAME_stalker       )  @  368.8242,  -48.2262, -132.5739
302: monster     esc_arhara_stalker_zombied r1@zahar_ohota.script:ohota_radar_spawn:137                            (GENERATE_NAME_stalker       )  @  360.3037,  -49.0124, -325.1108
303: monster     esc_arhara_stalker_zombied r2@zahar_ohota.script:ohota_radar_spawn:137                            (GENERATE_NAME_stalker       )  @  465.0738,  -52.6223, -202.6273
304: monster     esc_arhara_stalker_zombied1 r0@zahar_ohota.script:ohota_radar_spawn:138                           (GENERATE_NAME_stalker       )  @  368.8242,  -48.2262, -132.5739
305: monster     esc_arhara_stalker_zombied1 r1@zahar_ohota.script:ohota_radar_spawn:138                           (GENERATE_NAME_stalker       )  @  360.3037,  -49.0124, -325.1108
306: monster     esc_arhara_stalker_zombied1 r2@zahar_ohota.script:ohota_radar_spawn:138                           (GENERATE_NAME_stalker       )  @  465.0738,  -52.6223, -202.6273
