  0:                                                collector's stash 0_0 @  312.5729,    5.3659,  254.0040
  1:                                                collector's stash 0_1 @  328.1013,   -0.6347,   13.0278
  2:                                                collector's stash 0_2 @  313.0311,   -5.0710, -290.0132
  3:                                                collector's stash 0_3 @ -142.0191,   20.2046,  -58.9218
  4:                                                collector's stash 0_4 @  147.7476,    6.6911, -332.2687
  5:          m_inventory_box17@arhara_dialog.script:new_inventory17:1464 @  144.7120,   -3.9560, -313.1400
  6:          m_inventory_box38@arhara_dialog.script:new_inventory20:1833 @ -411.6020,    0.6980,   62.8370
  7:    m_inventory_box31@arhara_dialog.script:spawn_general_prezent:4545 @ -320.1740,   -8.7260,   21.9750
  8:          t_inventory_box4@kostya_dialog.script:t_inventory_box4:1448 @  316.5738,  -12.2736, -261.8981
  9:             document_chimera@oksana_spawn.script:hiding_chimera:1073 @  145.0805,   -3.9204, -310.1890
 10:      a_inventory_box18@fotograf_fotik.script:fotograf_fotik_start:11 @  324.5898,   -6.4117,  -15.2564
 11:             a_inventory_box77@krest_zapas.script:krest_zapas_start:6 @ -121.4632,  -52.9888, -177.7353
 12:            sword_in_stone@koloda_kuznec.script:koloda_kuznec_give:34 @  218.2120,   22.6690,  346.7810 Попытаться вытащить меч из камня
 13:                                              aver_arhara_boloto_box1 @   49.5765,  -20.2035, -155.1830 ammo_9x39_ap = 1, ammo_7.62x54r = 1, ammo_12x70_buck = 1, ammo_igl = 1, ammo_357_ap_mag = 1, ammo_vog-25p = 1, ammo_9x39_sp5 = 1, ammo_5.7x28_ss190 = 1, ammo_7.62x39_k = 1
 14:                                              aver_arhara_boloto_box2 @   28.9886,  -22.7462, -179.5068 wpn_sr25_mk11_mod0_sk1, ammo_7.62x51_fmj = 3
 15:                                              aver_inventory_box_0002 @ -349.9984,   -6.5346,   -7.9296 medkit = 3, stalker_outfit
 16:                                              aver_inventory_box_0003 @ -373.2033,   43.4377,  394.2727 antirad = 3, medkit = 2, ammo_9x39_ap = 2, protection_outfit, wpn_vintorez
