-128.29,   19.12,   91.18 -> - 89.25,  125.98,   54.12
-111.88,   15.70,  106.05 -> - 89.25,  125.98,   54.12
-133.00,    1.41,   95.56 -> - 89.25,  125.98,   54.12
-148.91,   15.63,   70.67 -> - 89.25,  125.98,   54.12
-110.12,   19.05,  100.87 -> - 89.25,  125.98,   54.12
-133.68,   20.40,   83.74 -> - 89.25,  125.98,   54.12
-126.99,   24.15,   91.98 -> - 89.25,  125.98,   54.12
-154.38,   15.70,   65.79 -> - 89.25,  125.98,   54.12
- 89.23,    1.12, - 27.07 -> - 90.85, -  1.47, - 25.48
-152.28, -  1.63,   44.66 -> -154.06,    1.27,   46.90
