  0:      s_inventory_box_stealth4@kostya_dialog.script:stealth2_done:44 @ -163.3550,    5.1500,  -61.5270
  1:       notebook_flash r0@sak_dialog.script:take_yan_kruglov_art:1172 @ -202.3673,    8.6812,  -95.9657
  2:       notebook_flash r1@sak_dialog.script:take_yan_kruglov_art:1172 @ -195.9054,    0.6323, -117.8076
  3:       notebook_flash r2@sak_dialog.script:take_yan_kruglov_art:1172 @   -7.8252,    6.2287, -101.5115
  4:    a_inventory_box44@anomaly_grenade.script:anomaly_grenade_start:4 @  -27.5270,   10.1890, -121.8000
  5:          a_inventory_box32@grom_poison.script:taynik_grom_spawn:156 @  -62.6772,   23.0562,  103.9041
  6:       a_inventory_box23@privet_leshyi.script:taynik_leshyi_spawn:57 @ -171.5020,    4.3062,   51.8167
  7:  gunsight_rifle_matras@volna_petrenko.script:volna_petrenko_start:8 @  -20.2410,   33.5530,  -66.0990
  8: gunsight_rifle_matras@volna_petrenko.script:volna_petrenko_start:13 @  147.2040,   20.2300, -109.2330
  9:                         a_inventory_box72@callback_take.script:1:14 @ -113.7268,    0.3146,   90.5636
 10:           sherstuk_bomba@sherstuk_ammo.script:sherstuk_ammo_start:4 @ -113.1530,    7.4730,   92.1400 Начать маскировку бомбы
 11:         sherstuk_bomba@sherstuk_ammo.script:sherstuk_ammo_start:4_0 @ -111.6100,    1.6340,   89.9660 Начать маскировку бомбы
 12:         sherstuk_bomba@sherstuk_ammo.script:sherstuk_ammo_start:4_1 @ -109.7070,    0.2030,   93.0430 Начать маскировку бомбы
 13:     rangefinder_rifle1@volna_petrenko.script:volna_petrenko_start:3 @   16.5850,   26.7490,  -61.9010 Забрать винтовку
 14:     rangefinder_rifle2@volna_petrenko.script:volna_petrenko_start:6 @  -19.9110,   33.9240,  -64.1550 Забрать винтовку
 15:    rangefinder_rifle3@volna_petrenko.script:volna_petrenko_start:11 @  146.8210,   20.7270, -107.2690 Забрать винтовку
