 0: glushilka@detection_sensor.script:detection_sensor_start:6          glushilka                     Прибор радиоподавления                  @  111.2897,   20.3116,   62.0554
 1: glushilka@detection_sensor.script:detection_sensor_start:7          glushilka                     Прибор радиоподавления                  @  112.7392,   21.6501,  -32.2163
 2: glushilka@detection_sensor.script:detection_sensor_start:8          glushilka                     Прибор радиоподавления                  @   49.7400,   16.8741, -108.5987
 3: glushilka@detection_sensor.script:detection_sensor_start:9          glushilka                     Прибор радиоподавления                  @  -65.5581,   23.5420, -129.4321
 4: glushilka@detection_sensor.script:detection_sensor_start:10         glushilka                     Прибор радиоподавления                  @ -217.8908,   14.5116, -125.1078
 5: glushilka@detection_sensor.script:detection_sensor_start:11         glushilka                     Прибор радиоподавления                  @  137.2270,   21.7348, -105.1288
 6: glushilka@detection_sensor.script:detection_sensor_start:12         glushilka                     Прибор радиоподавления                  @   18.3419,   21.0302,   62.1805
 7: glushilka@detection_sensor.script:detection_sensor_start:13         glushilka                     Прибор радиоподавления                  @ -161.3185,   15.0799,   56.3431
 8: glushilka2@detection_sensor.script:detection_sensor_start:14        glushilka2                    Прибор радиоподавления                  @   68.5104,   76.8185,  -19.6252
 9: glushilka2@detection_sensor.script:detection_sensor_start:15        glushilka2                    Прибор радиоподавления                  @ -122.0081,   77.4954,   35.0308
10: kuznec_mina@grom_poison.script:taynik_grom_spawn:158                kuznec_mina                   Усиленная противопехотная мина          @  -58.7409,    8.0195,  100.0985
11: kuznec_mina@grom_poison.script:taynik_grom_spawn:160                kuznec_mina                   Усиленная противопехотная мина          @  -61.0179,   16.1181,  101.0373
