  64.57,   21.84,  253.26 ->  148.04,   14.63,  193.18
- 48.45, - 10.87, -176.27 -> - 51.54, - 11.92, -162.72
- 48.47, - 11.20, -177.02 -> - 52.33, - 10.75, -178.79
- 49.11, - 10.75, -178.80 -> - 51.94, - 10.77, -177.10
  40.82,   11.07,  215.02 ->   36.78,   28.54,  197.56
  60.28,    3.30,  350.82 ->   36.78,   28.54,  197.56
 163.13,   16.26,  236.61 ->   76.73,    3.30,  277.98
