  0:                                                     collector's stash 0_0 @    8.1375,    5.6038, -357.1299
  1:                                                     collector's stash 1_0 @  -29.5864,   -0.3119,  100.4684
  2:                                                     collector's stash 1_1 @  -33.4523,   20.0248,  187.5143
  3:                                                     collector's stash 1_2 @   37.5793,    4.8978,   44.4019
  4:                                                     collector's stash 1_3 @   -1.9646,    3.1048, -280.1565
  5:                                                     collector's stash 1_4 @   10.0794,    4.2625,  242.6635
  6:                                                     collector's stash 1_5 @  -10.4858,   -1.2962, -205.1797
  7:                                                     collector's stash 1_6 @  -20.2499,   -4.5412, -246.2374
  8:                                                     collector's stash 1_7 @   32.7404,   14.4106,  199.9269
  9:                             n_inventory_box_limansk1_2@snp.script:236:311 @  -54.2885,    4.0246,  159.9193
 10:                             n_inventory_box_limansk2_1@snp.script:236:318 @   83.7432,   22.1644,   91.9798
 11:                              n_inventory_box_limansk12@snp.script:236:479 @   10.5246,    1.8928, -391.0991
 12:                      n_inventory_box_limansk1@snp.script:fenrir3_done:778 @  -15.6451,   31.0414,  204.2618
 13:                      n_inventory_box_limansk2@snp.script:fenrir8_done:790 @  153.1661,   -3.9684,  191.5625
 14:              n_inventory_box_limansk3@snp.script:proper70_start_done4:895 @  -64.2281,   -0.4418, -133.0213
 15: n_inventory_box_limansk2_2@snp_spawn.script:n_inventory_box_limansk2_2:94 @   57.2070,   24.1072,  169.1373
 16:               n_inventory_box_limansk4@snp_spawn.script:tele_limansk4:112 @   -7.2270,   -4.1922, -155.3182
 17:               n_inventory_box_limansk5@snp_spawn.script:tele_limansk5:132 @   48.1212,   20.8056,  329.6913
 18:          t_inventory_box9_3 r0@taynik_spawn.script:t_new_inventory9_3:708 @  -21.3931,    1.2751,  136.2204
 19:          t_inventory_box9_3 r1@taynik_spawn.script:t_new_inventory9_3:708 @    9.1078,   -1.4888,  -33.2109
 20:                    taynik_glushitel@braad_test.script:spawn_glushitel:488 @   -0.5950,   28.2880,  182.7180 Переносной глушитель радиосигнала
 21:                                                          lima_podval_seif @  -53.5766,  -10.7536, -178.4891 treasure_item = 1
