  0: level_prefix_zone_zharka_static_average.shape0                           zone_zharka_static_average @  152.0552,   33.2490,  -12.2385
  1: level_prefix_zone_zharka_static_average_0000.shape0                      zone_zharka_static_average @   59.2767,    7.3585,  -13.8435
  2: level_prefix_zone_zharka_static_average_0001.shape0                      zone_zharka_static_average @  -43.3821,    3.4683,    4.1352
  3: x16_zone_zharka_static_average.shape0                                    zone_zharka_static_average @  -39.2992,   -7.8334,   -0.0738
  4: x16_zone_zharka_static_average_0000.shape0                               zone_zharka_static_average @  -37.6196,   -7.8334,   -5.9275
  5: x16_zone_zharka_static_average_0001.shape0                               zone_zharka_static_average @  -39.7318,   -7.8196,  -15.1898
  6: x16_zone_zharka_static_average_0002.shape0                               zone_zharka_static_average @  -32.7170,   -7.8334,  -18.2043
  7: x16_zone_zharka_static_average_0003.shape0                               zone_zharka_static_average @  -42.9918,   -7.8334,  -20.9558
  8: x16_zone_zharka_static_average_0004.shape0                               zone_zharka_static_average @  -54.4335,   -7.8334,  -19.6956
  9: x16_zone_zharka_static_average_0005.shape0                               zone_zharka_static_average @  -52.4350,   -7.8334,  -10.8658
 10: x16_zone_zharka_static_average_0006.shape0                               zone_zharka_static_average @  -48.2932,   -7.8334,   -1.5679
 11: x16_zone_zharka_static_average_0007.shape0                               zone_zharka_static_average @  -35.5295,   -7.8334,  -11.5808
 12: x16_zone_zharka_static_average_0008.shape0                               zone_zharka_static_average @  -72.0439,   21.5815,  -15.6071
 13: x16_zone_zharka_static_average_0009.shape0                               zone_zharka_static_average @ -105.1087,   21.5652,  -34.5761
 14: x16_zone_zharka_static_average_0010.shape0                               zone_zharka_static_average @ -102.9318,   21.5652,  -23.3082
