- 40.40, - 21.84,   56.54 -> - 29.67, - 21.02,   53.27
- 30.39, - 21.02,   55.94 -> -  1.30, -  7.45, - 73.98
- 19.99, -  9.50, - 27.89 -> -  1.30, -  7.45, - 73.98
- 20.02, -  9.50, - 43.68 -> - 20.04, -  9.55, - 16.48
- 20.10, -  9.39, -  6.63 -> - 39.39, -  9.42,   19.59
-  6.76, -  7.38, - 56.52 -> - 20.24, -  9.55, - 35.66
- 30.60, -  8.98,   19.56 -> - 20.24, -  9.55, - 35.66
- 32.94, -  9.45,    1.06 -> - 16.62, -  8.76,   10.48
- 48.17, - 23.53,    0.88 -> - 25.30, -  9.55, -  1.03
- 52.19, - 23.58, -  7.22 -> -  2.09, - 34.26,   22.31
- 45.10, - 23.52, - 12.44 -> - 56.66, - 23.50,   56.56
- 18.22, - 21.84,   41.69 -> - 45.37, - 23.51,   56.49
- 57.31, - 21.86,   40.73 -> - 47.21, - 23.59, -  7.36
- 49.59, - 23.54,   56.62 ->    9.89, - 21.91,   54.99
- 17.41, - 21.84,   55.66 -> - 55.22, - 21.89,   30.66
- 64.26, - 21.90,   30.61 -> -  2.15, -  9.29, - 41.07
- 52.36, - 23.59, - 13.08 -> - 56.62, - 23.49, -  2.59
- 52.97, - 23.59, -  2.04 -> - 50.87, - 23.52,   13.25
   3.52, - 21.85,   41.60 -> - 12.27, - 21.81,   55.38
-  6.41, - 21.82,   55.72 -> -  1.30, -  7.45, - 73.98
