 0: lab_x14_box_paper_0001                                           random @   49.6619,   50.8937,   54.9860
 1: lab_x14_box_wood_01                                              random @   62.2493,   50.0034,   63.9615
 2: lab_x14_box_wood_01_0000                                         random @  108.3703,   39.8906,   38.6541
 3: lab_x14_box_wood_01_0004                                         random @  104.0241,   39.9981,   50.7123
 4: lab_x14_box_wood_02_0000                                         random @   66.0087,   40.6869,   13.6612
 5: lab_x14_box_wood_02_0004                                         random @   96.9355,   39.9981,   55.1012
