  0: monster     killer_x177@buusty_dialog.script:karlik_ystinov_done:3288                        (killer_x17)  @   7.5900, -13.9700, -11.8800
  1: monster     killer_x178@buusty_dialog.script:karlik_ystinov_done:3289                        (killer_x17)  @  12.7000, -13.9700,  -9.7600
  2: monster     killer_x179@buusty_dialog.script:karlik_ystinov_done:3290                        (killer_x17)  @  20.6100, -13.9700,  25.4600
  3: monster     killer_x17_kamp1@buusty_dialog.script:karlik_ystinov_done:3291                   (killer_x17)  @   9.3900, -13.9700,  32.2500
  4: monster     killer_x17_kamp1@buusty_dialog.script:karlik_ystinov_done:3292                   (killer_x17)  @   9.3900, -13.9700,  32.2500
  5: monster     killer_x17@buusty_dialog.script:modfire_outfit_done:3383                         (killer_x17)  @  48.9300, -28.9700, -13.8600
  6: monster     killer_x171@buusty_dialog.script:modfire_outfit_done:3384                        (killer_x17)  @  48.9400, -28.9700,  -7.2600
  7: monster     killer_x172@buusty_dialog.script:modfire_outfit_done:3385                        (killer_x17)  @  31.6900, -28.9700, -26.4900
  8: monster     killer_x173@buusty_dialog.script:modfire_outfit_done:3386                        (killer_x17)  @  35.0600, -28.9800, -23.9200
  9: monster     killer_x174@buusty_dialog.script:modfire_outfit_done:3387                        (killer_x17)  @  -2.2200, -13.9700,  -4.6600
 10: monster     killer_x175@buusty_dialog.script:modfire_outfit_done:3388                        (killer_x17)  @   1.4600, -13.9700,  15.1500
 11: monster     killer_x176@buusty_dialog.script:modfire_outfit_done:3389                        (killer_x17)  @  14.0900, -13.9700,   4.6100
 12: monster     killer_x177@buusty_dialog.script:modfire_outfit_done:3390                        (killer_x17)  @   7.5900, -13.9700, -11.8800
 13: monster     killer_x178@buusty_dialog.script:modfire_outfit_done:3391                        (killer_x17)  @  12.7000, -13.9700,  -9.7600
 14: monster     killer_x179@buusty_dialog.script:modfire_outfit_done:3392                        (killer_x17)  @  20.6100, -13.9700,  25.4600
 15: monster     killer_x1710@buusty_dialog.script:modfire_outfit_done:3393                       (killer_x17)  @  27.7100, -28.9700, -22.5800
 16: monster     killer_x17_kamp1@buusty_dialog.script:modfire_outfit_done:3394                   (killer_x17)  @   9.3900, -13.9700,  32.2500
 17: monster     killer_x17_kamp1@buusty_dialog.script:modfire_outfit_done:3395                   (killer_x17)  @   9.3900, -13.9700,  32.2500
 18: monster     killer_x17_kamp1@buusty_dialog.script:modfire_outfit_done:3396                   (killer_x17)  @   9.3900, -13.9700,  32.2500
 19: monster     killer_x17_kamp2@buusty_dialog.script:modfire_outfit_done:3397                   (killer_x17)  @ -26.2500, -13.9700, -16.9900
 20: monster     killer_x17_kamp2@buusty_dialog.script:modfire_outfit_done:3398                   (killer_x17)  @ -26.2500, -13.9700, -16.9900
 21: monster     killer_x17_kamp3@buusty_dialog.script:modfire_outfit_done:3399                   (killer_x17)  @  30.6000, -13.9700,   8.1800
 22: monster     killer_x17_kamp3@buusty_dialog.script:modfire_outfit_done:3400                   (killer_x17)  @  30.6000, -13.9700,   8.1800
 23: monster     killer_x17_kamp4@buusty_dialog.script:modfire_outfit_done:3401                   (killer_x17)  @  -8.9400, -28.9700,  32.1800
 24: monster     killer_x17_kamp4@buusty_dialog.script:modfire_outfit_done:3402                   (killer_x17)  @  -8.9400, -28.9700,  32.1800
 25: monster     killer_x17_kamp5@buusty_dialog.script:modfire_outfit_done:3403                   (killer_x17)  @ -37.5000, -28.9700,  14.0400
 26: monster     killer_x17_kamp5@buusty_dialog.script:modfire_outfit_done:3404                   (killer_x17)  @ -37.5000, -28.9700,  14.0400
 27: monster     killer_x17_kamp6@buusty_dialog.script:modfire_outfit_done:3405                   (killer_x17)  @ -13.2600, -31.1400, -35.2700
 28: monster     killer_x17_kamp6@buusty_dialog.script:modfire_outfit_done:3406                   (killer_x17)  @ -13.2600, -31.1400, -35.2700
 29: monster     surgeon_npc@buusty_dialog.script:crazy_surgery_spawn:3439                        (Хирург    )  @  20.6000, -24.7800, -30.6700
 30: monster     new_hell1@buusty_dialog.script:crazy_surgery_have:3459                           (Веном     )  @  39.7000, -28.9700,   4.0400
 31: monster     new_hell1@buusty_dialog.script:crazy_surgery_have:3460                           (Веном     )  @  -3.4200, -26.4600,  -7.2000
 32: monster     new_hell1@buusty_dialog.script:crazy_surgery_have:3461                           (Веном     )  @  30.0900, -28.9700,  -6.7700
 33: monster     new_hell1@buusty_dialog.script:crazy_surgery_have:3462                           (Веном     )  @  12.3300, -28.9700,   0.2600
 34: monster     new_hell1@buusty_dialog.script:crazy_surgery_have:3463                           (Веном     )  @   3.9300, -28.9700, -12.2400
