 0: av_pesh_box_paper1_grot                                                          random @ -129.3923,   20.2134,  438.8982
 1: av_peshera_physic_destroyable_object                                             random @ -318.9443,   44.5786,  176.0406
 2: av_peshera_physic_destroyable_object_0007                                        random @ -318.0287,   62.2342,  206.0735
 3: av_peshera_physic_destroyable_object_0012                                        random @ -265.2994,   61.9424,  201.2466
