  0: LevelWarper level_changer                                                                                                                             @  -62.5400,  -24.8700,   94.1600 1 x 1
  1: manual item killer_green_exoskeleton@buusty_dialog.script:chutok_mobov:883          killer_green_exoskeleton (Экзоскелет наёмников модернизированный) @  -81.6962,  -10.3730,   60.5331
  2: manual item ammo_7.62x54r@buusty_dialog.script:chutok_mobov:893                     ammo_7.62x54r            (Короб с патронами 7.62x54R            ) @ -106.9497,  -29.9393,   72.9515
  3: manual item ammo_7.62x54r@buusty_dialog.script:chutok_mobov:894                     ammo_7.62x54r            (Короб с патронами 7.62x54R            ) @ -106.9497,  -29.9393,   72.9515
  4: manual item ammo_12x70_kart@buusty_dialog.script:chutok_mobov:895                   ammo_12x70_kart          (Патроны 12x70 Картечь                 ) @  -43.2729,  -19.5294,   67.4074
  5: manual item ammo_12x70_kart@buusty_dialog.script:chutok_mobov:896                   ammo_12x70_kart          (Патроны 12x70 Картечь                 ) @  -43.2729,  -19.5294,   67.4074
  6: manual item ammo_12.7x108r@buusty_dialog.script:chutok_mobov:897                    ammo_12.7x108r           (Лента 12.7x108мм                      ) @  -81.2491,  -15.9874,   76.9420
  7: manual item ammo_7.62x39_k@buusty_dialog.script:chutok_mobov:898                    ammo_7.62x39_k           (Патроны 7.62x39мм УЗ                  ) @  -84.5243,  -15.3776,   89.3389
  8: manual item ammo_7.62x39_k@buusty_dialog.script:chutok_mobov:899                    ammo_7.62x39_k           (Патроны 7.62x39мм УЗ                  ) @  -84.5243,  -15.3776,   89.3389
  9: manual item notebook_hermit@oksana_spawn.script:spawn_hermit:2719                   notebook_hermit          (Ноутбук Затворника                    ) @  -54.8310,  -20.9750,   91.3360
 10: manual item retranslator@mera_kogot.script:taynik_drag_spawn:50                     retranslator             (Ретранслятор                          ) @ -101.0698,  -31.9490,   81.2117
 11: LevelWarper x8_to_pri_shape_0                                                                                                                         @  -77.9595,   -7.9037,  100.8798 0.79139518737793 x 0.79139518737793
