  0:                                                  collector's stash 0_0 @  -65.3310,  -27.5683,   87.7041
  1:                                                  collector's stash 0_1 @  -57.9178,  -14.9403,   91.5304
  2:                                                  collector's stash 0_2 @  -61.3863,  -16.0053,   76.5746
  3:                                                  collector's stash 0_3 @  -53.5291,  -11.2610,   58.2487
  4:                                                  collector's stash 0_4 @  -63.3420,  -11.2606,   54.2052
  5:                                                  collector's stash 0_5 @  -93.2241,  -15.3924,   81.8020
  6:                                                  collector's stash 0_6 @  -80.0615,  -20.0225,   62.5445
  7:                                                  collector's stash 0_7 @  -68.1084,  -12.1421,   55.3322
  8:                                                  collector's stash 0_8 @  -80.6652,  -12.8856,   76.8589
  9:                m_inventory_box45@buusty_dialog.script:chutok_mobov:881 @  -93.6500,  -15.4000,   81.9000
 10:                m_inventory_box46@buusty_dialog.script:chutok_mobov:882 @  -70.8065,  -23.8559,   63.6851
 11:                  chess_taynik_19@oksana_spawn.script:spawn_hermit:2720 @  -55.0260,  -22.0140,   91.9820
 12:                                 n_inventory_box_x83@snp.script:236:493 @  -93.7400,  -15.9460,  112.1858
 13:                          n_inventory_box_x81@snp.script:anna1_done:939 @ -111.1860,  -32.3193,   87.4242
 14:                       n_inventory_box_x82@snp.script:ludmila2_done:956 @  -71.2810,   -5.6220,   70.7173
 15:         a_inventory_box42@volna_darkness.script:volna_darkness_spawn:6 @  -64.0411,  -13.3378,   77.5885
