  0:                                                  collector's stash 0_0 @ -59.7898, -18.6283,  29.5519
  1:                                                  collector's stash 0_1 @  22.5284, -16.8357,  16.1035
  2:                                                  collector's stash 0_2 @ -30.9006, -16.9974, -24.6550
  3:                                                  collector's stash 0_3 @ -18.2759,  -8.8154,  11.3620
  4:                                                  collector's stash 0_4 @  11.1605,  -5.5648,  36.3886
  5:                                                  collector's stash 0_5 @  -7.1936,  -7.3882, -79.2059
  6:                                                  collector's stash 0_6 @  -7.7009,  -4.7707,  -7.7946
  7:                                                  collector's stash 0_7 @  10.9858, -21.9076,  58.6821
  8:                 m_inventory_box12@new_spawn.script:new_inventory12:176 @   7.7449, -22.6239,   7.6079
  9:                 secret_biorobot_4@oksana_spawn.script:bio_proofs_4:919 @  -1.4960, -17.1740,  45.4450
 10:                              n_inventory_box_x101_2@snp.script:236:352 @ -30.3351, -11.7275,  48.8936
 11:                              n_inventory_box_x101_3@snp.script:236:356 @ -17.0477,  -9.5494, -34.5179
 12:                    n_inventory_box_x101@snp.script:bubulyka1_done:1019 @ -35.1056, -12.3198,  38.6157
 13:               m_inventory_box11@xr_effects.script:new_inventory11:2233 @ -30.2281, -21.0205,  58.9021
 14:               a_inventory_box16@ohota_burer.script:ohota_burer_start:3 @ -45.4213, -20.1300,   2.2290
 15:            taynik_phantom@taynik_phantom.script:taynik_phantom_start:4 @ -60.4270, -21.2110,  18.4680 Отключить генератор пси-излучения
