 0: partizan_mina@mina_partizan.script:partizan_mina_spawn:72                   partizan_mina              Усиленная противопехотная мина          @  -6.5668,   8.8242,  -0.0295
 1: partizan_mina@mina_partizan.script:partizan_mina_spawn:74                   partizan_mina              Усиленная противопехотная мина          @  -4.9918,   6.1157,   1.5220
 2: partizan_mina@mina_partizan.script:partizan_mina_spawn:76                   partizan_mina              Усиленная противопехотная мина          @  -6.6799,   4.1863,  -1.5786
 3: partizan_mina@mina_partizan.script:partizan_mina_spawn:78                   partizan_mina              Усиленная противопехотная мина          @  -6.5513,   4.1866,  -4.5698
 4: partizan_mina@mina_partizan.script:partizan_mina_spawn:80                   partizan_mina              Усиленная противопехотная мина          @  -6.5513,   4.1863,  -7.5586
 5: partizan_mina@mina_partizan.script:partizan_mina_spawn:82                   partizan_mina              Усиленная противопехотная мина          @  -4.3845,   4.1879,  -9.9386
 6: partizan_mina@mina_partizan.script:partizan_mina_spawn:84                   partizan_mina              Усиленная противопехотная мина          @  -1.4389,   4.1864,  -8.9727
 7: partizan_mina@mina_partizan.script:partizan_mina_spawn:86                   partizan_mina              Усиленная противопехотная мина          @  -2.4620,   4.1829,  -7.1270
 8: partizan_mina@mina_partizan.script:partizan_mina_spawn:88                   partizan_mina              Усиленная противопехотная мина          @  -5.6082,   4.1848,  -6.0514
 9: partizan_mina@mina_partizan.script:partizan_mina_spawn:90                   partizan_mina              Усиленная противопехотная мина          @  -5.5082,   4.1848,  -3.0514
10: partizan_mina@mina_partizan.script:partizan_mina_spawn:92                   partizan_mina              Усиленная противопехотная мина          @  -0.7043,   4.1805,  -3.3670
11: partizan_mina@mina_partizan.script:partizan_mina_spawn:94                   partizan_mina              Усиленная противопехотная мина          @  -1.7413,   4.1872,  -0.3554
12: partizan_mina@mina_partizan.script:partizan_mina_spawn:96                   partizan_mina              Усиленная противопехотная мина          @   2.4043,   4.1805,  -3.3670
13: partizan_mina@mina_partizan.script:partizan_mina_spawn:98                   partizan_mina              Усиленная противопехотная мина          @  -0.7333,   4.1815,  -5.5879
14: partizan_mina@mina_partizan.script:partizan_mina_spawn:100                  partizan_mina              Усиленная противопехотная мина          @   1.0277,   4.1843,  -4.9723
15: partizan_mina@mina_partizan.script:partizan_mina_spawn:102                  partizan_mina              Усиленная противопехотная мина          @   4.0665,   4.1880,  -6.0515
16: partizan_mina@mina_partizan.script:partizan_mina_spawn:104                  partizan_mina              Усиленная противопехотная мина          @   0.0927,   4.1844,  -7.4366
17: partizan_mina@mina_partizan.script:partizan_mina_spawn:106                  partizan_mina              Усиленная противопехотная мина          @  -3.9770,   1.1781, -14.4529
18: partizan_mina@mina_partizan.script:partizan_mina_spawn:108                  partizan_mina              Усиленная противопехотная мина          @  -0.8187,  -0.8076, -13.5944
19: partizan_mina@mina_partizan.script:partizan_mina_spawn:110                  partizan_mina              Усиленная противопехотная мина          @  -1.3217, -10.8108, -13.1989
20: partizan_mina@mina_partizan.script:partizan_mina_spawn:112                  partizan_mina              Усиленная противопехотная мина          @  -2.2915, -10.8177,  10.5027
21: partizan_mina@mina_partizan.script:partizan_mina_spawn:114                  partizan_mina              Усиленная противопехотная мина          @  -2.2915, -10.8177,   8.0027
22: partizan_mina@mina_partizan.script:partizan_mina_spawn:116                  partizan_mina              Усиленная противопехотная мина          @  -2.2915, -10.8177,   5.5027
23: partizan_mina@mina_partizan.script:partizan_mina_spawn:118                  partizan_mina              Усиленная противопехотная мина          @  -2.2915, -10.8177,  13.0027
24: partizan_mina@mina_partizan.script:partizan_mina_spawn:120                  partizan_mina              Усиленная противопехотная мина          @   0.0851, -10.8149,  23.6005
25: partizan_mina@mina_partizan.script:partizan_mina_spawn:122                  partizan_mina              Усиленная противопехотная мина          @   2.5571, -14.1826,  28.5949
26: partizan_mina@mina_partizan.script:partizan_mina_spawn:124                  partizan_mina              Усиленная противопехотная мина          @   2.3777, -10.8153,  23.7858
27: partizan_mina@mina_partizan.script:partizan_mina_spawn:126                  partizan_mina              Усиленная противопехотная мина          @  15.1867, -16.3441,  47.8550
28: partizan_mina@mina_partizan.script:partizan_mina_spawn:128                  partizan_mina              Усиленная противопехотная мина          @   0.8481, -14.1825,  29.2423
29: partizan_mina@mina_partizan.script:partizan_mina_spawn:130                  partizan_mina              Усиленная противопехотная мина          @   8.9371, -16.0943,  32.6496
30: partizan_mina@mina_partizan.script:partizan_mina_spawn:132                  partizan_mina              Усиленная противопехотная мина          @   6.4896, -16.3445,  44.4391
31: partizan_mina@mina_partizan.script:partizan_mina_spawn:134                  partizan_mina              Усиленная противопехотная мина          @   4.8842, -16.3464,  44.4227
32: partizan_mina@mina_partizan.script:partizan_mina_spawn:136                  partizan_mina              Усиленная противопехотная мина          @   7.1825, -16.3455,  41.5461
33: partizan_mina@mina_partizan.script:partizan_mina_spawn:138                  partizan_mina              Усиленная противопехотная мина          @   4.6825, -16.3455,  41.5461
34: partizan_mina@mina_partizan.script:partizan_mina_spawn:140                  partizan_mina              Усиленная противопехотная мина          @   2.5825, -16.3455,  41.5461
35: partizan_mina@mina_partizan.script:partizan_mina_spawn:142                  partizan_mina              Усиленная противопехотная мина          @  -2.5212, -16.3446,  42.9647
36: partizan_mina@mina_partizan.script:partizan_mina_spawn:144                  partizan_mina              Усиленная противопехотная мина          @  -1.9590, -16.3442,  44.2455
37: partizan_mina@mina_partizan.script:partizan_mina_spawn:146                  partizan_mina              Усиленная противопехотная мина          @  16.3160, -16.3445,  40.4314
38: partizan_mina@mina_partizan.script:partizan_mina_spawn:148                  partizan_mina              Усиленная противопехотная мина          @  14.6984, -16.3521,  44.7731
39: partizan_mina@mina_partizan.script:partizan_mina_spawn:150                  partizan_mina              Усиленная противопехотная мина          @  15.1706, -16.3456,  42.7227
40: partizan_mina@mina_partizan.script:partizan_mina_spawn:152                  partizan_mina              Усиленная противопехотная мина          @  12.3328, -16.3460,  43.8418
41: partizan_mina@mina_partizan.script:partizan_mina_spawn:154                  partizan_mina              Усиленная противопехотная мина          @  16.3361, -16.3457,  46.1301
42: partizan_mina@mina_partizan.script:partizan_mina_spawn:156                  partizan_mina              Усиленная противопехотная мина          @  13.7185, -16.3716,  46.7145
43: partizan_mina@mina_partizan.script:partizan_mina_spawn:158                  partizan_mina              Усиленная противопехотная мина          @  18.0327, -16.3460,  42.7096
44: partizan_mina@mina_partizan.script:partizan_mina_spawn:160                  partizan_mina              Усиленная противопехотная мина          @  12.8968, -16.3559,  41.5597
45: partizan_mina@mina_partizan.script:partizan_mina_spawn:162                  partizan_mina              Усиленная противопехотная мина          @  13.3051, -16.3441,  67.0049
46: partizan_mina@mina_partizan.script:partizan_mina_spawn:164                  partizan_mina              Усиленная противопехотная мина          @  11.2051, -16.3441,  67.0049
47: partizan_mina@mina_partizan.script:partizan_mina_spawn:166                  partizan_mina              Усиленная противопехотная мина          @   9.1051, -16.3441,  67.0049
48: partizan_mina@mina_partizan.script:partizan_mina_spawn:168                  partizan_mina              Усиленная противопехотная мина          @  10.0257, -16.3448,  64.4156
49: partizan_mina@mina_partizan.script:partizan_mina_spawn:170                  partizan_mina              Усиленная противопехотная мина          @  12.3332, -16.3445,  64.4201
50: partizan_mina@mina_partizan.script:partizan_mina_spawn:172                  partizan_mina              Усиленная противопехотная мина          @   7.7123, -16.3451,  65.5791
51: partizan_mina@mina_partizan.script:partizan_mina_spawn:174                  partizan_mina              Усиленная противопехотная мина          @  14.6121, -16.3461,  65.0011
52: partizan_mina@mina_partizan.script:partizan_mina_spawn:176                  partizan_mina              Усиленная противопехотная мина          @   8.3311, -16.3445,  69.6580
53: partizan_mina@mina_partizan.script:partizan_mina_spawn:178                  partizan_mina              Усиленная противопехотная мина          @  10.8311, -16.3445,  69.6580
54: partizan_mina@mina_partizan.script:partizan_mina_spawn:180                  partizan_mina              Усиленная противопехотная мина          @  13.3311, -16.3445,  69.6580
55: partizan_mina@mina_partizan.script:partizan_mina_spawn:182                  partizan_mina              Усиленная противопехотная мина          @   8.2936, -16.3439,  63.3193
56: partizan_mina@mina_partizan.script:partizan_mina_spawn:184                  partizan_mina              Усиленная противопехотная мина          @  14.0223, -16.3471,  63.2937
57: partizan_mina@mina_partizan.script:partizan_mina_spawn:186                  partizan_mina              Усиленная противопехотная мина          @   1.6334,   4.1893,  -0.3487
58: partizan_mina@mina_partizan.script:partizan_mina_spawn:188                  partizan_mina              Усиленная противопехотная мина          @   0.1006,   4.1894,   0.8709
