  0: stancia_2_zone_ameba1.shape0                                           zone_ameba1             @    5.8829,    4.9954,   93.0000
  1: aes2_zone_radioactive_strong.shape0                                    zone_radioactive_strong @  -17.7262,    2.8597,  139.1521
  2: aes2_zone_radioactive_strong_0000.shape0                               zone_radioactive_strong @   73.5916,    2.9806,  219.7523
  3: aes2_zone_radioactive_strong_0002.shape0                               zone_radioactive_strong @  133.6046,   58.7152,  134.2319
