  0:                                                       collector's stash 0_0 @  201.1141,    5.9711,   92.4766
  1:                                                       collector's stash 0_1 @  -31.5107,    2.2739,   14.7003
  2:                                                       collector's stash 0_2 @  114.4098,    3.9538,  -35.1270
  3:                                                       collector's stash 1_0 @ -122.0616,   -2.2194,  -19.1148
  4:                                                       collector's stash 1_1 @  -50.4049,    0.5092, -139.1484
  5:                                                       collector's stash 1_2 @   16.5926,   -0.2921,  271.5229
  6:                                                       collector's stash 1_3 @  -37.3676,   -2.1765, -186.0834
  7:                                                       collector's stash 1_4 @  191.2145,   -1.9588,  232.0146
  8:                                                       collector's stash 1_5 @   38.1985,    2.2733,   49.6203
  9:                                                       collector's stash 1_6 @   86.7798,   -1.4520,   45.5113
 10:                                                       collector's stash 1_7 @  -12.2397,    2.1802, -139.7497
 11:                                                       collector's stash 1_8 @  -30.8842,    9.4294,  199.7725
 12:                                                       Chessmaster's stash 0 @ -106.2265,   -2.2049,  234.4284
 13:                                                       Chessmaster's stash 6 @   92.7327,   -0.5771,  211.2517
 14:              m_inventory_box34@arhara_dialog.script:spawn_globus_sadik:5670 @  134.4399,    3.9388,  -54.6011
 15:                             s_inventory_box1_2@kostya_dialog.script:961:967 @  176.2848,   17.9638,   40.2652
 16:                 s_inventory_box1@kostya_dialog.script:s_inventory_box1:1191 @  126.6181,   15.2485,   90.8807
 17:             t_inventory_box11_1@kostya_dialog.script:t_inventory_box11:1566 @  192.1856,   12.3311,  101.3552
 18:             t_inventory_box11_3@kostya_dialog.script:t_inventory_box11:1568 @    6.5773,    8.0612,  138.0751
 19:                      secret_biorobot_6@oksana_spawn.script:bio_proofs_6:972 @  -12.0180,   30.2830,  175.3160
 20:                       m_sak_resiver_yantar@sak.script:check_droped_item:446 @    9.4700,    0.3200,  119.1300
 21:             pda_flash r2@sak_dialog.script:take_mil_Svoboda_trader_ammo:965 @   -2.8130,   -4.9320,  191.2810
 22:                                     n_inventory_box_almaz3@snp.script:3:109 @   48.8401,    2.2753,  -27.1957
 23:                                      n_inventory_box_cp4_1@snp.script:3:133 @   47.5050,    8.9498, -104.6953
 24:                                     n_inventory_box_cp11@snp.script:236:262 @  -12.7129,   -5.1685,  193.1952
 25:                                      n_inventory_box_cp3@snp.script:236:424 @  209.3704,    2.7850,   87.7848
 26:                                    n_inventory_box_cp4_2@snp.script:236:436 @   47.5590,    8.9481, -164.2263
 27:                                   n_inventory_box_almaz4@snp.script:581:595 @   -7.8711,    2.2752,  -27.1665
 28:                                   n_inventory_box_almaz5@snp.script:581:599 @  -33.0415,    5.4613,  -31.5171
 29:                                   n_inventory_box_almaz6@snp.script:581:603 @   47.7628,    8.6411,  -31.5162
 30:                                   n_inventory_box_almaz7@snp.script:581:607 @  -18.4997,    1.4957,  -25.4811
 31:                                   n_inventory_box_almaz8@snp.script:581:611 @   44.4418,    4.6752,  -25.2461
 32:                                  n_inventory_box_almaz10@snp.script:581:621 @ -208.3669,    8.6610,   42.2461
 33:                                  n_inventory_box_almaz11@snp.script:581:625 @ -216.1224,    5.4741,   86.9033
 34:                      n_inventory_box_cp2@snp.script:resident_evil2_done:840 @  209.3019,   12.3371,   98.2202
 35:          n_inventory_box_almaz9@snp_spawn.script:n_inventory_box_almaz9:180 @ -100.9577,   13.6231,  -14.1967
 36:              n_inventory_box_cp1@snp_spawn.script:n_inventory_box_cp1_2:260 @   92.6221,   -0.5663,  210.3264
 37:                       n_inventory_box_cp4_3@snp_spawn.script:snp_cp_tp1:376 @  -66.9555,    3.9704,  148.0003
 38:            t_inventory_box1_1 r0@taynik_spawn.script:t_new_inventory1_1:493 @  181.4750,   -0.6752,   52.4857
 39:            t_inventory_box1_1 r1@taynik_spawn.script:t_new_inventory1_1:493 @   96.3821,   -0.9728,  -89.3717
 40:            t_inventory_box9_1 r0@taynik_spawn.script:t_new_inventory9_1:690 @   42.4071,   -0.1457,  -58.3195
 41:            t_inventory_box9_1 r1@taynik_spawn.script:t_new_inventory9_1:690 @   54.9438,   -2.2707,  -33.5776
 42:            t_inventory_box9_1 r2@taynik_spawn.script:t_new_inventory9_1:690 @   38.7948,   -1.0488,  -44.4655
 43:          t_inventory_box11_2 r0@taynik_spawn.script:t_new_inventory11_2:726 @  130.3093,    3.8447,   -5.7861
 44:          t_inventory_box11_2 r1@taynik_spawn.script:t_new_inventory11_2:726 @  100.8525,    3.8436,  -41.0625
 45:                 m_inventory_box8 r0@taynik_spawn.script:new_inventory8:1013 @  138.5400,   -0.8300,  -52.7300
 46:                 m_inventory_box8 r1@taynik_spawn.script:new_inventory8:1013 @  -96.6400,    6.4700,  -39.9400
 47:                 m_inventory_box8 r2@taynik_spawn.script:new_inventory8:1013 @  -72.8900,    3.9900,    6.7700
 48:                 m_inventory_box9 r0@taynik_spawn.script:new_inventory9:1040 @  110.5900,    3.9900,  115.9900
 49:                 m_inventory_box9 r1@taynik_spawn.script:new_inventory9:1040 @  103.6900,    7.5300,  149.5600
 50:                 m_inventory_box9 r2@taynik_spawn.script:new_inventory9:1040 @  106.7900,    7.5300,  119.4100
 51:               m_inventory_box10 r0@taynik_spawn.script:new_inventory10:1063 @ -129.9300,   -1.5600,   99.6700
 52:               m_inventory_box10 r1@taynik_spawn.script:new_inventory10:1063 @  199.9800,   -1.3500,  206.9100
 53:               m_inventory_box10 r2@taynik_spawn.script:new_inventory10:1063 @ -122.0800,   -1.3400,  100.0300
 54: s_inventory_box1_3@xr_effects.script:strelok_taynik_pda1_3_1_sr1_found:2526 @   52.0419,   31.6425,   42.1429
 55: s_inventory_box1_4@xr_effects.script:strelok_taynik_pda1_3_2_sr1_found:2531 @ -114.9095,   13.6231,   29.1118
 56:   s_inventory_box1_5@xr_effects.script:strelok_taynik_pda1_4_sr1_found:2536 @   43.8507,   11.8276,   42.4150
 57:          t_inventory_box1_5@xr_effects.script:kostya_taynik_pda1_found:2592 @   96.9744,   11.8277,   42.3942
 58:          t_inventory_box1_4@xr_effects.script:kostya_taynik_pda1_found:2593 @   90.6807,    8.6427,   42.3936
 59:          t_inventory_box1_3@xr_effects.script:kostya_taynik_pda1_found:2594 @   90.6789,    5.4578,   42.3931
 60:          t_inventory_box1_2@xr_effects.script:kostya_taynik_pda1_found:2595 @   43.8497,    2.2733,   30.8440
 61:                         x_inventory_box1@xr_effects.script:ktdt1_found:2606 @  -59.9697,   11.5092,   81.5954
 62:                    a_inventory_box25@taynik_virus.script:unknown_gp_start:3 @  -11.1051,   -1.5646,  187.2652
 63:                      taynik_virus@taynik_virus.script:taynik_virus_start:39 @  107.8303,   -0.2659,    3.2955
 64:                               vert_gps@kuznec_gps.script:kuznec_gps_start:6 @  -85.8320,    1.1160,   33.3320 Установить радиомаяк
 65:                               vert_gps@kuznec_gps.script:kuznec_gps_start:7 @   -8.6720,    3.5370,  344.9880 Установить радиомаяк
 66:                                   toy1@muha_kukla.script:sak_kukla_start:16 @  104.1310,    4.3850,  -31.5440 Чебурашка
 67:                                   toy2@muha_kukla.script:sak_kukla_start:17 @  113.6560,    4.7410,  -18.5480 Машинка
 68:                                   toy3@muha_kukla.script:sak_kukla_start:18 @  137.6910,   -0.1970,  -51.3490 Самолётик
 69:                       taynik_shron@shurup_shron.script:shurup_shron_start:7 @  144.0900,    3.9300,   -8.1100 Наполнить схрон Свободы припасами
 70:                                         invisible_box emb_inventory_box_cp1 @  143.4637,    8.3857,  -28.4979 snp\\schebet2_25
 71:                                         invisible_box emb_inventory_box_cp2 @  132.2902,   -0.9289,  -35.0888
 72:                                         invisible_box emb_inventory_box_cp3 @  132.1738,    3.9322,  -38.8250
 73:                                                                    dok_seif @  -80.6608,    0.0139,  270.8960 medkit = 2, wpn_ak74_m1 = 1, ammo_7.62x39_fmj = 2
