  0: LevelWarper level_changer                                                                                                                    @ -111.2561,    1.9637, -289.0874 1 x 1
  1: item        Criminal note 11                                                       note_zone_11             ("НС - Код 2-61-9-54-7"        ) @  -10.8418,  -18.5502,  -96.9443
  2: lost page   document page 0_0                                                      zonedocs_1               (Часть документов              ) @   19.3049,  -11.8566, -236.1434
  3: lost page   document page 0_1                                                      zonedocs_2               (Часть документов              ) @   95.5056,    0.1504,   27.1962
  4: lost page   document page 0_2                                                      zonedocs_3               (Часть документов              ) @  119.1396,    0.2622, -134.1849
  5: lost page   document page 0_3                                                      zonedocs_4               (Часть документов              ) @  118.4621,    0.0442,   49.9209
  6: lost page   document page 0_4                                                      zonedocs_5               (Часть документов              ) @   78.0898,    0.1091,   41.3337
  7: lost page   document page 0_5                                                      zonedocs_6               (Часть документов              ) @   61.1080,   -0.8481,   29.1454
  8: lost page   document page 0_6                                                      zonedocs_7               (Часть документов              ) @    5.4274,   14.4530,   -7.1055
  9: lost page   document page 0_7                                                      zonedocs_8               (Часть документов              ) @   46.2115,    4.6846,  -48.7935
 10: lost page   document page 0_8                                                      zonedocs_9               (Часть документов              ) @   19.2936,    0.0843,   -5.6227
 11: lost page   document page 0_9                                                      zonedocs_10              (Часть документов              ) @  -25.3300,    0.3700,    3.6700
 12: lost page   document page 0_10                                                     zonedocs_11              (Часть документов              ) @  -15.9800,    0.3500,  -33.7900
 13: lost page   document page 0_11                                                     zonedocs_12              (Часть документов              ) @  -58.0583,  -12.4535, -255.8181
 14: lost page   document page 0_12                                                     zonedocs_13              (Часть документов              ) @  -92.4096,   -3.0049, -200.6944
 15: lost page   document page 0_13                                                     zonedocs_14              (Часть документов              ) @  115.1031,    1.7377,    0.5819
 16: lost page   document page 0_14                                                     zonedocs_15              (Часть документов              ) @   37.5805,    0.7835, -136.2265
 17: lost page   document page 0_15                                                     zonedocs_16              (Часть документов              ) @  115.2351,   -4.8255, -221.7997
 18: lost page   document page 0_16                                                     zonedocs_17              (Часть документов              ) @   16.5417,    7.8622,  -70.9791
 19: lost page   document page 0_17                                                     zonedocs_18              (Часть документов              ) @   49.7467,    7.3793,   27.0767
 20: lost page   document page 0_18                                                     zonedocs_19              (Часть документов              ) @   89.7968,    6.7685,  -43.4751
 21: lost page   document page 0_19                                                     zonedocs_20              (Часть документов              ) @   92.2932,    0.0297,   -6.1236
 22: lost page   document page 0_20                                                     zonedocs_21              (Часть документов              ) @   26.4333,    0.1370,   44.0258
 23: lost page   document page 0_21                                                     zonedocs_22              (Часть документов              ) @   74.7449,    0.1881,  -72.5353
 24: lost page   document page 0_22                                                     zonedocs_23              (Часть документов              ) @    4.9247,   14.2547,   14.6013
 25: manual item antizombie@arhara_dialog.script:spawn_antizombin_yntar:5957            antizombie               (Антизомбин                    ) @  111.2200,   -8.7690, -204.7680
 26: manual item antizombie@arhara_dialog.script:spawn_antizombin_yntar:5958            antizombie               (Антизомбин                    ) @  111.1940,   -8.7250, -204.3250
 27: manual item antizombie@arhara_dialog.script:spawn_antizombin_yntar:5959            antizombie               (Антизомбин                    ) @  108.1900,   -8.8700, -209.4050
 28: manual item ammo_7.62x54_izomorf@arhara_dialog.script:spawn_izomorfy_chernom:5980  ammo_7.62x54_izomorf     (Патроны 7.62x54мм Изоморф     ) @   -1.3650,   20.7310,  -10.0720
 29: manual item ammo_7.62x54_izomorf@arhara_dialog.script:spawn_izomorfy_chernom:5981  ammo_7.62x54_izomorf     (Патроны 7.62x54мм Изоморф     ) @   -1.3650,   20.7310,  -10.0720
 30: manual item ammo_7.62x54_izomorf@arhara_dialog.script:spawn_izomorfy_chernom:5982  ammo_7.62x54_izomorf     (Патроны 7.62x54мм Изоморф     ) @   -1.9570,   20.7310,   -9.9890
 31: manual item ammo_7.62x54_izomorf@arhara_dialog.script:spawn_izomorfy_chernom:5983  ammo_7.62x54_izomorf     (Патроны 7.62x54мм Изоморф     ) @   -1.9570,   20.7310,   -9.9890
 32: manual item 7.62x54_izomorf@arhara_dialog.script:spawn_izomorfy_chernom:5984       7.62x54_izomorf          (7.62x54-изоморф               ) @   -1.3650,   20.7310,  -10.0720
 33: manual item 7.62x54_izomorf@arhara_dialog.script:spawn_izomorfy_chernom:5985       7.62x54_izomorf          (7.62x54-изоморф               ) @   -1.9570,   20.7310,   -9.9890
 34: manual item wa2000_izomorf@arhara_dialog.script:spawn_izomorfy_chernom:5986        wa2000_izomorf           (Walther WA 2000 «Аномалия»    ) @   -1.9060,   20.7310,   -8.6940
 35: manual item bars3_pda@buusty_dialog.script:crazy_surgery_sak:3072                  bars3_pda                (КПК командира отряда «Капелла») @   19.9251,    0.0851,   -4.4192
 36: manual item thief_pda_3@oksana_spawn.script:attack_debt:2233                       thief_pda_3              (КПК зомби                     ) @ -113.2900,   -9.5210, -223.2620
 37: manual item af_cry_1@oksana_spawn.script:mutants_amber:3889                        af_cry_1                 ("Слёзы Электры"               ) @  -52.1430,  -12.3090, -255.6850
 38: manual item af_cry_2@oksana_spawn.script:mutants_amber:3890                        af_cry_2                 ("Слёзы огня"                  ) @  126.4520,   -3.0820,   42.3660
 39: manual item af_cry_3@oksana_spawn.script:mutants_amber:3891                        af_cry_3                 ("Слёзы химеры"                ) @   -0.1340,   20.7310,  -10.7010
 40: manual item desk_lamp@oksana_spawn.script:consumer_society:4635                    desk_lamp                (Настольная Лампа              ) @   91.4670,    1.8190,   -5.5410
 41: manual item publicity_material_3@oksana_spawn.script:publicity_material_3:4720     publicity_material_3     (Небольшой рюкзак              ) @    5.9040,   11.9030,   -9.8620
 42: manual item af_blood_green@sak.script:add_blood_green:314                          af_blood_green           ("Изумрудная Кровь камня"      ) @   55.3400,    1.2700,   40.8900
 43: manual item akill_kanifol@saharov_obrazec.script:saharov_obrazec_done:56           akill_kanifol            (Банка канифоли                ) @   30.6621,  -10.8560, -273.1746
 44: manual item deshifrator@survival_quest.script:zombie_module_spawn:25               deshifrator              (Модуль-дешифратор             ) @   83.2523,    0.0398,  -55.4772
 45: manual item vssm_module r102@upgrade_vssm.script                                   vssm_module              (Random VSSM Module            ) @  -13.3863,   -9.0669, -316.2348
 46: manual item vssm_module r103@upgrade_vssm.script                                   vssm_module              (Random VSSM Module            ) @  -57.7215,  -12.3645, -258.8184
 47: manual item vssm_module r104@upgrade_vssm.script                                   vssm_module              (Random VSSM Module            ) @   17.8967,   -3.3730, -199.6422
 48: manual item vssm_module r105@upgrade_vssm.script                                   vssm_module              (Random VSSM Module            ) @   17.6056,    0.6129, -119.2937
 49: manual item vssm_module r106@upgrade_vssm.script                                   vssm_module              (Random VSSM Module            ) @   83.4654,    1.5345, -135.2362
 50: manual item vssm_module r107@upgrade_vssm.script                                   vssm_module              (Random VSSM Module            ) @  112.1593,    1.4288, -152.7845
 51: manual item vssm_module r108@upgrade_vssm.script                                   vssm_module              (Random VSSM Module            ) @  146.6976,   -5.7765, -101.7575
 52: manual item vssm_module r109@upgrade_vssm.script                                   vssm_module              (Random VSSM Module            ) @   88.7117,    0.0400,  -63.5136
 53: manual item vssm_module r110@upgrade_vssm.script                                   vssm_module              (Random VSSM Module            ) @  126.0351,   -3.1324,   49.8488
 54: manual item vssm_module r111@upgrade_vssm.script                                   vssm_module              (Random VSSM Module            ) @   62.8396,    1.5838,   39.9828
 55: manual item vssm_module r112@upgrade_vssm.script                                   vssm_module              (Random VSSM Module            ) @   61.9562,    9.9165,  -25.0926
 56: manual item vssm_module r113@upgrade_vssm.script                                   vssm_module              (Random VSSM Module            ) @   49.6295,    1.4681, -148.0438
 57: manual item vssm_module r114@upgrade_vssm.script                                   vssm_module              (Random VSSM Module            ) @  -23.4065,  -13.1307, -262.4242
 58: manual item vssm_module r115@upgrade_vssm.script                                   vssm_module              (Random VSSM Module            ) @   53.2780,  -11.5375, -250.6913
 59: item        yan_grenade_rgd5                                                       grenade_rgd5             (Граната РГД-5                 ) @    2.9863,   20.7597,   -7.3752
 60: LevelWarper exit_to_agroprom_103_shape_0                                                                                                     @  -69.8496,    3.8378, -362.1278 2 x 2
 61: LevelWarper exit_to_brainlab_01_shape_0                                                                                                      @    3.4358,   -5.5930,  -12.5399 3.22667789459229 x 10.8837995529175
 62: LevelWarper exit_to_radar_106_shape_0                                                                                                        @  181.9796,   19.4078,   83.3478 3.7532651424408 x 3.7532651424408
 63: LevelWarper exit_to_rostok_01_shape_0                                                                                                        @  216.4396,    6.5478, -250.4778 15.3015985488892 x 77.9236526489258
 64: LevelWarper yantar_to_av_peshera_shape_0                                                                                                     @   13.5014,   -3.6135, -200.7605 2 x 2
