  0:                                                 collector's stash 0_0 @  -70.7924,    0.6677, -179.6047
  1:                                                 collector's stash 0_1 @   83.3470,    0.2370,  -66.2230
  2:                                                 collector's stash 0_2 @  132.4630,    1.1220,   46.0290
  3:                                                 collector's stash 1_0 @  -99.9200,   -3.7600, -279.0100
  4:                                                 collector's stash 1_1 @   95.0929,    3.0576, -117.8816
  5:                                                 collector's stash 1_2 @   77.5234,    2.1298,  -40.3756
  6:                                                 collector's stash 1_3 @   50.3928,    0.4901,    1.9027
  7:                                                 collector's stash 1_4 @   39.5561,    0.4369,   12.2896
  8:                                                 collector's stash 1_5 @   17.0125,  -11.8794, -239.1822
  9:                                                 collector's stash 1_6 @  -17.9917,  -11.6849, -244.6624
 10:                                                 collector's stash 1_7 @  -17.9917,  -11.6849, -244.6624
 11:                                                 collector's stash 1_8 @   27.3611,  -10.7931, -278.4370
 12:              m_inventory_box_skat@arhara_dialog.script:out_outfit:775 @  -12.0840,    4.8790,  -43.3650
 13:           m_inventory_box60@buusty_dialog.script:spawn_ari_bronik:808 @  -90.9706,  -12.3083, -243.1748
 14:          x_inventory_box3@kostya_dialog.script:spawn_x_teleport3:1627 @  -27.1079,    0.7464, -160.1065
 15:                         n_inventory_box_yantar1@snp.script:x16_1:1690 @  -25.5925,  -19.0886,  -23.4448
 16:            m_inventory_box4 r0@taynik_spawn.script:new_inventory4:906 @   95.6600,    0.4900,   25.5500
 17:            m_inventory_box4 r1@taynik_spawn.script:new_inventory4:906 @   77.8000,    0.2000,   41.7500
 18:            m_inventory_box4 r2@taynik_spawn.script:new_inventory4:906 @   61.6300,   -0.7700,   -0.5000
 19:            m_inventory_box4 r3@taynik_spawn.script:new_inventory4:906 @   35.3800,    6.9100,   -3.5500
 20:            m_inventory_box4 r4@taynik_spawn.script:new_inventory4:906 @   50.7100,    3.1000,  -54.1900
 21:            m_inventory_box4 r5@taynik_spawn.script:new_inventory4:906 @    4.8000,   14.2700,   14.5969
