 0: kuznec_mina@arhara_dialog.script:out_outfit:776                       kuznec_mina              Усиленная противопехотная мина @  -10.0200,    0.7300,  -40.1700
 1: kuznec_mina@arhara_dialog.script:out_outfit:777                       kuznec_mina              Усиленная противопехотная мина @  -11.8800,    0.7300,  -40.6600
 2: kuznec_mina@arhara_dialog.script:out_outfit:778                       kuznec_mina              Усиленная противопехотная мина @  -10.2200,    0.7300,  -41.4300
 3: kuznec_mina@arhara_dialog.script:out_outfit:779                       kuznec_mina              Усиленная противопехотная мина @   -9.5200,    0.7400,  -40.9400
 4: kuznec_mina@buusty_dialog.script:naim_skat15_add0:4838                kuznec_mina              Усиленная противопехотная мина @  -10.8600,    0.7300,  -40.6300
 5: kuznec_mina@buusty_dialog.script:naim_skat15_add0:4840                kuznec_mina              Усиленная противопехотная мина @   -9.9300,    0.7300,  -41.8800
 6: kuznec_mina@buusty_dialog.script:naim_skat15_add0:4842                kuznec_mina              Усиленная противопехотная мина @  -12.0300,    0.7300,  -41.8100
 7: kuznec_mina@buusty_dialog.script:naim_skat15_add0:4844                kuznec_mina              Усиленная противопехотная мина @   -8.6700,    0.7300,  -40.9300
 8: kuznec_mina@buusty_dialog.script:naim_skat15_add0:4846                kuznec_mina              Усиленная противопехотная мина @   12.0600,    0.0400,  -44.5500
 9: kuznec_mina@buusty_dialog.script:naim_skat15_add0:4850                kuznec_mina              Усиленная противопехотная мина @   18.0400,    0.0500,  -37.8800
10: kuznec_mina@buusty_dialog.script:naim_skat15_add2:4879                kuznec_mina              Усиленная противопехотная мина @  -10.0200,    0.7300,  -40.1700
11: kuznec_mina@buusty_dialog.script:naim_skat15_add2:4881                kuznec_mina              Усиленная противопехотная мина @   -8.6300,    0.7300,  -40.3800
12: kuznec_mina@buusty_dialog.script:naim_skat15_add2:4883                kuznec_mina              Усиленная противопехотная мина @  -10.2200,    0.7300,  -41.4300
13: glus_6@docent_silence.script:docent_silence_start:12                  glus_6                   Прибор радиоподавления         @  -22.2538,   27.7773,  -52.8329
