  0:                                                       collector's stash 0_0 @ -393.7453,   15.2898,   -0.6367
  1:                                                       collector's stash 0_1 @  224.4023,  -16.6095,  123.2887
  2:                                                       collector's stash 0_2 @  437.7686,    1.8135,  444.8625
  3:                                                       collector's stash 0_3 @ -454.9155,    6.8011, -356.0125
  4:                                                       collector's stash 0_4 @  -91.7185,   26.1414, -298.6602
  5:                                                       collector's stash 0_5 @  -59.2216,    3.6196,  205.3618
  6:                                                       collector's stash 0_6 @ -372.0592,    8.5419,  410.6395
  7:                                                       collector's stash 0_7 @  404.8574,   35.3981, -325.7580
  8:          m_inventory_box_shalyi@arhara_dialog.script:inventory21_spawn:2215 @  323.6400,   31.3800, -297.8000
  9:                     m_inventory_box_hawk@buusty_dialog.script:tanki_upi:941 @  -35.7122,    2.5074,  -24.0595
 10:                        m_inventory_box52@buusty_dialog.script:tanki_upi:942 @ -201.2609,  -13.2198,  353.2389
 11:                        m_inventory_box53@buusty_dialog.script:tanki_upi:943 @ -327.6483,    2.0266,  247.9380
 12:                        m_inventory_box54@buusty_dialog.script:tanki_upi:944 @ -322.9822,    0.4361,  177.4287
 13:                        m_inventory_box55@buusty_dialog.script:tanki_upi:945 @ -202.2404,    5.0948, -428.6597
 14:                        m_inventory_box63@buusty_dialog.script:tanki_upi:946 @ -166.4547,   -2.8280,  463.8337
 15:                        m_inventory_box64@buusty_dialog.script:tanki_upi:947 @  225.1529,  -15.8919,  115.9921
 16:                        m_inventory_box65@buusty_dialog.script:tanki_upi:948 @  315.9818,   -5.5598,  483.7474
 17:             m_inventory_box61@buusty_dialog.script:spawn_buusty_nychka:1313 @   14.6385,   25.5219, -186.7401
 18: m_inventory_box_alex_upiter@buusty_dialog.script:otday_box_alexandrych:1838 @ -445.4997,    3.2858, -339.2943
 19:    m_inventory_box_kuzmat_upiter@buusty_dialog.script:spawn_kuzmat_lek:1936 @ -338.9765,    2.0884,  262.9151
 20:                   yashik_smeley@buusty_dialog.script:upiter_afterparty:1961 @  345.8537,   20.7119, -314.6751
 21:                   yashik_smeley@buusty_dialog.script:upiter_afterparty:1962 @  346.3808,   20.7112, -314.3522
 22:                      n_inventory_box_jupiter8@fly_island.script:final36:632 @  326.6156,   19.9052, -325.1555
 23:                     taynik_chess@oksana_spawn.script:blank_sheet_2_have:363 @  448.7610,   31.1005, -455.8230
 24:                chess_taynik_21@oksana_spawn.script:floodlight_backpack:3029 @ -456.1880,    0.3360, -384.7880
 25:                  case_explosive@oksana_spawn.script:suitcase_explosive:3117 @ -337.4170,   -3.5480,  229.1860
 26:                               n_inventory_box_jupiter8_2@snp.script:236:456 @  387.5181,   15.2373,  -85.5018
 27:                 n_inventory_box_jupiter2@snp.script:resident_evil9_done:858 @ -131.7120,   33.4410, -495.3560
 28:                      n_inventory_box_jupiter3@snp.script:proper705_done:914 @    0.0003,    9.8300,  173.8793
 29:                     n_inventory_box_jupiter1@snp.script:bubulyka3_done:1025 @  223.7664,  -27.3852,  118.8679
 30:             n_inventory_box_jupiter10@snp.script:spawn_fenrir_resident:1151 @ -394.7877,   11.4176,  -16.3006
 31:                         yashik_smeley@snp.script:spawn_fenrir_resident:1152 @ -390.2521,   11.4165,  -15.5701
 32:                         yashik_smeley@snp.script:spawn_fenrir_resident:1153 @ -390.9561,   11.4166,  -15.5668
 33:                         yashik_smeley@snp.script:spawn_fenrir_resident:1154 @ -391.6187,   11.4166,  -15.5659
 34:                         yashik_smeley@snp.script:spawn_fenrir_resident:1155 @ -392.3026,   11.4166,  -15.5649
 35:                       m_inventory_box_parad@snp_parad.script:parad_start:14 @  163.0349,   27.1852, -184.9636
 36:    n_inventory_box_jupiter6@snp_spawn.script:snpt_jupiter5_restr3_chunk:684 @  406.4664,   59.0282, -221.1595
 37:  n_inventory_box_jupiter11@snp_spawn.script:n_inventory_box_jupiter11_4:834 @  -10.2792,   20.0163, -307.9169
 38:           a_inventory_box66@adrenalin_obves.script:adrenalin_obves_start:12 @  360.2610,   -6.3284,  432.4698
 39:           a_inventory_box65@adrenalin_obves.script:adrenalin_obves_start:15 @ -379.1822,    4.2105,  396.3046
 40:               a_inventory_box43@greshnik_trap.script:greshnik_trap_start:53 @   47.9180,   31.2538, -181.7979
 41:                      keis_key_box@keis_oruzeinik.script:ohota_wolf_start:26 @  392.1720,   17.4530,  355.4160
 42:         a_inventory_box62@svoboda_peremirie.script:taynik_hameleon_spawn:36 @  223.7565,   -9.0881,  167.6499
 43:                      akill_ballon1@akill_ballon.script:akill_ballon_start:4 @ -169.1160,   -1.3170, -250.5620 Прикрепить радиомаячок на баллон
 44:                      akill_ballon2@akill_ballon.script:akill_ballon_start:5 @ -158.4470,    6.8910, -291.6250 Прикрепить радиомаячок на баллон
 45:                      akill_ballon3@akill_ballon.script:akill_ballon_start:6 @ -171.3820,    9.9210, -299.4270 Прикрепить радиомаячок на баллон
 46:                      akill_ballon4@akill_ballon.script:akill_ballon_start:7 @ -103.3850,   19.1270, -306.1380 Прикрепить радиомаячок на баллон
 47:                      akill_ballon5@akill_ballon.script:akill_ballon_start:8 @  -99.3200,   21.5140, -314.8930 Прикрепить радиомаячок на баллон
 48:                      akill_ballon6@akill_ballon.script:akill_ballon_start:9 @ -109.5660,   20.5150, -323.3030 Прикрепить радиомаячок на баллон
 49:                     akill_ballon7@akill_ballon.script:akill_ballon_start:10 @  -57.7410,   17.3170, -314.4480 Прикрепить радиомаячок на баллон
 50:                     akill_ballon8@akill_ballon.script:akill_ballon_start:11 @  -19.3950,   20.2800, -314.5780 Прикрепить радиомаячок на баллон
 51:                              vert_gps@kuznec_gps.script:kuznec_gps_start:28 @  342.9480,   31.0510, -395.7850 Установить радиомаяк
 52:                              vert_gps@kuznec_gps.script:kuznec_gps_start:30 @ -131.9190,   30.4880, -468.7920 Установить радиомаяк
 53:                                                      jup_inventory_box_0000 @  398.6632,   27.9930, -197.3863 det_artefact_indy
 54:                                                      jup_inventory_box_0001 @  400.9926,   39.3392, -208.1635 af_dummy_wool
